CourseWorkUmler/2BitConverter/simulation/qsim/kurs.msim.vcd
$comment
	File created using the following command:
		vcd file kurs.msim.vcd -direction
$end
$date
	Sun May 19 15:23:52 2024
$end
$version
	ModelSim Version 10.1d
$end
$timescale
	1ps
$end
$scope module kurs_vlg_vec_tst $end
$var reg 1 ! C $end
$var wire 1 " q [7] $end
$var wire 1 # q [6] $end
$var wire 1 $ q [5] $end
$var wire 1 % q [4] $end
$var wire 1 & q [3] $end
$var wire 1 ' q [2] $end
$var wire 1 ( q [1] $end
$var wire 1 ) q [0] $end
$var wire 1 * sampler $end
$scope module i1 $end
$var wire 1 + gnd $end
$var wire 1 , vcc $end
$var wire 1 - unknown $end
$var tri1 1 . devclrn $end
$var tri1 1 / devpor $end
$var tri1 1 0 devoe $end
$var wire 1 1 C~combout $end
$var wire 1 2 C~clkctrl_outclk $end
$var wire 1 3 inst876867|LPM_COUNTER_component|auto_generated|counter_comb_bita0~combout $end
$var wire 1 4 inst876867|LPM_COUNTER_component|auto_generated|counter_comb_bita0~COUT $end
$var wire 1 5 inst876867|LPM_COUNTER_component|auto_generated|counter_comb_bita1~COUT $end
$var wire 1 6 inst876867|LPM_COUNTER_component|auto_generated|counter_comb_bita2~combout $end
$var wire 1 7 inst876867|LPM_COUNTER_component|auto_generated|counter_comb_bita1~combout $end
$var wire 1 8 inst876867|LPM_COUNTER_component|auto_generated|safe_q [2] $end
$var wire 1 9 inst876867|LPM_COUNTER_component|auto_generated|safe_q [1] $end
$var wire 1 : inst876867|LPM_COUNTER_component|auto_generated|safe_q [0] $end
$upscope $end
$upscope $end
$enddefinitions $end
#0
$dumpvars
0!
0)
0(
0'
0&
0%
0$
0#
0"
x*
0+
1,
x-
1.
1/
10
01
02
13
04
15
06
07
0:
09
08
$end
#12500
1!
11
12
0*
1:
14
03
1)
17
#25000
0!
01
02
1*
#37500
1!
11
12
0*
19
0:
05
07
04
13
1(
0)
16
15
17
06
#50000
0!
01
02
1*
#62500
1!
11
12
0*
1:
14
03
1)
05
07
16
#75000
0!
01
02
1*
#87500
1!
11
12
0*
09
18
0:
15
17
06
04
13
0(
1'
0)
16
07
#100000
0!
01
02
1*
#112500
1!
11
12
0*
1:
14
03
1)
17
#125000
0!
01
02
1*
#137500
1!
11
12
0*
19
0:
05
07
04
13
1(
0)
06
15
17
16
#150000
0!
01
02
1*
#162500
1!
11
12
0*
1:
14
03
1)
05
07
06
#175000
0!
01
02
1*
#187500
1!
11
12
0*
09
08
0:
15
17
16
04
13
0(
0'
0)
06
07
#200000
0!
01
02
1*
#212500
1!
11
12
0*
1:
14
03
1)
17
#225000
0!
01
02
1*
#237500
1!
11
12
0*
19
0:
05
07
04
13
1(
0)
16
15
17
06
#250000
0!
01
02
1*
#262500
1!
11
12
0*
1:
14
03
1)
05
07
16
#275000
0!
01
02
1*
#287500
1!
11
12
0*
09
18
0:
15
17
06
04
13
0(
1'
0)
16
07
#300000
0!
01
02
1*
#312500
1!
11
12
0*
1:
14
03
1)
17
#325000
0!
01
02
1*
#337500
1!
11
12
0*
19
0:
05
07
04
13
1(
0)
06
15
17
16
#350000
0!
01
02
1*
#362500
1!
11
12
0*
1:
14
03
1)
05
07
06
#375000
0!
01
02
1*
#387500
1!
11
12
0*
09
08
0:
15
17
16
04
13
0(
0'
0)
06
07
#400000
0!
01
02
1*
#412500
1!
11
12
0*
1:
14
03
1)
17
#425000
0!
01
02
1*
#437500
1!
11
12
0*
19
0:
05
07
04
13
1(
0)
16
15
17
06
#450000
0!
01
02
1*
#462500
1!
11
12
0*
1:
14
03
1)
05
07
16
#475000
0!
01
02
1*
#487500
1!
11
12
0*
09
18
0:
15
17
06
04
13
0(
1'
0)
16
07
#500000
0!
01
02
1*
#512500
1!
11
12
0*
1:
14
03
1)
17
#525000
0!
01
02
1*
#537500
1!
11
12
0*
19
0:
05
07
04
13
1(
0)
06
15
17
16
#550000
0!
01
02
1*
#562500
1!
11
12
0*
1:
14
03
1)
05
07
06
#575000
0!
01
02
1*
#587500
1!
11
12
0*
09
08
0:
15
17
16
04
13
0(
0'
0)
06
07
#600000
0!
01
02
1*
#612500
1!
11
12
0*
1:
14
03
1)
17
#625000
0!
01
02
1*
#637500
1!
11
12
0*
19
0:
05
07
04
13
1(
0)
16
15
17
06
#650000
0!
01
02
1*
#662500
1!
11
12
0*
1:
14
03
1)
05
07
16
#675000
0!
01
02
1*
#687500
1!
11
12
0*
09
18
0:
15
17
06
04
13
0(
1'
0)
16
07
#700000
0!
01
02
1*
#712500
1!
11
12
0*
1:
14
03
1)
17
#725000
0!
01
02
1*
#737500
1!
11
12
0*
19
0:
05
07
04
13
1(
0)
06
15
17
16
#750000
0!
01
02
1*
#762500
1!
11
12
0*
1:
14
03
1)
05
07
06
#775000
0!
01
02
1*
#787500
1!
11
12
0*
09
08
0:
15
17
16
04
13
0(
0'
0)
06
07
#800000
0!
01
02
1*
#812500
1!
11
12
0*
1:
14
03
1)
17
#825000
0!
01
02
1*
#837500
1!
11
12
0*
19
0:
05
07
04
13
1(
0)
16
15
17
06
#850000
0!
01
02
1*
#862500
1!
11
12
0*
1:
14
03
1)
05
07
16
#875000
0!
01
02
1*
#887500
1!
11
12
0*
09
18
0:
15
17
06
04
13
0(
1'
0)
16
07
#900000
0!
01
02
1*
#912500
1!
11
12
0*
1:
14
03
1)
17
#925000
0!
01
02
1*
#937500
1!
11
12
0*
19
0:
05
07
04
13
1(
0)
06
15
17
16
#950000
0!
01
02
1*
#962500
1!
11
12
0*
1:
14
03
1)
05
07
06
#975000
0!
01
02
1*
#987500
1!
11
12
0*
09
08
0:
15
17
16
04
13
0(
0'
0)
06
07
