music_project/simulation/qsim/music_project.msim.vcd
$comment
	File created using the following command:
		vcd file music_project.msim.vcd -direction
$end
$date
	Thu Apr 18 11:41:43 2024
$end
$version
	ModelSim Version 10.1d
$end
$timescale
	1ps
$end
$scope module music_project_vlg_vec_tst $end
$var reg 1 ! C $end
$var reg 1 " reset $end
$var wire 1 # f $end
$var wire 1 $ note_leds [7] $end
$var wire 1 % note_leds [6] $end
$var wire 1 & note_leds [5] $end
$var wire 1 ' note_leds [4] $end
$var wire 1 ( note_leds [3] $end
$var wire 1 ) note_leds [2] $end
$var wire 1 * note_leds [1] $end
$var wire 1 + note_leds [0] $end
$var wire 1 , sampler $end
$scope module i1 $end
$var wire 1 - gnd $end
$var wire 1 . vcc $end
$var wire 1 / unknown $end
$var tri1 1 0 devclrn $end
$var tri1 1 1 devpor $end
$var tri1 1 2 devoe $end
$var wire 1 3 inst|LPM_COUNTER_component|auto_generated|counter_comb_bita0~combout $end
$var wire 1 4 inst|LPM_COUNTER_component|auto_generated|counter_comb_bita0~COUT $end
$var wire 1 5 inst|LPM_COUNTER_component|auto_generated|counter_comb_bita1~combout $end
$var wire 1 6 inst|LPM_COUNTER_component|auto_generated|counter_comb_bita1~COUT $end
$var wire 1 7 inst|LPM_COUNTER_component|auto_generated|counter_comb_bita2~combout $end
$var wire 1 8 inst2|cnt[1]~13_combout $end
$var wire 1 9 inst2|cnt[1]~14 $end
$var wire 1 : inst2|cnt[2]~15_combout $end
$var wire 1 ; inst2|cnt[2]~16 $end
$var wire 1 < inst2|cnt[3]~17_combout $end
$var wire 1 = inst2|cnt[3]~18 $end
$var wire 1 > inst2|cnt[4]~19_combout $end
$var wire 1 ? inst2|cnt[4]~20 $end
$var wire 1 @ inst2|cnt[5]~21_combout $end
$var wire 1 A inst2|cnt[5]~22 $end
$var wire 1 B inst2|cnt[6]~23_combout $end
$var wire 1 C inst2|cnt[6]~24 $end
$var wire 1 D inst2|cnt[7]~25_combout $end
$var wire 1 E inst2|cnt[7]~26 $end
$var wire 1 F inst2|cnt[8]~27_combout $end
$var wire 1 G inst2|cnt[8]~28 $end
$var wire 1 H inst2|cnt[9]~29_combout $end
$var wire 1 I inst2|cnt[9]~30 $end
$var wire 1 J inst2|cnt[10]~31_combout $end
$var wire 1 K inst2|cnt[10]~32 $end
$var wire 1 L inst2|cnt[11]~33_combout $end
$var wire 1 M inst2|cnt[11]~34 $end
$var wire 1 N inst2|cnt[12]~35_combout $end
$var wire 1 O inst2|cnt[12]~36 $end
$var wire 1 P inst2|cnt[13]~37_combout $end
$var wire 1 Q inst1|Add0~0_combout $end
$var wire 1 R inst1|Add0~4_combout $end
$var wire 1 S inst1|Add0~10_combout $end
$var wire 1 T inst1|Add0~26_combout $end
$var wire 1 U inst1|Add0~36_combout $end
$var wire 1 V inst2|eocnt~regout $end
$var wire 1 W inst1|WideOr0~4_combout $end
$var wire 1 X inst1|WideOr1~0_combout $end
$var wire 1 Y inst2|WideOr12~0_combout $end
$var wire 1 Z inst2|WideOr13~0_combout $end
$var wire 1 [ inst2|Equal0~0_combout $end
$var wire 1 \ inst2|WideOr11~0_combout $end
$var wire 1 ] inst2|WideOr10~0_combout $end
$var wire 1 ^ inst2|Equal0~1_combout $end
$var wire 1 _ inst2|WideOr9~0_combout $end
$var wire 1 ` inst2|WideOr8~0_combout $end
$var wire 1 a inst2|Equal0~2_combout $end
$var wire 1 b inst2|WideOr7~0_combout $end
$var wire 1 c inst2|WideOr6~0_combout $end
$var wire 1 d inst2|Equal0~3_combout $end
$var wire 1 e inst2|Equal0~4_combout $end
$var wire 1 f inst2|WideOr5~0_combout $end
$var wire 1 g inst2|WideOr4~0_combout $end
$var wire 1 h inst2|Equal0~5_combout $end
$var wire 1 i inst2|WideOr3~0_combout $end
$var wire 1 j inst2|WideOr2~0_combout $end
$var wire 1 k inst2|Equal0~6_combout $end
$var wire 1 l inst2|WideOr1~0_combout $end
$var wire 1 m inst2|WideOr0~0_combout $end
$var wire 1 n inst2|Equal0~7_combout $end
$var wire 1 o inst2|Equal0~8_combout $end
$var wire 1 p inst1|music_time[7]~1_combout $end
$var wire 1 q inst1|Equal1~4_combout $end
$var wire 1 r inst1|counter~4_combout $end
$var wire 1 s inst2|cnt[0]~39_combout $end
$var wire 1 t C~combout $end
$var wire 1 u inst|LPM_COUNTER_component|auto_generated|safe_q[2]~clkctrl_outclk $end
$var wire 1 v C~clkctrl_outclk $end
$var wire 1 w inst1|counter~3_combout $end
$var wire 1 x inst1|Add0~1 $end
$var wire 1 y inst1|Add0~2_combout $end
$var wire 1 z inst1|Add0~3 $end
$var wire 1 { inst1|Add0~5 $end
$var wire 1 | inst1|Add0~6_combout $end
$var wire 1 } inst1|counter~2_combout $end
$var wire 1 ~ inst1|Add0~7 $end
$var wire 1 !! inst1|Add0~9 $end
$var wire 1 "! inst1|Add0~11 $end
$var wire 1 #! inst1|Add0~12_combout $end
$var wire 1 $! inst1|counter~5_combout $end
$var wire 1 %! inst1|Add0~8_combout $end
$var wire 1 &! inst1|Add0~13 $end
$var wire 1 '! inst1|Add0~14_combout $end
$var wire 1 (! inst1|Equal1~2_combout $end
$var wire 1 )! inst1|Add0~15 $end
$var wire 1 *! inst1|Add0~16_combout $end
$var wire 1 +! inst1|counter~6_combout $end
$var wire 1 ,! inst1|Add0~17 $end
$var wire 1 -! inst1|Add0~18_combout $end
$var wire 1 .! inst1|Add0~19 $end
$var wire 1 /! inst1|Add0~20_combout $end
$var wire 1 0! inst1|Add0~21 $end
$var wire 1 1! inst1|Add0~22_combout $end
$var wire 1 2! inst1|counter~7_combout $end
$var wire 1 3! inst1|Equal1~3_combout $end
$var wire 1 4! inst1|Equal1~1_combout $end
$var wire 1 5! inst1|Equal1~5_combout $end
$var wire 1 6! inst1|Add0~23 $end
$var wire 1 7! inst1|Add0~24_combout $end
$var wire 1 8! inst1|Add0~25 $end
$var wire 1 9! inst1|Add0~27 $end
$var wire 1 :! inst1|Add0~28_combout $end
$var wire 1 ;! inst1|Add0~29 $end
$var wire 1 <! inst1|Add0~30_combout $end
$var wire 1 =! inst1|counter~8_combout $end
$var wire 1 >! inst1|Add0~31 $end
$var wire 1 ?! inst1|Add0~33 $end
$var wire 1 @! inst1|Add0~34_combout $end
$var wire 1 A! inst1|Add0~35 $end
$var wire 1 B! inst1|Add0~37 $end
$var wire 1 C! inst1|Add0~38_combout $end
$var wire 1 D! inst1|counter~1_combout $end
$var wire 1 E! inst1|Add0~32_combout $end
$var wire 1 F! inst1|counter~0_combout $end
$var wire 1 G! inst1|Equal1~0_combout $end
$var wire 1 H! inst1|Equal1~6_combout $end
$var wire 1 I! inst1|one_step~regout $end
$var wire 1 J! inst1|music_time[5]~2_combout $end
$var wire 1 K! reset~combout $end
$var wire 1 L! reset~clkctrl_outclk $end
$var wire 1 M! inst1|Mux7~0_combout $end
$var wire 1 N! inst1|music_time[1]~4_combout $end
$var wire 1 O! inst1|Mux5~0_combout $end
$var wire 1 P! inst1|music_time[3]~0_combout $end
$var wire 1 Q! inst1|music_time[7]~3_combout $end
$var wire 1 R! inst1|Mux1~0_combout $end
$var wire 1 S! inst1|music_time[7]~6_combout $end
$var wire 1 T! inst1|music_time[3]~5_combout $end
$var wire 1 U! inst1|Mux3~0_combout $end
$var wire 1 V! inst1|WideOr1~1_combout $end
$var wire 1 W! inst1|WideOr1~4_combout $end
$var wire 1 X! inst1|WideOr1~2_combout $end
$var wire 1 Y! inst1|WideOr1~5_combout $end
$var wire 1 Z! inst1|WideOr1~3_combout $end
$var wire 1 [! inst1|WideOr1~6_combout $end
$var wire 1 \! inst1|WideOr1~7_combout $end
$var wire 1 ]! inst1|WideOr3~0_combout $end
$var wire 1 ^! inst1|WideOr3~1_combout $end
$var wire 1 _! inst1|WideOr3~2_combout $end
$var wire 1 `! inst1|WideOr3~3_combout $end
$var wire 1 a! inst1|WideOr3~4_combout $end
$var wire 1 b! inst1|WideOr2~1_combout $end
$var wire 1 c! inst1|WideOr2~0_combout $end
$var wire 1 d! inst1|WideOr2~2_combout $end
$var wire 1 e! inst1|WideOr2~3_combout $end
$var wire 1 f! inst1|WideOr2~5_combout $end
$var wire 1 g! inst1|WideOr2~4_combout $end
$var wire 1 h! inst1|WideOr2~6_combout $end
$var wire 1 i! inst1|WideOr2~7_combout $end
$var wire 1 j! inst3~0_combout $end
$var wire 1 k! inst2|note_clock~0_combout $end
$var wire 1 l! inst2|note_clock~regout $end
$var wire 1 m! inst3~1_combout $end
$var wire 1 n! inst1|WideOr0~0_combout $end
$var wire 1 o! inst1|WideOr0~1_combout $end
$var wire 1 p! inst1|WideOr0~2_combout $end
$var wire 1 q! inst1|WideOr0~3_combout $end
$var wire 1 r! inst1|WideOr0~5_combout $end
$var wire 1 s! inst1|WideOr0~6_combout $end
$var wire 1 t! inst1|WideOr0~7_combout $end
$var wire 1 u! inst2|WideOr14~0_combout $end
$var wire 1 v! inst2|WideOr15~0_combout $end
$var wire 1 w! inst2|WideOr16~0_combout $end
$var wire 1 x! inst2|Decoder1~0_combout $end
$var wire 1 y! inst2|Decoder1~1_combout $end
$var wire 1 z! inst2|WideOr17~0_combout $end
$var wire 1 {! inst2|note_leds[0]~0_combout $end
$var wire 1 |! inst2|cnt [13] $end
$var wire 1 }! inst2|cnt [12] $end
$var wire 1 ~! inst2|cnt [11] $end
$var wire 1 !" inst2|cnt [10] $end
$var wire 1 "" inst2|cnt [9] $end
$var wire 1 #" inst2|cnt [8] $end
$var wire 1 $" inst2|cnt [7] $end
$var wire 1 %" inst2|cnt [6] $end
$var wire 1 &" inst2|cnt [5] $end
$var wire 1 '" inst2|cnt [4] $end
$var wire 1 (" inst2|cnt [3] $end
$var wire 1 )" inst2|cnt [2] $end
$var wire 1 *" inst2|cnt [1] $end
$var wire 1 +" inst2|cnt [0] $end
$var wire 1 ," inst1|music_time [8] $end
$var wire 1 -" inst1|music_time [7] $end
$var wire 1 ." inst1|music_time [6] $end
$var wire 1 /" inst1|music_time [5] $end
$var wire 1 0" inst1|music_time [4] $end
$var wire 1 1" inst1|music_time [3] $end
$var wire 1 2" inst1|music_time [2] $end
$var wire 1 3" inst1|music_time [1] $end
$var wire 1 4" inst1|music_time [0] $end
$var wire 1 5" inst|LPM_COUNTER_component|auto_generated|safe_q [2] $end
$var wire 1 6" inst|LPM_COUNTER_component|auto_generated|safe_q [1] $end
$var wire 1 7" inst|LPM_COUNTER_component|auto_generated|safe_q [0] $end
$var wire 1 8" inst1|counter [19] $end
$var wire 1 9" inst1|counter [18] $end
$var wire 1 :" inst1|counter [17] $end
$var wire 1 ;" inst1|counter [16] $end
$var wire 1 <" inst1|counter [15] $end
$var wire 1 =" inst1|counter [14] $end
$var wire 1 >" inst1|counter [13] $end
$var wire 1 ?" inst1|counter [12] $end
$var wire 1 @" inst1|counter [11] $end
$var wire 1 A" inst1|counter [10] $end
$var wire 1 B" inst1|counter [9] $end
$var wire 1 C" inst1|counter [8] $end
$var wire 1 D" inst1|counter [7] $end
$var wire 1 E" inst1|counter [6] $end
$var wire 1 F" inst1|counter [5] $end
$var wire 1 G" inst1|counter [4] $end
$var wire 1 H" inst1|counter [3] $end
$var wire 1 I" inst1|counter [2] $end
$var wire 1 J" inst1|counter [1] $end
$var wire 1 K" inst1|counter [0] $end
$var wire 1 L" inst1|note [3] $end
$var wire 1 M" inst1|note [2] $end
$var wire 1 N" inst1|note [1] $end
$var wire 1 O" inst1|note [0] $end
$upscope $end
$upscope $end
$enddefinitions $end
#0
$dumpvars
0!
1"
1#
0+
0*
0)
0(
0'
0&
0%
0$
x,
0-
1.
x/
10
11
12
13
04
05
16
07
08
09
0:
1;
0<
0=
0>
1?
0@
0A
0B
1C
0D
0E
0F
1G
0H
0I
0J
1K
0L
0M
0N
1O
0P
1Q
0R
0S
0T
0U
0V
0W
0X
0Y
0Z
0[
0\
0]
1^
0_
0`
1a
0b
0c
1d
0e
0f
0g
1h
0i
0j
1k
0l
0m
1n
0o
0p
0q
0r
1s
0t
0u
0v
1w
0x
0y
1z
0{
0|
0}
1~
0!!
1"!
0#!
0$!
0%!
0&!
0'!
0(!
1)!
0*!
0+!
0,!
0-!
1.!
0/!
00!
01!
02!
03!
04!
05!
16!
07!
08!
19!
0:!
0;!
0<!
0=!
1>!
0?!
0@!
1A!
0B!
0C!
0D!
0E!
0F!
0G!
0H!
0I!
0J!
1K!
1L!
1M!
0N!
0O!
0P!
0Q!
0R!
0S!
0T!
0U!
0V!
0W!
0X!
0Y!
0Z!
0[!
0\!
0]!
0^!
0_!
0`!
1a!
0b!
0c!
0d!
0e!
0f!
0g!
0h!
1i!
0j!
1k!
0l!
0m!
0n!
0o!
0p!
0q!
1r!
1s!
0t!
0u!
0v!
0w!
0x!
0y!
0z!
0{!
0+"
0*"
0)"
0("
0'"
0&"
0%"
0$"
0#"
0""
0!"
0~!
0}!
0|!
04"
03"
02"
01"
00"
0/"
0."
0-"
z,"
07"
06"
05"
0K"
0J"
0I"
0H"
0G"
0F"
0E"
0D"
0C"
0B"
0A"
0@"
0?"
0>"
0="
0<"
0;"
0:"
09"
08"
0O"
0N"
0M"
0L"
$end
#12500
1!
1t
1v
0,
17"
14
03
15
#25000
0!
0t
0v
1,
#37500
1!
1t
1v
0,
07"
16"
04
13
06
05
16
15
17
07
#50000
0!
0t
0v
1,
#62500
1!
1t
1v
0,
17"
14
03
06
05
17
#75000
0!
0t
0v
1,
#87500
1!
1t
1v
0,
07"
06"
15"
1u
04
13
16
15
07
05
17
1K"
1+"
1x
0Q
0s
1[
18
1y
0w
1e
1o
#100000
0!
0t
0v
1,
#112500
1!
1t
1v
0,
17"
14
03
15
#125000
0!
0t
0v
1,
#137500
1!
1t
1v
0,
07"
16"
04
13
06
05
16
15
07
17
#150000
0!
0t
0v
1,
#162500
1!
1t
1v
0,
17"
14
03
06
05
07
#175000
0!
0t
0v
1,
#187500
1!
1t
1v
0,
07"
06"
05"
0u
04
13
16
15
17
05
07
#200000
0!
0t
0v
1,
#212500
1!
1t
1v
0,
17"
14
03
15
#225000
0!
0t
0v
1,
#237500
1!
1t
1v
0,
07"
16"
04
13
06
05
16
15
17
07
#250000
0!
0t
0v
1,
#262500
1!
1t
1v
0,
17"
14
03
06
05
17
#275000
0!
0t
0v
1,
#287500
1!
1t
1v
0,
07"
06"
15"
1u
04
13
16
15
07
05
17
1J"
0K"
0+"
1V
1*"
0z
0y
0x
1Q
1s
0[
1R
1z
1y
1w
0e
0R
0o
1l!
0*"
0k!
08
#300000
0!
0t
0v
1,
#312500
1!
1t
1v
0,
17"
14
03
15
#325000
0!
0t
0v
1,
#337500
1!
1t
1v
0,
07"
16"
04
13
06
05
16
15
07
17
#350000
0!
0t
0v
1,
#362500
1!
1t
1v
0,
17"
14
03
06
05
07
#375000
0!
0t
0v
1,
#387500
1!
1t
1v
0,
07"
06"
05"
0u
04
13
16
15
17
05
07
#400000
0!
0t
0v
1,
#412500
1!
1t
1v
0,
17"
14
03
15
#425000
0!
0t
0v
1,
#437500
1!
1t
1v
0,
07"
16"
04
13
06
05
16
15
17
07
#450000
0!
0t
0v
1,
#462500
1!
1t
1v
0,
17"
14
03
06
05
17
#475000
0!
0t
0v
1,
#487500
1!
1t
1v
0,
07"
06"
15"
1u
04
13
16
15
07
05
17
1K"
0V
1x
0Q
0z
0y
0w
1R
#500000
0!
0t
0v
1,
#512500
1!
1t
1v
0,
17"
14
03
15
#525000
0!
0t
0v
1,
#537500
1!
1t
1v
0,
07"
16"
04
13
06
05
16
15
07
17
#550000
0!
0t
0v
1,
#562500
1!
1t
1v
0,
17"
14
03
06
05
07
#575000
0!
0t
0v
1,
#587500
1!
1t
1v
0,
07"
06"
05"
0u
04
13
16
15
17
05
07
#600000
0!
0t
0v
1,
#612500
1!
1t
1v
0,
17"
14
03
15
#625000
0!
0t
0v
1,
#637500
1!
1t
1v
0,
07"
16"
04
13
06
05
16
15
17
07
#650000
0!
0t
0v
1,
#662500
1!
1t
1v
0,
17"
14
03
06
05
17
#675000
0!
0t
0v
1,
#687500
1!
1t
1v
0,
07"
06"
15"
1u
04
13
16
15
07
05
17
0J"
0K"
1I"
1+"
1z
1y
0x
1Q
1{
0R
0s
1[
18
0{
1R
0y
1w
1|
1e
0|
1}
1o
0}
#700000
0!
0t
0v
1,
#712500
1!
1t
1v
0,
17"
14
03
15
#725000
0!
0t
0v
1,
#737500
1!
1t
1v
0,
07"
16"
04
13
06
05
16
15
07
17
#750000
0!
0t
0v
1,
#762500
1!
1t
1v
0,
17"
14
03
06
05
07
#775000
0!
0t
0v
1,
#787500
1!
1t
1v
0,
07"
06"
05"
0u
04
13
16
15
17
05
07
#800000
0!
0t
0v
1,
#812500
1!
1t
1v
0,
17"
14
03
15
#825000
0!
0t
0v
1,
#837500
1!
1t
1v
0,
07"
16"
04
13
06
05
16
15
17
07
#850000
0!
0t
0v
1,
#862500
1!
1t
1v
0,
17"
14
03
06
05
17
#875000
0!
0t
0v
1,
#887500
1!
1t
1v
0,
07"
06"
15"
1u
04
13
16
15
07
05
17
1K"
0+"
1V
1*"
1x
0Q
1s
0[
1y
0w
0e
0o
0l!
0*"
1k!
08
#900000
0!
0t
0v
1,
#912500
1!
1t
1v
0,
17"
14
03
15
#925000
0!
0t
0v
1,
#937500
1!
1t
1v
0,
07"
16"
04
13
06
05
16
15
07
17
#950000
0!
0t
0v
1,
#962500
1!
1t
1v
0,
17"
14
03
06
05
07
#975000
0!
0t
0v
1,
#987500
1!
1t
1v
0,
07"
06"
05"
0u
04
13
16
15
17
05
07
#1000000
0!
0t
0v
1,
#1012500
1!
1t
1v
0,
17"
14
03
15
#1025000
0!
0t
0v
1,
#1037500
1!
1t
1v
0,
07"
16"
04
13
06
05
16
15
17
07
#1050000
0!
0t
0v
1,
#1062500
1!
1t
1v
0,
17"
14
03
06
05
17
#1075000
0!
0t
0v
1,
#1087500
1!
1t
1v
0,
07"
06"
15"
1u
04
13
16
15
07
05
17
1J"
0K"
0V
0z
0y
0x
1Q
1{
0R
1z
1y
1w
1|
0{
1R
1}
0|
0}
#1100000
0!
0t
0v
1,
#1112500
1!
1t
1v
0,
17"
14
03
15
#1125000
0!
0t
0v
1,
#1137500
1!
1t
1v
0,
07"
16"
04
13
06
05
16
15
07
17
#1150000
0!
0t
0v
1,
#1162500
1!
1t
1v
0,
17"
14
03
06
05
07
#1175000
0!
0t
0v
1,
#1187500
1!
1t
1v
0,
07"
06"
05"
0u
04
13
16
15
17
05
07
#1200000
0!
0t
0v
1,
#1212500
1!
1t
1v
0,
17"
14
03
15
#1225000
0!
0t
0v
1,
#1237500
1!
1t
1v
0,
07"
16"
04
13
06
05
16
15
17
07
#1250000
0!
0t
0v
1,
#1262500
1!
1t
1v
0,
17"
14
03
06
05
17
#1275000
0!
0t
0v
1,
#1287500
1!
1t
1v
0,
07"
06"
15"
1u
04
13
16
15
07
05
17
1K"
1+"
1x
0Q
0s
1[
18
0z
0y
0w
1e
1{
0R
1o
1|
1}
#1300000
0!
0t
0v
1,
#1312500
1!
1t
1v
0,
17"
14
03
15
#1325000
0!
0t
0v
1,
#1337500
1!
1t
1v
0,
07"
16"
04
13
06
05
16
15
07
17
#1350000
0!
0t
0v
1,
#1362500
1!
1t
1v
0,
17"
14
03
06
05
07
#1375000
0!
0t
0v
1,
#1387500
1!
1t
1v
0,
07"
06"
05"
0u
04
13
16
15
17
05
07
#1400000
0!
0t
0v
1,
#1412500
1!
1t
1v
0,
17"
14
03
15
#1425000
0!
0t
0v
1,
#1437500
1!
1t
1v
0,
07"
16"
04
13
06
05
16
15
17
07
#1450000
0!
0t
0v
1,
#1462500
1!
1t
1v
0,
17"
14
03
06
05
17
#1475000
0!
0t
0v
1,
#1487500
1!
1t
1v
0,
07"
06"
15"
1u
04
13
16
15
07
05
17
1H"
0J"
0K"
0I"
0+"
1V
1*"
14!
0~
0|
1z
1y
0x
1Q
0{
1R
1s
0[
1%!
0}
0R
0y
1w
1~
1|
0e
0%!
1}
0o
1l!
0*"
0k!
08
#1500000
0!
0t
0v
1,
#1512500
1!
1t
1v
0,
17"
14
03
15
#1525000
0!
0t
0v
1,
#1537500
1!
1t
1v
0,
07"
16"
04
13
06
05
16
15
07
17
#1550000
0!
0t
0v
1,
#1562500
1!
1t
1v
0,
17"
14
03
06
05
07
#1575000
0!
0t
0v
1,
#1587500
1!
1t
1v
0,
07"
06"
05"
0u
04
13
16
15
17
05
07
#1600000
0!
0t
0v
1,
#1612500
1!
1t
1v
0,
17"
14
03
15
#1625000
0!
0t
0v
1,
#1637500
1!
1t
1v
0,
07"
16"
04
13
06
05
16
15
17
07
#1650000
0!
0t
0v
1,
#1662500
1!
1t
1v
0,
17"
14
03
06
05
17
#1675000
0!
0t
0v
1,
#1687500
1!
1t
1v
0,
07"
06"
15"
1u
04
13
16
15
07
05
17
1K"
0V
04!
1x
0Q
1y
0w
#1700000
0!
0t
0v
1,
#1712500
1!
1t
1v
0,
17"
14
03
15
#1725000
0!
0t
0v
1,
#1737500
1!
1t
1v
0,
07"
16"
04
13
06
05
16
15
07
17
#1750000
0!
0t
0v
1,
#1762500
1!
1t
1v
0,
17"
14
03
06
05
07
#1775000
0!
0t
0v
1,
#1787500
1!
1t
1v
0,
07"
06"
05"
0u
04
13
16
15
17
05
07
#1800000
0!
0t
0v
1,
#1812500
1!
1t
1v
0,
17"
14
03
15
#1825000
0!
0t
0v
1,
#1837500
1!
1t
1v
0,
07"
16"
04
13
06
05
16
15
17
07
#1850000
0!
0t
0v
1,
#1862500
1!
1t
1v
0,
17"
14
03
06
05
17
#1875000
0!
0t
0v
1,
#1887500
1!
1t
1v
0,
07"
06"
15"
1u
04
13
16
15
07
05
17
1J"
0K"
1+"
0z
0y
0x
1Q
0s
1[
18
1R
1z
1y
1w
1e
0R
1o
#1900000
0!
0t
0v
1,
#1912500
1!
1t
1v
0,
17"
14
03
15
#1925000
0!
0t
0v
1,
#1937500
1!
1t
1v
0,
07"
16"
04
13
06
05
16
15
07
17
#1950000
0!
0t
0v
1,
#1962500
1!
1t
1v
0,
17"
14
03
06
05
07
#1975000
0!
0t
0v
1,
#1987500
1!
1t
1v
0,
07"
06"
05"
0u
04
13
16
15
17
05
07
#2000000
0!
0t
0v
1,
#2012500
1!
1t
1v
0,
17"
14
03
15
#2025000
0!
0t
0v
1,
#2037500
1!
1t
1v
0,
07"
16"
04
13
06
05
16
15
17
07
#2050000
0!
0t
0v
1,
#2062500
1!
1t
1v
0,
17"
14
03
06
05
17
#2075000
0!
0t
0v
1,
#2087500
1!
1t
1v
0,
07"
06"
15"
1u
04
13
16
15
07
05
17
1K"
0+"
1V
1*"
1x
0Q
1s
0[
0z
0y
0w
0e
1R
0o
0l!
0*"
1k!
08
#2100000
0!
0t
0v
1,
#2112500
1!
1t
1v
0,
17"
14
03
15
#2125000
0!
0t
0v
1,
#2137500
1!
1t
1v
0,
07"
16"
04
13
06
05
16
15
07
17
#2150000
0!
0t
0v
1,
#2162500
1!
1t
1v
0,
17"
14
03
06
05
07
#2175000
0!
0t
0v
1,
#2187500
1!
1t
1v
0,
07"
06"
05"
0u
04
13
16
15
17
05
07
#2200000
0!
0t
0v
1,
#2212500
1!
1t
1v
0,
17"
14
03
15
#2225000
0!
0t
0v
1,
#2237500
1!
1t
1v
0,
07"
16"
04
13
06
05
16
15
17
07
#2250000
0!
0t
0v
1,
#2262500
1!
1t
1v
0,
17"
14
03
06
05
17
#2275000
0!
0t
0v
1,
#2287500
1!
1t
1v
0,
07"
06"
15"
1u
04
13
16
15
07
05
17
0J"
0K"
1I"
0V
1z
1y
0x
1Q
1{
0R
0{
1R
0y
1w
0~
0|
1~
1|
1%!
0}
0%!
1}
#2300000
0!
0t
0v
1,
#2312500
1!
1t
1v
0,
17"
14
03
15
#2325000
0!
0t
0v
1,
#2337500
1!
1t
1v
0,
07"
16"
04
13
06
05
16
15
07
17
#2350000
0!
0t
0v
1,
#2362500
1!
1t
1v
0,
17"
14
03
06
05
07
#2375000
0!
0t
0v
1,
#2387500
1!
1t
1v
0,
07"
06"
05"
0u
04
13
16
15
17
05
07
#2400000
0!
0t
0v
1,
#2412500
1!
1t
1v
0,
17"
14
03
15
#2425000
0!
0t
0v
1,
#2437500
1!
1t
1v
0,
07"
16"
04
13
06
05
16
15
17
07
#2450000
0!
0t
0v
1,
#2462500
1!
1t
1v
0,
17"
14
03
06
05
17
#2475000
0!
0t
0v
1,
#2487500
1!
1t
1v
0,
07"
06"
15"
1u
04
13
16
15
07
05
17
1K"
1+"
1x
0Q
0s
1[
18
1y
0w
1e
1o
#2500000
0!
0t
0v
1,
#2512500
1!
1t
1v
0,
17"
14
03
15
#2525000
0!
0t
0v
1,
#2537500
1!
1t
1v
0,
07"
16"
04
13
06
05
16
15
07
17
#2550000
0!
0t
0v
1,
#2562500
1!
1t
1v
0,
17"
14
03
06
05
07
#2575000
0!
0t
0v
1,
#2587500
1!
1t
1v
0,
07"
06"
05"
0u
04
13
16
15
17
05
07
#2600000
0!
0t
0v
1,
#2612500
1!
1t
1v
0,
17"
14
03
15
#2625000
0!
0t
0v
1,
#2637500
1!
1t
1v
0,
07"
16"
04
13
06
05
16
15
17
07
#2650000
0!
0t
0v
1,
#2662500
1!
1t
1v
0,
17"
14
03
06
05
17
#2675000
0!
0t
0v
1,
#2687500
1!
1t
1v
0,
07"
06"
15"
1u
04
13
16
15
07
05
17
1J"
0K"
0+"
1V
1*"
0z
0y
0x
1Q
1s
0[
1{
0R
1z
1y
1w
0e
0~
0|
0{
1R
0o
1%!
0}
1~
1|
0%!
1}
1l!
0*"
0k!
08
#2700000
0!
0t
0v
1,
#2712500
1!
1t
1v
0,
17"
14
03
15
#2725000
0!
0t
0v
1,
#2737500
1!
1t
1v
0,
07"
16"
04
13
06
05
16
15
07
17
#2750000
0!
0t
0v
1,
#2762500
1!
1t
1v
0,
17"
14
03
06
05
07
#2775000
0!
0t
0v
1,
#2787500
1!
1t
1v
0,
07"
06"
05"
0u
04
13
16
15
17
05
07
#2800000
0!
0t
0v
1,
#2812500
1!
1t
1v
0,
17"
14
03
15
#2825000
0!
0t
0v
1,
#2837500
1!
1t
1v
0,
07"
16"
04
13
06
05
16
15
17
07
#2850000
0!
0t
0v
1,
#2862500
1!
1t
1v
0,
17"
14
03
06
05
17
#2875000
0!
0t
0v
1,
#2887500
1!
1t
1v
0,
07"
06"
15"
1u
04
13
16
15
07
05
17
1K"
0V
1x
0Q
0z
0y
0w
1{
0R
0~
0|
1%!
0}
#2900000
0!
0t
0v
1,
#2912500
1!
1t
1v
0,
17"
14
03
15
#2925000
0!
0t
0v
1,
#2937500
1!
1t
1v
0,
07"
16"
04
13
06
05
16
15
07
17
#2950000
0!
0t
0v
1,
#2962500
1!
1t
1v
0,
17"
14
03
06
05
07
#2975000
0!
0t
0v
1,
#2987500
1!
1t
1v
0,
07"
06"
05"
0u
04
13
16
15
17
05
07
#3000000
0!
0t
0v
1,
#3012500
1!
1t
1v
0,
17"
14
03
15
#3025000
0!
0t
0v
1,
#3037500
1!
1t
1v
0,
07"
16"
04
13
06
05
16
15
17
07
#3050000
0!
0t
0v
1,
#3062500
1!
1t
1v
0,
17"
14
03
06
05
17
#3075000
0!
0t
0v
1,
#3087500
1!
1t
1v
0,
07"
06"
15"
1u
04
13
16
15
07
05
17
1G"
0H"
0J"
0K"
0I"
1+"
1!!
0%!
1~
1|
1z
1y
0x
1Q
0{
1R
0s
1[
18
1S
0!!
1%!
1}
0R
0y
1w
0|
1e
1r
0S
0}
1o
0r
#3100000
0!
0t
0v
1,
#3112500
1!
1t
1v
0,
17"
14
03
15
#3125000
0!
0t
0v
1,
#3137500
1!
1t
1v
0,
07"
16"
04
13
06
05
16
15
07
17
#3150000
0!
0t
0v
1,
#3162500
1!
1t
1v
0,
17"
14
03
06
05
07
#3175000
0!
0t
0v
1,
#3187500
1!
1t
1v
0,
07"
06"
05"
0u
04
13
16
15
17
05
07
#3200000
0!
0t
0v
1,
#3212500
1!
1t
1v
0,
17"
14
03
15
#3225000
0!
0t
0v
1,
#3237500
1!
1t
1v
0,
07"
16"
04
13
06
05
16
15
17
07
#3250000
0!
0t
0v
1,
#3262500
1!
1t
1v
0,
17"
14
03
06
05
17
#3275000
0!
0t
0v
1,
#3287500
1!
1t
1v
0,
07"
06"
15"
1u
04
13
16
15
07
05
17
1K"
0+"
1V
1*"
1x
0Q
1s
0[
1y
0w
0e
0o
0l!
0*"
1k!
08
#3300000
0!
0t
0v
1,
#3312500
1!
1t
1v
0,
17"
14
03
15
#3325000
0!
0t
0v
1,
#3337500
1!
1t
1v
0,
07"
16"
04
13
06
05
16
15
07
17
#3350000
0!
0t
0v
1,
#3362500
1!
1t
1v
0,
17"
14
03
06
05
07
#3375000
0!
0t
0v
1,
#3387500
1!
1t
1v
0,
07"
06"
05"
0u
04
13
16
15
17
05
07
#3400000
0!
0t
0v
1,
#3412500
1!
1t
1v
0,
17"
14
03
15
#3425000
0!
0t
0v
1,
#3437500
1!
1t
1v
0,
07"
16"
04
13
06
05
16
15
17
07
#3450000
0!
0t
0v
1,
#3462500
1!
1t
1v
0,
17"
14
03
06
05
17
#3475000
0!
0t
0v
1,
#3487500
1!
1t
1v
0,
07"
06"
15"
1u
04
13
16
15
07
05
17
1J"
0K"
0V
0z
0y
0x
1Q
1R
1z
1y
1w
0R
#3500000
0!
0t
0v
1,
#3512500
1!
1t
1v
0,
17"
14
03
15
#3525000
0!
0t
0v
1,
#3537500
1!
1t
1v
0,
07"
16"
04
13
06
05
16
15
07
17
#3550000
0!
0t
0v
1,
#3562500
1!
1t
1v
0,
17"
14
03
06
05
07
#3575000
0!
0t
0v
1,
