Lab7/Lab7_1/simulation/qsim/Lab7_1.msim.vcd
$comment
	File created using the following command:
		vcd file Lab7_1.msim.vcd -direction
$end
$date
	Thu Apr 11 14:15:40 2024
$end
$version
	ModelSim Version 10.1d
$end
$timescale
	1ps
$end
$scope module Lab7_1_vlg_vec_tst $end
$var reg 1 ! C $end
$var wire 1 " BEEP $end
$var wire 1 # D0 $end
$var wire 1 $ D00 $end
$var wire 1 % D1 $end
$var wire 1 & D01 $end
$var wire 1 ' D2 $end
$var wire 1 ( D02 $end
$var wire 1 ) D3 $end
$var wire 1 * D03 $end
$var wire 1 + D4 $end
$var wire 1 , D04 $end
$var wire 1 - D5 $end
$var wire 1 . D05 $end
$var wire 1 / D6 $end
$var wire 1 0 D06 $end
$var wire 1 1 DP $end
$var wire 1 2 q [3] $end
$var wire 1 3 q [2] $end
$var wire 1 4 q [1] $end
$var wire 1 5 q [0] $end
$var wire 1 6 sampler $end
$scope module i1 $end
$var wire 1 7 gnd $end
$var wire 1 8 vcc $end
$var wire 1 9 unknown $end
$var tri1 1 : devclrn $end
$var tri1 1 ; devpor $end
$var tri1 1 < devoe $end
$var wire 1 = C~combout $end
$var wire 1 > C~clkctrl_outclk $end
$var wire 1 ? inst3|LPM_COUNTER_component|auto_generated|counter_comb_bita0~combout $end
$var wire 1 @ ~GND~combout $end
$var wire 1 A inst1~0_combout $end
$var wire 1 B inst3|LPM_COUNTER_component|auto_generated|counter_comb_bita0~COUT $end
$var wire 1 C inst3|LPM_COUNTER_component|auto_generated|counter_comb_bita1~combout $end
$var wire 1 D inst3|LPM_COUNTER_component|auto_generated|counter_comb_bita1~COUT $end
$var wire 1 E inst3|LPM_COUNTER_component|auto_generated|counter_comb_bita2~combout $end
$var wire 1 F inst3|LPM_COUNTER_component|auto_generated|counter_comb_bita2~COUT $end
$var wire 1 G inst3|LPM_COUNTER_component|auto_generated|counter_comb_bita3~combout $end
$var wire 1 H inst4|inst11~0_combout $end
$var wire 1 I inst4|inst18~0_combout $end
$var wire 1 J inst4|inst~0_combout $end
$var wire 1 K inst4|inst1~0_combout $end
$var wire 1 L inst4|inst19~0_combout $end
$var wire 1 M inst4|inst2~0_combout $end
$var wire 1 N inst4|inst4~0_combout $end
$var wire 1 O inst4|inst20~0_combout $end
$var wire 1 P inst4|inst9~0_combout $end
$var wire 1 Q inst3|LPM_COUNTER_component|auto_generated|safe_q [3] $end
$var wire 1 R inst3|LPM_COUNTER_component|auto_generated|safe_q [2] $end
$var wire 1 S inst3|LPM_COUNTER_component|auto_generated|safe_q [1] $end
$var wire 1 T inst3|LPM_COUNTER_component|auto_generated|safe_q [0] $end
$upscope $end
$upscope $end
$enddefinitions $end
#0
$dumpvars
0!
x"
x#
x$
x%
1&
x'
1(
x)
x*
x+
x,
x-
x.
x/
00
x1
x5
x4
x3
x2
x6
07
18
x9
1:
1;
1<
0=
x>
x?
0@
xA
xB
xC
xD
xE
xF
xG
xH
xI
xJ
xK
xL
xM
xN
xO
xP
0T
0S
0R
0Q
$end
#143
0>
#1041
0B
#1052
0F
#1069
1?
#1111
1D
#1115
1A
#1207
0P
#1209
1O
#1458
0M
#1463
0K
#1468
0H
#1503
0J
#1504
0N
0L
#1507
0I
#1547
0C
#1558
0G
#1617
0E
#4006
05
#4233
02
#4241
03
#4247
04
#4888
1"
#5116
0/
#5259
1-
#5260
1+
#5338
01
#5596
1%
#5608
1'
#5645
1)
#5653
1*
#5655
1#
#5673
1,
#6002
1.
1$
#20000
1!
06
#21140
1=
#21283
1>
#23086
1S
1R
#23810
0O
#23813
0A
#23816
1M
1L
#24165
1E
#24224
1C
#24493
1P
#24544
0M
#24549
1K
#24551
0L
#27327
13
#27333
14
#27586
0"
#27717
1/
#28624
11
#28682
0%
#40000
0!
16
#41140
0=
#41283
0>
#60000
1!
06
#61140
1=
#61283
1>
#63086
1T
#64127
1B
#64155
0?
#64213
0D
#64299
1F
#64583
1O
#64586
0K
0P
#64590
1N
1L
#64593
1I
#64633
0C
#64719
0E
#64805
1G
#67092
15
#68345
0-
#68346
0+
#68490
0/
#68717
01
#68719
1%
#68731
0)
#80000
0!
16
#81140
0=
#81283
0>
#100000
1!
06
#101140
1=
#101283
1>
#103086
0T
0S
0R
1Q
#103810
0O
#103816
0L
1K
#103817
0N
#104127
0B
#104138
0F
#104155
1?
#104165
1E
#104197
1D
#104549
0K
#104593
0I
#104703
0E
#107092
05
#107319
12
#107327
03
#107333
04
#107571
1-
#107717
1/
#107958
1)
#108346
1+
#120000
0!
16
#121140
0=
#121283
0>
#140000
1!
06
#141140
1=
#141283
1>
#143086
1T
#144127
1B
#144155
0?
#144586
1P
#144593
1I
#144633
1C
#147092
15
#148346
0+
#148717
11
#160000
0!
16
#161140
0=
#161283
0>
#180000
1!
06
#181140
1=
#181283
1>
#183086
0T
1S
#183807
0P
#183810
1O
#183816
1L
1J
#183817
1N
#183818
1H
#184127
0B
#184155
1?
#184589
0J
#184590
0N
0L
#184593
0I
#187092
05
#187333
14
#187717
0/
#187938
01
#188003
0*
#188023
0,
#188346
1+
#188352
0.
0$
#200000
0!
16
#201140
0=
#201283
0>
#220000
1!
06
#221140
1=
#221283
1>
#223086
1T
#224127
1B
#224155
0?
#224213
0D
#224589
1J
#224590
1N
1L
#224593
1I
#224633
0C
#224719
1E
#227092
15
#228345
0-
#228346
0+
#228731
0)
#228741
0#
#240000
0!
16
#241140
0=
#241283
0>
#260000
1!
06
#261140
1=
#261283
1>
#263086
0T
0S
1R
#263807
1P
#263810
0O
#263813
1A
#263816
0L
0J
#263817
0N
#263818
0H
#264127
0B
#264138
1F
#264155
1?
#264165
0E
#264197
1D
#264283
0F
#264478
1M
#264493
0P
#264551
1L
#264554
1H
#264593
0I
#264703
1E
#267092
05
#267327
13
#267333
04
#267586
1"
#267717
1/
#267958
1)
#267968
1#
#268346
1+
#268628
0'
#280000
0!
16
#281140
0=
#281283
0>
#300000
1!
06
#301140
1=
#301283
1>
#303086
1S
0Q
#303813
0A
#303816
0M
0L
1J
#303817
1N
1I
#304224
1C
#304293
1P
#304297
1K
#304298
0H
#304299
0J
#304300
0I
#304301
0N
#304541
0G
#307319
02
#307333
14
#307571
1-
#307586
0"
#307966
1'
#308424
11
#308430
0%
#308483
1*
#308503
1,
#308832
1.
1$
#320000
0!
16
#321140
0=
#321283
0>
#340000
1!
06
#341140
1=
#341283
1>
#343086
1T
#344127
1B
#344155
0?
#344213
0D
#344299
1F
#344583
1O
#344586
0K
0P
#344590
1N
1L
#344593
1I
#344633
0C
#344719
0E
#344805
1G
#347092
15
#348345
0-
#348346
0+
#348490
0/
#348717
01
#348719
1%
#348731
0)
#360000
0!
16
#361140
0=
#361283
0>
#380000
1!
06
#381140
1=
#381283
1>
#383086
0T
0S
0R
1Q
#383810
0O
#383816
0L
1K
#383817
0N
#384127
0B
#384138
0F
#384155
1?
#384165
1E
#384197
1D
#384549
0K
#384593
0I
#384703
0E
#387092
05
#387319
12
#387327
03
#387333
04
#387571
1-
#387717
1/
#387958
1)
#388346
1+
#400000
0!
16
#401140
0=
#401283
0>
#420000
1!
06
#421140
1=
#421283
1>
#423086
1T
#424127
1B
#424155
0?
#424586
1P
#424593
1I
#424633
1C
#427092
15
#428346
0+
#428717
11
#440000
0!
16
#441140
0=
#441283
0>
#460000
1!
06
#461140
1=
#461283
1>
#463086
0T
1S
#463807
0P
#463810
1O
#463816
1L
1J
#463817
1N
#463818
1H
#464127
0B
#464155
1?
#464589
0J
#464590
0N
0L
#464593
0I
#467092
05
#467333
14
#467717
0/
#467938
01
#468003
0*
#468023
0,
#468346
1+
#468352
0.
0$
#480000
0!
16
#481140
0=
#481283
0>
#500000
1!
06
#501140
1=
#501283
1>
#503086
1T
#504127
1B
#504155
0?
#504213
0D
#504589
1J
#504590
1N
1L
#504593
1I
#504633
0C
#504719
1E
#507092
15
#508345
0-
#508346
0+
#508731
0)
#508741
0#
#520000
0!
16
#521140
0=
#521283
0>
#540000
1!
06
#541140
1=
#541283
1>
#543086
0T
0S
1R
#543807
1P
#543810
0O
#543813
1A
#543816
0L
0J
#543817
0N
#543818
0H
#544127
0B
#544138
1F
#544155
1?
#544165
0E
#544197
1D
#544283
0F
#544478
1M
#544493
0P
#544551
1L
#544554
1H
#544593
0I
#544703
1E
#547092
05
#547327
13
#547333
04
#547586
1"
#547717
1/
#547958
1)
#547968
1#
#548346
1+
#548628
0'
#560000
0!
16
#561140
0=
#561283
0>
#580000
1!
06
#581140
1=
#581283
1>
#583086
1S
0Q
#583813
0A
#583816
0M
0L
1J
#583817
1N
1I
#584224
1C
#584293
1P
#584297
1K
#584298
0H
#584299
0J
#584300
0I
#584301
0N
#584541
0G
#587319
02
#587333
14
#587571
1-
#587586
0"
#587966
1'
#588424
11
#588430
0%
#588483
1*
#588503
1,
#588832
1.
1$
#600000
0!
16
#601140
0=
#601283
0>
#620000
1!
06
#621140
1=
#621283
1>
#623086
1T
#624127
1B
#624155
0?
#624213
0D
#624299
1F
#624583
1O
#624586
0K
0P
#624590
1N
1L
#624593
1I
#624633
0C
#624719
0E
#624805
1G
#627092
15
#628345
0-
#628346
0+
#628490
0/
#628717
01
#628719
1%
#628731
0)
#640000
0!
16
#641140
0=
#641283
0>
#660000
1!
06
#661140
1=
#661283
1>
#663086
0T
0S
0R
1Q
#663810
0O
#663816
0L
1K
#663817
0N
#664127
0B
#664138
0F
#664155
1?
#664165
1E
#664197
1D
#664549
0K
#664593
0I
#664703
0E
#667092
05
#667319
12
#667327
03
#667333
04
#667571
1-
#667717
1/
#667958
1)
#668346
1+
#680000
0!
16
#681140
0=
#681283
0>
#700000
1!
06
#701140
1=
#701283
1>
#703086
1T
#704127
1B
#704155
0?
#704586
1P
#704593
1I
#704633
1C
#707092
15
#708346
0+
#708717
11
#720000
0!
16
#721140
0=
#721283
0>
#740000
1!
06
#741140
1=
#741283
1>
#743086
0T
1S
#743807
0P
#743810
1O
#743816
1L
1J
#743817
1N
#743818
1H
#744127
0B
#744155
1?
#744589
0J
#744590
0N
0L
#744593
0I
#747092
05
#747333
14
#747717
0/
#747938
01
#748003
0*
#748023
0,
#748346
1+
#748352
0.
0$
#760000
0!
16
#761140
0=
#761283
0>
#780000
1!
06
#781140
1=
#781283
1>
#783086
1T
#784127
1B
#784155
0?
#784213
0D
#784589
1J
#784590
1N
1L
#784593
1I
#784633
0C
#784719
1E
#787092
15
#788345
0-
#788346
0+
#788731
0)
#788741
0#
#800000
0!
16
#801140
0=
#801283
0>
#820000
1!
06
#821140
1=
#821283
1>
#823086
0T
0S
1R
#823807
1P
#823810
0O
#823813
1A
#823816
0L
0J
#823817
0N
#823818
0H
#824127
0B
#824138
1F
#824155
1?
#824165
0E
#824197
1D
#824283
0F
#824478
1M
#824493
0P
#824551
1L
#824554
1H
#824593
0I
#824703
1E
#827092
05
#827327
13
#827333
04
#827586
1"
#827717
1/
#827958
1)
#827968
1#
#828346
1+
#828628
0'
#840000
0!
16
#841140
0=
#841283
0>
#860000
1!
06
#861140
1=
#861283
1>
#863086
1S
0Q
#863813
0A
#863816
0M
0L
1J
#863817
1N
1I
#864224
1C
#864293
1P
#864297
1K
#864298
0H
#864299
0J
#864300
0I
#864301
0N
#864541
0G
#867319
02
#867333
14
#867571
1-
#867586
0"
#867966
1'
#868424
11
#868430
0%
#868483
1*
#868503
1,
#868832
1.
1$
#880000
0!
16
#881140
0=
#881283
0>
#900000
1!
06
#901140
1=
#901283
1>
#903086
1T
#904127
1B
#904155
0?
#904213
0D
#904299
1F
#904583
1O
#904586
0K
0P
#904590
1N
1L
#904593
1I
#904633
0C
#904719
0E
#904805
1G
#907092
15
#908345
0-
#908346
0+
#908490
0/
#908717
01
#908719
1%
#908731
0)
#920000
0!
16
#921140
0=
#921283
0>
#940000
1!
06
#941140
1=
#941283
1>
#943086
0T
0S
0R
1Q
#943810
0O
#943816
0L
1K
#943817
0N
#944127
0B
#944138
0F
#944155
1?
#944165
1E
#944197
1D
#944549
0K
#944593
0I
#944703
0E
#947092
05
#947319
12
#947327
03
#947333
04
#947571
1-
#947717
1/
#947958
1)
#948346
1+
#960000
0!
16
#961140
0=
#961283
0>
#980000
1!
06
#981140
1=
#981283
1>
#983086
1T
#984127
1B
#984155
0?
#984586
1P
#984593
1I
#984633
1C
#987092
15
#988346
0+
#988717
11
