Lab3/simulation/qsim/lab3.msim.vcd
$comment
	File created using the following command:
		vcd file lab3.msim.vcd -direction
$end
$date
	Mon Feb 19 18:04:52 2024
$end
$version
	ModelSim Version 10.1d
$end
$timescale
	1ps
$end
$scope module lab3_vlg_vec_tst $end
$var reg 4 ! g [3:0] $end
$var wire 1 " b [3] $end
$var wire 1 # b [2] $end
$var wire 1 $ b [1] $end
$var wire 1 % b [0] $end
$var wire 1 & sampler $end
$scope module i1 $end
$var wire 1 ' gnd $end
$var wire 1 ( vcc $end
$var wire 1 ) unknown $end
$var tri1 1 * devclrn $end
$var tri1 1 + devpor $end
$var tri1 1 , devoe $end
$var wire 1 - inst~combout $end
$var wire 1 . inst1~combout $end
$var wire 1 / inst2~combout $end
$var wire 1 0 g~combout [3] $end
$var wire 1 1 g~combout [2] $end
$var wire 1 2 g~combout [1] $end
$var wire 1 3 g~combout [0] $end
$upscope $end
$upscope $end
$enddefinitions $end
#0
$dumpvars
b0 !
x%
x$
x#
x"
x&
0'
1(
x)
1*
1+
1,
x-
x.
x/
03
02
01
00
$end
#5867
0.
0-
#6292
0/
#8335
0"
#9786
0$
#10037
0#
#10199
0%
#20000
b1000 !
0&
#20975
10
#26842
1.
1-
#27267
1/
#29310
1"
#30761
1$
#31012
1#
#31174
1%
#40000
b1100 !
b100 !
1&
#40975
00
#41005
11
#49310
0"
#60000
b1100 !
0&
#60975
10
#66842
0.
0-
#67267
0/
#69310
1"
#70761
0$
#71012
0#
#71174
0%
#80000
b1110 !
b1010 !
b10 !
1&
#80975
00
#81005
01
12
#87032
1.
#87033
1/
#89310
0"
#90940
1%
#90951
1$
#100000
b1010 !
0&
#100975
10
#106842
0.
1-
#107267
0/
#109310
1"
#110761
0$
#111012
1#
#111174
0%
#120000
b1110 !
b110 !
1&
#120975
00
#121005
11
#129310
0"
#140000
b1110 !
0&
#140975
10
#146842
1.
0-
#147267
1/
#149310
1"
#150761
1$
#151012
0#
#151174
1%
#160000
b1111 !
b1101 !
b1001 !
b1 !
1&
#160975
00
#161005
01
02
13
#167032
0.
#169310
0"
#170951
0$
#180000
b1001 !
0&
#180975
10
#186842
1.
1-
#187267
0/
#189310
1"
#190761
1$
#191012
1#
#191174
0%
#200000
b1101 !
b101 !
1&
#200975
00
#201005
11
#209310
0"
#220000
b1101 !
0&
#220975
10
#226842
0.
0-
#227267
1/
#229310
1"
#230761
0$
#231012
0#
#231174
1%
#240000
b1111 !
b1011 !
b11 !
1&
#240975
00
#241005
01
12
#247032
1.
#247033
0/
#249310
0"
#250940
0%
#250951
1$
#260000
b1011 !
0&
#260975
10
#266842
0.
1-
#267267
1/
#269310
1"
#270761
0$
#271012
1#
#271174
1%
#280000
b1111 !
b111 !
1&
#280975
00
#281005
11
#289310
0"
#300000
b1111 !
0&
#300975
10
#306842
1.
0-
#307267
0/
#309310
1"
#310761
1$
#311012
0#
#311174
0%
#320000
b1110 !
b1100 !
b1000 !
b0 !
1&
#320975
00
#321005
01
02
03
#327032
0.
#329310
0"
