Lab6/Lab6_1/simulation/qsim/Lab6_1.msim.vcd
$comment
	File created using the following command:
		vcd file Lab6_1.msim.vcd -direction
$end
$date
	Wed Apr 10 10:57:52 2024
$end
$version
	ModelSim Version 10.1d
$end
$timescale
	1ps
$end
$scope module Lab6_1_vlg_vec_tst $end
$var reg 1 ! C $end
$var reg 9 " R_clrn [8:0] $end
$var reg 9 # R_prn [8:0] $end
$var reg 1 $ W_en $end
$var wire 1 % Q [9] $end
$var wire 1 & Q [8] $end
$var wire 1 ' Q [7] $end
$var wire 1 ( Q [6] $end
$var wire 1 ) Q [5] $end
$var wire 1 * Q [4] $end
$var wire 1 + Q [3] $end
$var wire 1 , Q [2] $end
$var wire 1 - Q [1] $end
$var wire 1 . Q [0] $end
$var wire 1 / Q_out [9] $end
$var wire 1 0 Q_out [8] $end
$var wire 1 1 Q_out [7] $end
$var wire 1 2 Q_out [6] $end
$var wire 1 3 Q_out [5] $end
$var wire 1 4 Q_out [4] $end
$var wire 1 5 Q_out [3] $end
$var wire 1 6 Q_out [2] $end
$var wire 1 7 Q_out [1] $end
$var wire 1 8 Q_out [0] $end
$var wire 1 9 sampler $end
$scope module i1 $end
$var wire 1 : gnd $end
$var wire 1 ; vcc $end
$var wire 1 < unknown $end
$var tri1 1 = devclrn $end
$var tri1 1 > devpor $end
$var tri1 1 ? devoe $end
$var wire 1 @ C~clkctrl_outclk $end
$var wire 1 A inst1~1_combout $end
$var wire 1 B inst~1_combout $end
$var wire 1 C W_en~combout $end
$var wire 1 D inst3~1_combout $end
$var wire 1 E inst2~1_combout $end
$var wire 1 F inst2~3_combout $end
$var wire 1 G inst2~0_combout $end
$var wire 1 H inst2~_emulated_regout $end
$var wire 1 I inst2~2_combout $end
$var wire 1 J inst3~3_combout $end
$var wire 1 K inst3~0_combout $end
$var wire 1 L inst3~_emulated_regout $end
$var wire 1 M inst3~2_combout $end
$var wire 1 N inst7~1_combout $end
$var wire 1 O inst6~1_combout $end
$var wire 1 P inst5~1_combout $end
$var wire 1 Q inst4~1_combout $end
$var wire 1 R inst4~3_combout $end
$var wire 1 S inst4~0_combout $end
$var wire 1 T inst4~_emulated_regout $end
$var wire 1 U inst4~2_combout $end
$var wire 1 V inst5~3_combout $end
$var wire 1 W inst5~0_combout $end
$var wire 1 X inst5~_emulated_regout $end
$var wire 1 Y inst5~2_combout $end
$var wire 1 Z inst6~3_combout $end
$var wire 1 [ inst6~0_combout $end
$var wire 1 \ inst6~_emulated_regout $end
$var wire 1 ] inst6~2_combout $end
$var wire 1 ^ inst7~3_combout $end
$var wire 1 _ inst7~0_combout $end
$var wire 1 ` inst7~_emulated_regout $end
$var wire 1 a inst7~2_combout $end
$var wire 1 b inst555~1_combout $end
$var wire 1 c inst28~combout $end
$var wire 1 d inst~3_combout $end
$var wire 1 e inst~0_combout $end
$var wire 1 f inst~_emulated_regout $end
$var wire 1 g inst~2_combout $end
$var wire 1 h inst1~3_combout $end
$var wire 1 i inst1~0_combout $end
$var wire 1 j inst1~_emulated_regout $end
$var wire 1 k inst1~2_combout $end
$var wire 1 l inst555~0_combout $end
$var wire 1 m inst16~1_combout $end
$var wire 1 n inst16~3_combout $end
$var wire 1 o inst16~0_combout $end
$var wire 1 p inst16~_emulated_regout $end
$var wire 1 q inst16~2_combout $end
$var wire 1 r inst555~2_combout $end
$var wire 1 s C~combout $end
$var wire 1 t inst29~combout $end
$var wire 1 u inst26~combout $end
$var wire 1 v inst15~combout $end
$var wire 1 w inst14~combout $end
$var wire 1 x inst13~combout $end
$var wire 1 y inst12~combout $end
$var wire 1 z inst11~combout $end
$var wire 1 { inst10~combout $end
$var wire 1 | inst9~combout $end
$var wire 1 } inst8~combout $end
$var wire 1 ~ R_prn~combout [8] $end
$var wire 1 !! R_prn~combout [7] $end
$var wire 1 "! R_prn~combout [6] $end
$var wire 1 #! R_prn~combout [5] $end
$var wire 1 $! R_prn~combout [4] $end
$var wire 1 %! R_prn~combout [3] $end
$var wire 1 &! R_prn~combout [2] $end
$var wire 1 '! R_prn~combout [1] $end
$var wire 1 (! R_prn~combout [0] $end
$var wire 1 )! R_clrn~combout [8] $end
$var wire 1 *! R_clrn~combout [7] $end
$var wire 1 +! R_clrn~combout [6] $end
$var wire 1 ,! R_clrn~combout [5] $end
$var wire 1 -! R_clrn~combout [4] $end
$var wire 1 .! R_clrn~combout [3] $end
$var wire 1 /! R_clrn~combout [2] $end
$var wire 1 0! R_clrn~combout [1] $end
$var wire 1 1! R_clrn~combout [0] $end
$upscope $end
$upscope $end
$enddefinitions $end
#0
$dumpvars
0!
b111111110 "
b1 #
1$
x.
x-
x,
x+
x*
x)
x(
x'
x&
x%
x8
x7
x6
x5
x4
x3
x2
x1
x0
x/
x9
0:
1;
x<
1=
1>
1?
x@
xA
xB
1C
xD
xE
xF
xG
xH
xI
xJ
xK
xL
xM
xN
xO
xP
xQ
xR
xS
xT
xU
xV
xW
xX
xY
xZ
x[
x\
x]
x^
x_
x`
xa
xb
xc
xd
xe
xf
xg
xh
xi
xj
xk
xl
xm
xn
xo
xp
xq
xr
0s
xt
xu
xv
xw
xx
xy
xz
x{
x|
x}
1(!
0'!
0&!
0%!
0$!
0#!
0"!
0!!
0~
01!
10!
1/!
1.!
1-!
1,!
1+!
1*!
1)!
$end
#143
0@
#267
0H
0L
0T
0X
0\
0`
0f
0j
0p
#6107
1[
#6130
1P
1W
1Y
#6334
1G
#6592
1m
#6625
1o
#6626
1q
#6666
1M
#6667
1K
#6668
1D
#6683
1k
#6687
1Q
1S
#6691
1A
#6724
1i
#6726
1E
#6799
1I
#6940
1U
#7116
0g
#7155
1N
#7207
1u
#7266
1|
#7267
0R
#7347
1_
#7388
1O
#7391
1]
#7413
1e
#7414
0B
#7444
1a
#7701
1h
#7903
0F
#7966
0^
#7979
1y
#8028
0J
#8064
1z
#8139
0l
#8170
0V
#8397
0Z
#8508
1b
#8530
1x
#8604
1{
#8705
1w
#8715
0}
#8718
1c
#9168
0n
#9296
1d
#9361
1v
#9427
0r
#9463
0t
#10000
1!
b111111111 "
b100000001 #
b110000001 #
b111000001 #
b111100001 #
b111110001 #
b111111001 #
b111111101 #
b111111111 #
09
#10389
1&
#10779
1+
#10974
1!!
1"!
#10984
11!
1#!
1&!
1'!
#10985
1~
1$!
1%!
#10991
1)
#11140
1s
#11283
1@
#11346
1*
#11478
17
#11573
1(
#11612
1-
#11631
10
#11685
0.
#11707
1,
#11809
15
#12168
14
#12240
1'
#12255
13
#12448
08
#12707
16
#12905
12
#13114
11
#13206
0y
#13368
0{
#13690
0u
#13707
1t
#13728
0z
#13913
0|
#13914
0w
#13942
0v
#13946
0x
#13972
1/
#14434
1%
#17081
0[
#17114
0W
#17318
0G
#17395
04
#17471
06
#17473
05
#17610
0o
#17652
0K
#17671
03
#17672
0S
#17695
01
#17708
0i
#18114
00
02
#18125
07
#18216
0/
#18321
0_
#18397
0e
#20000
0!
19
#21140
0s
#21283
0@
#23206
1y
#23368
1{
#23690
1u
#23707
0t
#23728
1z
#23913
1|
#23914
1w
#23942
1v
#23946
1x
#27395
14
#27471
16
#27473
15
#27671
13
#27695
11
#28114
10
12
#28125
17
#28216
1/
#30000
1!
09
#31140
1s
#31283
1@
#33097
1f
1j
#33206
0y
#33368
0{
#33690
0u
#33707
1t
#33725
1g
#33728
0z
#33913
0|
#33914
0w
#33921
0k
#33942
0v
#33946
0x
#34310
0h
#35141
1F
#37395
04
#37471
06
#37473
05
#37671
03
#37695
01
#38114
00
02
#38125
07
#38216
0/
#38294
1.
#38850
0-
#40000
0!
19
#41140
0s
#41283
0@
#43206
1y
#43368
1{
#43690
1u
#43707
0t
#43728
1z
#43914
1w
#43942
1v
#43946
1}
1x
#47395
14
#47471
16
#47473
15
#47671
13
#47679
18
#47695
11
#48114
10
12
#48216
1/
#50000
1!
09
#51140
1s
#51283
1@
#53097
0j
#53102
1H
#53206
0y
#53368
0{
#53690
0u
#53707
1t
#53728
0z
#53732
0I
#53914
0w
#53921
1k
#53942
0v
#53946
0}
0x
#54961
1J
#55141
0F
#57395
04
#57471
06
#57473
05
#57671
03
#57679
08
#57695
01
#58114
00
02
#58216
0/
#58640
0,
#58850
1-
#60000
0!
19
#61140
0s
#61283
0@
#63206
1y
#63690
1u
#63707
0t
#63728
1z
#63913
1|
#63914
1w
#63942
1v
#63946
1}
1x
#67395
14
#67473
15
#67671
13
#67679
18
#67695
11
#68114
10
12
#68125
17
#68216
1/
#70000
1!
09
#71140
1s
#71283
1@
#73094
1L
#73102
0H
#73206
0y
#73690
0u
#73707
1t
#73728
0z
#73732
1I
#73746
0M
#73913
0|
#73914
0w
#73942
0v
#73946
0}
0x
#74506
1R
#74952
1l
#74961
0J
#75022
0b
#77395
04
#77473
05
#77671
03
#77679
08
#77695
01
#77859
0+
#78114
00
02
#78125
07
#78216
0/
#78640
1,
#80000
0!
19
#81140
0s
#81283
0@
#83206
1y
#83368
1{
#83690
1u
#83707
0t
#83913
1|
#83914
1w
#83942
1v
#83946
1}
1x
#87395
14
#87471
16
#87671
13
#87679
18
#87695
11
#88114
10
12
#88125
17
#88216
1/
#90000
1!
09
#91140
1s
#91283
1@
#93094
0L
1T
#93206
0y
#93368
0{
#93690
0u
#93707
1t
#93720
0U
#93746
1M
#93913
0|
#93914
0w
#93942
0v
#93946
0}
0x
#94506
0R
#94950
1V
#97395
04
#97471
06
#97671
03
#97679
08
#97695
01
#97859
1+
#98114
00
02
#98125
07
#98126
0*
#98216
0/
#100000
b111111110 #
b11111110 #
b1111110 #
b111110 #
b11110 #
b1110 #
b110 #
b10 #
b0 #
0!
19
#100964
0(!
#100974
0!!
0"!
#100984
0#!
0&!
0'!
#100985
0~
0$!
0%!
#101140
0s
#101283
0@
#103368
1{
#103690
1u
#103707
0t
#103728
1z
#103913
1|
#103914
1w
#103942
1v
#103946
1}
1x
#107081
1[
#107114
1W
#107318
1G
#107471
16
#107473
15
#107610
1o
#107652
1K
#107671
13
#107672
1S
#107679
18
#107695
11
#107708
1i
#107828
1B
#107829
1e
#107925
1U
#108114
10
12
#108125
17
#108216
1/
#108321
1_
#108838
0d
#108947
0T
#108964
1y
#109096
0f
#109155
0V
#109241
1b
#109983
0c
#110000
b1 #
b100000001 #
b110000001 #
b111000001 #
b111100001 #
b111110001 #
b111111001 #
b111111101 #
b111111111 #
1!
09
#110227
1t
#110230
1r
#110561
1d
#110964
1(!
#110974
1!!
1"!
#110984
1#!
1&!
1'!
#110985
1~
1$!
1%!
#111140
1s
#111283
1@
#112331
1*
#113153
14
#113206
0y
#113368
0{
#113690
0u
#113728
0z
#113913
0|
#113914
0w
#113942
0v
#113946
0}
0x
#114736
0/
#115237
0%
#117081
0[
#117114
0W
#117318
0G
#117395
04
#117471
06
#117473
05
#117610
0o
#117652
0K
#117671
03
#117672
0S
#117679
08
#117695
01
#117708
0i
#117829
0e
#118114
00
02
#118125
07
#118321
0_
#120000
0!
19
#121140
0s
#121283
0@
#123206
1y
#123368
1{
#123690
1u
#123728
1z
#123913
1|
#123914
1w
#123942
1v
#123946
1}
1x
#127395
14
#127471
16
#127473
15
#127671
13
#127679
18
#127695
11
#128114
10
12
#128125
17
#130000
1!
09
#131140
1s
#131283
1@
#133097
1f
#133206
0y
#133368
0{
#133690
0u
#133725
0g
#133728
0z
#133913
0|
#133914
0w
#133942
0v
#133946
0}
0x
#134310
1h
#134748
0l
#135327
1c
#135905
0d
#136036
0r
#137395
04
#137471
06
#137473
05
#137671
03
#137679
08
#137695
01
#138114
00
02
#138125
07
#138294
0.
#140000
0!
19
#141043
1%
#141140
0s
#141283
0@
#143206
1y
#143368
1{
#143690
1u
#143707
0t
#143728
1z
#143913
1|
#143914
1w
#143942
1v
#143946
1x
#147395
14
#147471
16
#147473
15
#147671
13
#147695
11
#148114
10
12
#148125
17
#148216
1/
#150000
1!
09
#151140
1s
#151283
1@
#153097
0f
1j
#153206
0y
#153368
0{
#153690
0u
#153707
1t
#153725
1g
#153728
0z
#153913
0|
#153914
0w
#153921
0k
#153942
0v
#153946
0x
#154310
0h
#155141
1F
#157395
04
#157471
06
#157473
05
#157671
03
#157695
01
#158114
00
02
#158125
07
#158216
0/
#158294
1.
#158850
0-
#160000
0!
19
#161140
0s
#161283
0@
#163206
1y
#163368
1{
#163690
1u
#163707
0t
#163728
1z
#163914
1w
#163942
1v
#163946
1}
1x
#167395
14
#167471
16
#167473
15
#167671
13
#167679
18
#167695
11
#168114
10
12
#168216
1/
#170000
1!
09
#171140
1s
#171283
1@
#173097
0j
#173102
1H
#173206
0y
#173368
0{
#173690
0u
#173707
1t
#173728
0z
#173732
0I
#173914
0w
#173921
1k
#173942
0v
#173946
0}
0x
#174961
1J
#175141
0F
#177395
04
#177471
06
#177473
05
#177671
03
#177679
08
#177695
01
#178114
00
02
#178216
0/
#178640
0,
#178850
1-
#180000
0!
19
#181140
0s
#181283
0@
#183206
1y
#183690
1u
#183707
0t
#183728
1z
#183913
1|
#183914
1w
#183942
1v
#183946
1}
1x
#187395
14
#187473
15
#187671
13
#187679
18
#187695
11
#188114
10
12
#188125
17
#188216
1/
#190000
1!
09
#191140
1s
#191283
1@
#193094
1L
#193102
0H
#193206
0y
#193690
0u
#193707
1t
#193728
0z
#193732
1I
#193746
0M
#193913
0|
#193914
0w
#193942
0v
#193946
0}
0x
#194506
1R
#194952
1l
#194961
0J
#195022
0b
#197395
04
#197473
05
#197671
03
#197679
08
#197695
01
#197859
0+
#198114
00
02
#198125
07
#198216
0/
#198640
1,
#200000
0!
19
#201140
0s
#201283
0@
#203206
1y
#203368
1{
#203690
1u
#203707
0t
#203913
1|
#203914
1w
#203942
1v
#203946
1}
1x
#207395
14
#207471
16
#207671
13
#207679
18
#207695
11
#208114
10
12
#208125
17
#208216
1/
#210000
1!
09
#211140
1s
#211283
1@
#213094
0L
1T
#213206
0y
#213368
0{
#213690
0u
#213707
1t
#213720
0U
#213746
1M
#213913
0|
#213914
0w
#213942
0v
#213946
0}
0x
#214506
0R
#214950
1V
#217395
04
#217471
06
#217671
03
#217679
08
#217695
01
#217859
1+
#218114
00
02
#218125
07
#218126
0*
#218216
0/
#220000
0!
19
#221140
0s
#221283
0@
#223368
1{
#223690
1u
#223707
0t
#223728
1z
#223913
1|
#223914
1w
#223942
1v
#223946
1}
1x
#227471
16
#227473
15
#227671
13
#227679
18
#227695
11
#228114
10
12
#228125
17
#228216
1/
#230000
1!
09
#231140
1s
#231283
1@
#233093
1X
#233094
0T
#233368
0{
#233690
0u
#233707
1t
#233720
1U
#233728
0z
#233738
0Y
#233913
0|
#233914
0w
#233942
0v
#233946
0}
0x
#234950
0V
#234991
1Z
#237471
06
#237473
05
#237671
03
#237679
08
#237695
01
#238114
00
02
#238125
07
#238126
1*
#238216
0/
#238599
0)
#240000
0!
19
#241140
0s
#241283
0@
#243206
1y
#243368
1{
#243690
1u
#243707
0t
#243728
1z
#243913
1|
#243914
1w
#243942
1v
#243946
1}
#247395
14
#247471
16
#247473
15
#247679
18
#247695
11
#248114
10
12
#248125
17
#248216
1/
#250000
1!
09
#251140
1s
#251283
1@
#253093
0X
#253099
1\
#253206
0y
#253368
0{
#253690
0u
#253707
1t
#253728
0z
#253734
0]
#253738
1Y
#253913
0|
#253914
0w
#253942
0v
#253946
0}
#254309
1^
#254799
0l
#254885
1b
#254991
0Z
#257395
04
#257471
06
#257473
05
#257679
08
#257695
01
#257916
0(
#258114
00
02
#258125
07
#258216
0/
#258599
1)
#260000
0!
19
#261140
0s
#261283
0@
#263206
1y
#263368
1{
#263690
1u
#263707
0t
#263728
1z
#263913
1|
#263942
1v
#263946
1}
1x
#267395
14
#267471
16
#267473
15
#267671
13
#267679
18
#267695
11
#268114
10
#268125
17
#268216
1/
#270000
1!
09
#271140
1s
#271283
1@
#273099
0\
1`
#273206
0y
#273368
0{
#273690
0u
#273707
1t
#273726
0a
#273728
0z
#273734
1]
#273913
0|
#273942
0v
#273946
0}
0x
#274309
0^
#274790
0b
#274799
1l
#275450
1n
#277395
04
#277471
06
#277473
05
#277671
03
#277679
08
#277695
01
#277916
1(
#278114
00
#278125
07
#278216
0/
#278522
0'
#280000
0!
19
#281140
0s
#281283
0@
#283206
1y
#283368
1{
#283690
1u
#283707
0t
#283728
1z
#283913
1|
#283914
1w
#283946
1}
1x
#287395
14
#287471
16
#287473
15
#287671
13
#287679
18
#288114
10
12
#288125
17
#288216
1/
#290000
1!
09
#291140
1s
#291283
1@
#293094
1p
#293099
0`
#293206
0y
#293368
0{
#293690
0u
#293707
1t
#293726
1a
#293728
0z
#293732
0q
#293913
0|
#293914
0w
#293946
0}
0x
#294790
1b
#295450
0n
#297395
04
#297471
06
#297473
05
#297495
0&
#297671
03
#297679
08
#298114
00
02
#298125
07
#298216
0/
#298522
1'
#300000
0!
19
#301140
0s
#301283
0@
#303206
1y
#303368
1{
#303707
0t
#303728
1z
#303913
1|
#303914
1w
#303942
1v
#303946
1}
1x
#307395
14
#307471
16
#307473
15
#307671
13
#307679
18
#307695
11
#308114
12
#308125
17
#308216
1/
#310000
1!
09
#311140
1s
#311283
1@
#313094
0p
#313206
0y
#313368
0{
#313707
1t
#313728
0z
#313732
1q
#313913
0|
#313914
0w
#313942
0v
#313946
0}
0x
#314973
1r
#315454
0c
#316032
1d
#317395
04
#317471
06
#317473
05
#317495
1&
#317671
03
#317679
08
#317695
01
#318114
02
#318125
07
#318216
0/
#319980
0%
#320000
0!
19
#321140
0s
#321283
0@
#323206
1y
#323368
1{
#323690
1u
#323728
1z
#323913
1|
#323914
1w
#323942
1v
#323946
1}
1x
#327395
14
#327471
16
#327473
15
#327671
13
#327679
18
#327695
11
#328114
10
12
#328125
17
#330000
1!
09
#331140
1s
#331283
1@
#333097
1f
#333206
0y
#333368
0{
#333690
0u
#333725
0g
#333728
0z
#333913
0|
#333914
0w
#333942
0v
#333946
0}
0x
#334310
1h
#334748
0l
#335327
1c
#335905
0d
#336036
0r
#337395
04
#337471
06
#337473
05
#337671
03
#337679
08
#337695
01
#338114
00
02
#338125
07
#338294
0.
#340000
b11111111 "
b1111111 "
b111111 "
b11111 "
b1111 "
b111 "
b11 "
b1 "
b0 "
0!
19
#340984
0*!
0+!
0-!
0/!
00!
01!
#340985
0.!
#341004
0)!
0,!
#341043
1%
#341140
0s
#341283
0@
#343206
1y
#343368
1{
#343690
1u
#343707
0t
#343728
1z
#343913
1|
#343914
1w
#343942
1v
#343946
1x
#346898
1W
#346957
0A
#346958
0k
#347058
1i
#347066
0m
#347072
1o
#347073
0q
#347137
0U
#347370
0P
#347372
0Y
#347383
0Q
#347385
1S
#347395
14
#347420
1K
#347471
16
#347472
0E
#347473
15
#347480
1G
0I
#347541
0|
#347654
0u
#347671
13
#347695
11
#347718
0h
#347894
0D
#347897
0M
#347963
1R
#348069
1n
#348114
10
12
#348125
17
#348139
0N
#348142
1_
#348176
0y
#348216
1/
#348368
1[
#348372
0O
#348375
0]
#348397
1e
#348398
0B
#348428
0a
#348453
0b
#348625
1Z
#348657
0R
#349285
0{
#349295
0z
#349381
0Z
#349408
1d
#349664
0f
#349689
0w
#349772
0x
#350000
b100000000 "
b110000000 "
b111000000 "
b111100000 "
b111110000 "
b111111000 "
b111111100 "
b111111110 "
b111111111 "
1!
09
#350152
0n
#350345
0v
#350836
0&
#350984
1*!
1+!
1-!
1/!
10!
11!
#350985
1.!
#351004
1)!
1,!
#351140
1s
#351283
1@
#351543
0*
#351753
07
#351887
0-
#352010
0+
#352078
00
#352233
0)
#352365
04
#352388
0,
#352557
0(
#353040
05
#353224
0'
#353388
06
#353497
03
#353707
1t
#353889
02
#354098
01
#356898
0W
#357058
0i
#357072
0o
#357385
0S
#357420
0K
#357480
0G
#358142
0_
#358216
0/
#358368
0[
#358397
0e
#360000
0!
19
#361140
0s
#361283
0@
#363707
0t
#368216
1/
#370000
1!
09
#371140
1s
#371283
1@
#373097
1f
#373707
1t
#373725
1g
#374310
1h
#378216
0/
#378294
1.
#380000
0!
19
#381140
0s
#381283
0@
#383707
0t
#383946
1}
#387679
18
#388216
1/
#390000
1!
09
#391140
1s
#391283
1@
#393097
1j
#393707
1t
#393921
1k
#393946
0}
#395141
1F
#397679
08
#398216
0/
#398850
1-
#400000
0!
19
#401140
0s
#401283
0@
#403707
0t
#403913
1|
#403946
1}
#407679
18
#408125
17
#408216
1/
#410000
1!
09
#411140
1s
#411283
1@
#413102
1H
#413707
1t
#413732
1I
#413913
0|
#413946
0}
#414961
1J
#417679
08
#418125
07
#418216
0/
#418640
1,
#420000
0!
19
#421140
0s
#421283
0@
#423368
1{
#423707
0t
#423913
1|
#423946
1}
#427471
16
#427679
18
#428125
17
#428216
1/
#430000
1!
09
#431140
1s
#431283
1@
#433094
1L
#433368
0{
#433707
1t
#433746
1M
#433913
0|
#433946
0}
#434506
1R
#437471
06
#437679
08
#437859
1+
#438125
07
#438216
0/
#440000
0!
19
#441140
0s
#441283
0@
#443368
1{
#443707
0t
#443728
1z
#443913
1|
#443946
1}
#447471
16
#447473
15
#447679
18
#448125
17
#448216
1/
#450000
1!
09
#451140
1s
#451283
1@
#453094
1T
#453368
0{
#453707
1t
#453720
1U
#453728
0z
#453913
0|
#453946
0}
#454950
1V
#457471
06
#457473
05
#457679
08
#458125
07
#458126
1*
#458216
0/
#460000
0!
19
#461140
0s
#461283
0@
#463206
1y
#463368
1{
#463707
0t
#463728
1z
#463913
1|
#463946
1}
#467395
14
#467471
16
#467473
15
#467679
18
#468125
17
#468216
1/
#470000
1!
09
#471140
1s
#471283
1@
#473093
1X
#473206
0y
#473368
0{
#473707
1t
#473728
0z
#473738
1Y
#473913
0|
#473946
0}
#474991
1Z
#477395
04
#477471
06
#477473
05
#477679
08
#478125
07
#478216
0/
#478599
1)
#480000
0!
19
#481140
0s
#481283
0@
#483206
1y
#483368
1{
#483707
0t
#483728
1z
#483913
1|
#483946
1}
1x
#487395
14
#487471
16
#487473
15
#487671
13
#487679
18
#488125
17
#488216
1/
#490000
1!
09
#491140
1s
#491283
1@
#493099
1\
#493206
0y
#493368
0{
#493707
1t
#493728
0z
#493734
1]
#493913
0|
#493946
0}
0x
#494309
1^
#494799
1l
#497395
04
#497471
06
#497473
05
#497671
03
#497679
08
#497916
1(
#498125
07
#498216
0/
#500000
0!
19
#501140
0s
#501283
0@
#503206
1y
#503368
1{
#503707
0t
#503728
1z
#503913
1|
#503914
1w
#503946
1}
1x
#507395
14
#507471
16
#507473
15
#507671
13
#507679
18
#508114
12
#508125
17
#508216
1/
#510000
1!
09
#511140
1s
#511283
1@
#513099
1`
#513206
0y
#513368
0{
#513707
1t
#513726
1a
#513728
0z
#513913
0|
#513914
0w
#513946
0}
0x
#514790
1b
#515450
1n
#517395
04
#517471
06
#517473
05
#517671
03
#517679
08
#518114
02
#518125
07
#518216
0/
#518522
1'
#520000
0!
19
#521140
0s
#521283
0@
#523206
1y
#523368
1{
#523707
0t
#523728
1z
#523913
1|
#523914
1w
#523942
1v
#523946
1}
1x
#527395
14
#527471
16
#527473
15
#527671
13
#527679
18
#527695
11
#528114
12
#528125
17
#528216
1/
#530000
1!
09
#531140
1s
#531283
1@
#533094
1p
#533206
0y
#533368
0{
#533707
1t
#533728
0z
#533732
1q
#533913
0|
#533914
0w
#533942
0v
#533946
0}
0x
#534973
1r
#535454
0c
#536032
0d
#537395
04
#537471
06
#537473
05
#537495
1&
#537671
03
#537679
08
#537695
01
#538114
02
#538125
07
#538216
0/
#539980
0%
#540000
0!
19
#541140
0s
#541283
0@
#543206
1y
#543368
1{
#543690
1u
#543728
1z
#543913
1|
#543914
1w
#543942
1v
#543946
1}
1x
#547395
14
#547471
16
#547473
15
#547671
13
#547679
18
#547695
11
#548114
10
12
#548125
17
#550000
1!
09
#551140
1s
#551283
1@
#553097
0f
#553206
0y
#553368
0{
#553690
0u
#553725
0g
#553728
0z
#553913
0|
#553914
0w
#553942
0v
#553946
0}
0x
#554310
0h
#554748
0l
#555327
1c
#555905
1d
#556036
0r
#557395
04
#557471
06
#557473
05
#557671
03
#557679
08
#557695
01
#558114
00
02
#558125
07
#558294
0.
#560000
0!
19
#561043
1%
#561140
0s
#561283
0@
#563206
1y
#563368
1{
#563690
1u
#563707
0t
#563728
1z
#563913
1|
#563914
1w
#563942
1v
#563946
1x
#567395
14
#567471
16
#567473
15
#567671
13
#567695
11
#568114
10
12
#568125
17
#568216
1/
#570000
1!
09
#571140
1s
#571283
1@
#573097
1f
0j
#573206
0y
#573368
0{
#573690
0u
#573707
1t
#573725
1g
#573728
0z
#573913
0|
#573914
0w
#573921
0k
#573942
0v
#573946
0x
#574310
1h
#575141
0F
#577395
04
#577471
06
#577473
05
#577671
03
#577695
01
#578114
00
02
#578125
07
#578216
0/
#578294
1.
#578850
0-
#580000
0!
19
#581140
0s
#581283
0@
#583206
1y
#583368
1{
#583690
1u
#583707
0t
#583728
1z
#583914
1w
#583942
1v
#583946
1}
1x
#587395
14
#587471
16
#587473
15
#587671
13
#587679
18
#587695
11
#588114
10
12
#588216
1/
#590000
1!
09
#591140
1s
#591283
1@
#593097
1j
#593102
0H
#593206
0y
#593368
0{
#593690
0u
#593707
1t
#593728
0z
#593732
0I
#593914
0w
#593921
1k
#593942
0v
#593946
0}
0x
#594961
0J
#595141
1F
#597395
04
#597471
06
#597473
05
#597671
03
#597679
08
#597695
01
#598114
00
02
#598216
0/
#598640
0,
#598850
1-
#600000
0!
19
#601140
0s
#601283
0@
#603206
1y
#603690
1u
#603707
0t
#603728
1z
#603913
1|
#603914
1w
#603942
1v
#603946
1}
1x
#607395
14
#607473
15
#607671
13
#607679
18
#607695
11
#608114
10
12
#608125
17
#608216
1/
#610000
1!
09
#611140
1s
#611283
1@
#613094
0L
#613102
1H
#613206
0y
#613690
0u
#613707
1t
#613728
0z
#613732
1I
#613746
0M
#613913
0|
#613914
0w
#613942
0v
#613946
0}
0x
#614506
0R
#614952
1l
#614961
1J
#615022
0b
#617395
04
#617473
05
#617671
03
#617679
08
#617695
01
#617859
0+
#618114
00
02
#618125
07
#618216
0/
#618640
1,
#620000
b11111111 "
b11011111 "
b11001111 "
b11001011 "
b11001001 "
0!
19
#620984
0-!
0/!
00!
#621004
0)!
0,!
#621140
0s
#621283
0@
#623206
1y
#623368
1{
#623690
1u
#623707
0t
#623913
1|
#623914
1w
#623942
1v
#623946
1}
1x
#626898
1W
#626958
0k
#627058
1i
#627072
1o
#627073
0q
#627137
0U
#627372
0Y
#627385
1S
#627395
14
#627471
16
#627480
1G
0I
#627541
0|
#627654
0u
#627671
13
#627679
18
#627695
11
#627933
0l
#628114
10
12
#628125
17
#628153
0X
#628176
0y
#628178
0F
#628216
1/
#628327
0p
#628332
0j
#628367
0V
#628625
0Z
#628660
0T
#628709
0J
#628735
0H
#629285
0{
#629772
0x
#630000
b111001001 "
b111101001 "
b111111001 "
b111111101 "
b111111111 "
1!
09
#630836
0&
#630984
1-!
1/!
10!
#631004
1)!
1,!
#631140
1s
#631283
1@
#631543
0*
#631753
07
#631887
0-
#632078
00
#632233
0)
#632365
04
#632388
0,
#633099
0\
#633388
06
#633497
03
#633707
1t
#633734
0]
#633914
0w
#633942
0v
#633946
0}
#634309
0^
#636898
0W
#637058
0i
#637072
0o
#637385
0S
#637480
0G
#637679
08
#637695
01
#637916
0(
#638114
02
#638216
0/
#640000
0!
19
#641140
0s
#641283
0@
#643707
0t
#643942
1v
#643946
1}
#647679
18
#647695
11
#648216
1/
#650000
1!
09
#651140
1s
#651283
1@
#653094
1p
#653097
1j
#653099
0`
#653707
1t
#653726
0a
#653732
1q
#653921
1k
#653942
0v
#653946
0}
#655141
1F
#655450
0n
#657495
1&
#657679
08
#657695
01
#658216
0/
#658522
0'
#658850
1-
#660000
0!
19
#661140
0s
#661283
0@
#663690
1u
#663707
0t
#663913
1|
#663946
1}
#667679
18
#668114
10
#668125
17
#668216
1/
#670000
1!
09
#671140
1s
#671283
1@
#673094
0p
#673102
1H
#673690
0u
#673707
1t
#673732
1I
0q
#673913
0|
#673946
0}
#674961
1J
#677495
0&
#677679
08
#678114
00
#678125
07
#678216
0/
#678640
1,
#680000
0!
19
#681140
0s
#681283
0@
#683368
1{
#683707
0t
#683913
1|
#683946
1}
#687471
16
#687679
18
#688125
17
#688216
1/
#690000
1!
09
#691140
1s
#691283
1@
#693094
1L
#693368
0{
#693707
1t
#693746
1M
#693913
0|
#693946
0}
#694506
1R
#697471
06
#697679
08
#697859
1+
#698125
07
#698216
0/
#700000
0!
19
#701140
0s
#701283
0@
#703368
1{
#703707
0t
#703728
1z
#703913
1|
#703946
1}
#707471
16
#707473
15
#707679
18
#708125
17
#708216
1/
#710000
1!
09
#711140
1s
#711283
1@
#713094
1T
#713368
0{
#713707
1t
#713720
1U
#713728
0z
#713913
0|
#713946
0}
#714950
1V
#717471
06
#717473
05
#717679
08
#718125
07
#718126
1*
#718216
0/
#720000
0!
19
#721140
0s
#721283
0@
#723206
1y
#723368
1{
#723707
0t
#723728
1z
#723913
1|
#723946
1}
#727395
14
#727471
16
#727473
15
#727679
18
#728125
17
#728216
1/
#730000
1!
09
#731140
1s
#731283
1@
#733093
1X
#733206
0y
#733368
0{
#733707
1t
#733728
0z
#733738
1Y
#733913
0|
#733946
0}
#734991
1Z
#737395
04
#737471
06
#737473
05
#737679
08
#738125
07
#738216
0/
#738599
1)
#740000
0!
19
#741140
0s
#741283
0@
#743206
1y
#743368
1{
#743707
0t
#743728
1z
#743913
1|
#743946
1}
1x
#747395
14
#747471
16
#747473
15
#747671
13
#747679
18
#748125
17
#748216
1/
#750000
1!
09
#751140
1s
#751283
1@
#753099
1\
#753206
0y
#753368
0{
#753707
1t
#753728
0z
#753734
1]
#753913
0|
