Lab5/Lab5_1/simulation/qsim/Lab5_1.msim.vcd
$comment
	File created using the following command:
		vcd file Lab5_1.msim.vcd -direction
$end
$date
	Thu Apr 04 21:06:35 2024
$end
$version
	ModelSim Version 10.1d
$end
$timescale
	1ps
$end
$scope module Lab5_1_vlg_vec_tst $end
$var reg 1 ! C_DOWN $end
$var reg 1 " OE_H $end
$var reg 1 # PRN_RESET $end
$var reg 1 $ R0 $end
$var reg 1 % R1 $end
$var reg 1 & R2 $end
$var reg 1 ' R3 $end
$var reg 1 ( S0 $end
$var reg 1 ) S1 $end
$var reg 1 * S2 $end
$var reg 1 + S3 $end
$var wire 1 , Q0 $end
$var wire 1 - Q1 $end
$var wire 1 . Q2 $end
$var wire 1 / Q3 $end
$var wire 1 0 sampler $end
$scope module i1 $end
$var wire 1 1 gnd $end
$var wire 1 2 vcc $end
$var wire 1 3 unknown $end
$var tri1 1 4 devclrn $end
$var tri1 1 5 devpor $end
$var tri1 1 6 devoe $end
$var wire 1 7 C_DOWN~combout $end
$var wire 1 8 C_DOWN~clkctrl_outclk $end
$var wire 1 9 OE_H~combout $end
$var wire 1 : S0~combout $end
$var wire 1 ; R0~combout $end
$var wire 1 < inst6~0_combout $end
$var wire 1 = PRN_RESET~combout $end
$var wire 1 > PRN_RESET~clkctrl_outclk $end
$var wire 1 ? inst6~regout $end
$var wire 1 @ inst8~combout $end
$var wire 1 A R1~combout $end
$var wire 1 B S1~combout $end
$var wire 1 C inst5~0_combout $end
$var wire 1 D inst5~regout $end
$var wire 1 E inst7~combout $end
$var wire 1 F R2~combout $end
$var wire 1 G S2~combout $end
$var wire 1 H inst4~0_combout $end
$var wire 1 I inst4~regout $end
$var wire 1 J inst3~combout $end
$var wire 1 K S3~combout $end
$var wire 1 L R3~combout $end
$var wire 1 M inst~0_combout $end
$var wire 1 N inst~regout $end
$var wire 1 O inst1~combout $end
$upscope $end
$upscope $end
$enddefinitions $end
#0
$dumpvars
0!
1"
1#
0$
0%
0&
0'
0(
0)
0*
0+
1,
1-
1.
1/
x0
01
12
x3
14
15
16
07
08
19
0:
0;
0<
1=
1>
0?
1@
0A
0B
0C
0D
1E
0F
0G
0H
0I
1J
0K
0L
0M
0N
1O
$end
#20000
1$
1;
00
1<
#25000
1!
17
18
10
#40000
1%
0$
1A
0;
00
1C
0<
#50000
0!
07
08
10
1D
0E
0-
#60000
1$
1;
00
1<
#75000
1!
17
18
10
#80000
1&
0%
0$
1F
0A
0;
00
1H
0<
#100000
0!
1$
07
1;
08
10
1<
1I
0J
0.
#120000
1%
0$
1A
0;
00
0<
#125000
1!
17
18
10
#140000
1$
1;
00
1<
#150000
0!
07
08
10
1?
0@
0,
#160000
1'
0&
0%
0$
1L
0F
0A
0;
00
1M
#175000
1!
17
18
10
#180000
1$
1;
00
#200000
1%
0!
0$
1A
07
0;
08
10
1N
0O
0/
#220000
1$
1;
00
#225000
1!
17
18
10
#240000
1&
0%
0$
1F
0A
0;
00
#250000
0!
07
08
10
#260000
1$
1;
00
#275000
1!
17
18
10
#280000
1%
0$
1A
0;
00
#300000
0!
1$
07
1;
08
10
#320000
1(
0'
0&
0%
0$
1:
0L
0F
0A
0;
00
0<
#325000
1!
17
18
10
#340000
1$
1;
00
#350000
0!
07
08
10
0?
1@
1<
1,
#360000
1%
0$
1A
0;
00
0<
#375000
1!
17
18
10
#380000
1$
1;
00
1<
#400000
1&
0%
0!
0$
1F
0A
07
0;
08
10
0<
1?
0@
0,
#420000
1$
1;
00
#425000
1!
17
18
10
#440000
1%
0$
1A
0;
00
#450000
0!
07
08
10
0?
1@
1,
#460000
1$
1;
00
1<
#475000
1!
17
18
10
#480000
1'
0&
0%
0$
1L
0F
0A
0;
00
0<
#500000
0!
1$
07
1;
08
10
1<
#520000
1%
0$
1A
0;
00
0<
#525000
1!
17
18
10
#540000
1$
1;
00
1<
#550000
0!
07
08
10
1?
0@
0<
0,
#560000
1&
0%
0$
1F
0A
0;
00
#575000
1!
17
18
10
#580000
1$
1;
00
#600000
1%
0!
0$
1A
07
0;
08
10
0?
1@
1,
#620000
1$
1;
00
1<
#625000
1!
17
18
10
#640000
1)
0(
0'
0&
0%
0$
1B
0:
0L
0F
0A
0;
00
0C
0<
#650000
0!
07
08
10
0D
1E
1-
#660000
1$
1;
00
1<
#675000
1!
17
18
10
#680000
1%
0$
1A
0;
00
1C
0<
#700000
0!
1$
07
1;
08
10
1<
1D
0E
0C
0-
#720000
1&
0%
0$
1F
0A
0;
00
0<
#725000
1!
17
18
10
#740000
1$
1;
00
1<
#750000
0!
07
08
10
1?
0D
0@
1E
0,
1-
#760000
1%
0$
1A
0;
00
1C
#775000
1!
17
18
10
#780000
1$
1;
00
#800000
1'
0&
0%
0!
0$
1L
0F
0A
07
0;
08
10
0C
1D
0E
0-
#820000
1$
1;
00
#825000
1!
17
18
10
#840000
1%
0$
1A
0;
00
#850000
0!
07
08
10
0D
1E
1C
1-
#860000
1$
1;
00
#875000
1!
17
18
10
#880000
1&
0%
0$
1F
0A
0;
00
0C
#900000
0!
1$
07
1;
08
10
#920000
1%
0$
1A
0;
00
1C
#925000
1!
17
18
10
#940000
1$
1;
00
#950000
0!
07
08
10
1D
0E
0C
0-
#960000
1(
0'
0&
0%
0$
1:
0L
0F
0A
0;
00
0<
#975000
1!
17
18
10
#980000
1$
1;
00
#1000000
1%
0!
0$
1A
07
0;
08
10
0?
0D
1@
1E
1C
1,
1-
#1020000
1$
1;
00
1<
#1025000
1!
17
18
10
#1040000
1&
0%
0$
1F
0A
0;
00
0C
0<
#1050000
0!
07
08
10
#1060000
1$
1;
00
1<
#1075000
1!
17
18
10
#1080000
1%
0$
1A
0;
00
1C
0<
#1100000
0!
1$
07
1;
08
10
1<
1D
0E
0C
0-
#1120000
1'
0&
0%
0$
1L
0F
0A
0;
00
0<
#1125000
1!
17
18
10
#1140000
1$
1;
00
1<
#1150000
0!
07
08
10
1?
0D
0@
0<
1E
0,
1-
#1160000
1%
0$
1A
0;
00
1C
#1175000
1!
17
18
10
#1180000
1$
1;
00
#1200000
1&
0%
0!
0$
1F
0A
07
0;
08
10
0C
0?
1D
1@
0E
1,
0-
#1220000
1$
1;
00
1<
#1225000
1!
17
18
10
#1240000
1%
0$
1A
0;
00
0<
#1250000
0!
07
08
10
0D
1E
1C
1-
#1260000
1$
1;
00
1<
#1275000
1!
17
18
10
#1280000
1*
0)
0(
0'
0&
0%
0$
1G
0B
0:
0L
0F
0A
0;
00
0H
0C
0<
#1300000
0!
1$
07
1;
08
10
1<
0I
1J
1.
#1320000
1%
0$
1A
0;
00
1C
0<
#1325000
1!
17
18
10
#1340000
1$
1;
00
1<
#1350000
0!
07
08
10
1?
1D
0@
0E
0,
0-
#1360000
1&
0%
0$
1F
0A
0;
00
1H
#1375000
1!
17
18
10
#1380000
1$
1;
00
#1400000
1%
0!
0$
1A
07
0;
08
10
1I
0J
0H
0.
#1420000
1$
1;
00
#1425000
1!
17
18
10
#1440000
1'
0&
0%
0$
1L
0F
0A
0;
00
#1450000
0!
07
08
10
0I
1J
1.
#1460000
1$
1;
00
#1475000
1!
17
18
10
#1480000
1%
0$
1A
0;
00
#1500000
0!
1$
07
1;
08
10
#1520000
1&
0%
0$
1F
0A
0;
00
1H
#1525000
1!
17
18
10
#1540000
1$
1;
00
#1550000
0!
07
08
10
1I
0J
0H
0.
#1560000
1%
0$
1A
0;
00
#1575000
1!
17
18
10
#1580000
1$
1;
00
#1600000
1(
0'
0&
0%
0!
0$
1:
0L
0F
0A
07
0;
08
10
0<
0I
1J
1.
#1620000
1$
1;
00
#1625000
1!
17
18
10
#1640000
1%
0$
1A
0;
00
#1650000
0!
07
08
10
0?
1@
1,
#1660000
1$
1;
00
1<
#1675000
1!
17
18
10
#1680000
1&
0%
0$
1F
0A
0;
00
1H
0<
#1700000
0!
1$
07
1;
08
10
1<
1I
0J
0H
0.
#1720000
1%
0$
1A
0;
00
0<
#1725000
1!
17
18
10
#1740000
1$
1;
00
1<
#1750000
0!
07
08
10
1?
0I
0@
0<
1J
1H
0,
1.
#1760000
1'
0&
0%
0$
1L
0F
0A
0;
00
0H
#1775000
1!
17
18
10
#1780000
1$
1;
00
#1800000
1%
0!
0$
1A
07
0;
08
10
0?
1@
1,
#1820000
1$
1;
00
1<
#1825000
1!
17
18
10
#1840000
1&
0%
0$
1F
0A
0;
00
1H
0<
#1850000
0!
07
08
10
1I
0J
0H
0.
#1860000
1$
1;
00
1<
#1875000
1!
17
18
10
#1880000
1%
0$
1A
0;
00
0<
#1900000
0!
1$
07
1;
08
10
1<
0I
1J
1H
1.
#1920000
1)
0(
0'
0&
0%
0$
1B
0:
0L
0F
0A
0;
00
0C
0<
0H
#1925000
1!
17
18
10
#1940000
1$
1;
00
1<
#1950000
0!
07
08
10
1?
0D
0@
1E
0,
1-
#1960000
1%
0$
1A
0;
00
1C
#1975000
1!
17
18
10
#1980000
1$
1;
00
#2000000
1&
0%
0!
0$
1F
0A
07
0;
08
10
1H
0C
1D
0E
0-
#2020000
1$
1;
00
#2025000
1!
17
18
10
#2040000
1%
0$
1A
0;
00
#2050000
0!
07
08
10
0D
1I
1E
1C
0J
0H
1-
0.
#2060000
1$
1;
00
#2075000
1!
17
18
10
#2080000
1'
0&
0%
0$
1L
0F
0A
0;
00
0C
#2100000
0!
1$
07
1;
08
10
0I
1J
1.
#2120000
1%
0$
1A
0;
00
1C
#2125000
1!
17
18
10
#2140000
1$
1;
00
#2150000
0!
07
08
10
1D
0E
0C
0-
#2160000
1&
0%
0$
1F
0A
0;
00
1H
#2175000
1!
17
18
10
#2180000
1$
1;
00
#2200000
1%
0!
0$
1A
07
0;
08
10
0D
1I
1E
1C
0J
0H
1-
0.
#2220000
1$
1;
00
#2225000
1!
17
18
10
#2240000
1(
0'
0&
0%
0$
1:
0L
0F
0A
0;
00
0<
0C
#2250000
0!
07
08
10
0?
0I
1@
1J
1,
1.
#2260000
1$
1;
00
1<
#2275000
1!
17
18
10
#2280000
1%
0$
1A
0;
00
1C
0<
#2300000
0!
1$
07
1;
08
10
1<
1D
0E
0C
0-
#2320000
1&
0%
0$
1F
0A
0;
00
1H
0<
#2325000
1!
17
18
10
#2340000
1$
1;
00
1<
#2350000
0!
07
08
10
1?
0D
1I
0@
0<
1E
0J
0H
0,
1-
0.
#2360000
1%
0$
1A
0;
00
1C
#2375000
1!
17
18
10
#2380000
1$
1;
00
#2400000
1'
0&
0%
0!
0$
1L
0F
0A
07
0;
08
10
0C
0?
1D
0I
1@
0E
1J
1,
0-
1.
#2420000
1$
1;
00
1<
#2425000
1!
17
18
10
#2440000
1%
0$
1A
0;
00
0<
#2450000
0!
07
08
10
0D
1E
1C
1-
#2460000
1$
1;
00
1<
#2475000
1!
17
18
10
#2480000
1&
0%
0$
1F
0A
0;
00
1H
0C
0<
#2500000
0!
1$
07
1;
08
10
1<
1I
0J
0H
0.
#2520000
1%
0$
1A
0;
00
1C
0<
#2525000
1!
17
18
10
#2540000
1$
1;
00
1<
#2550000
0!
07
08
10
1?
1D
0I
0@
0<
0E
0C
1J
1H
0,
0-
1.
#2560000
1+
0*
0)
0(
0'
0&
0%
0$
1K
0G
0B
0:
0L
0F
0A
0;
00
0M
0H
1C
1<
#2575000
1!
17
18
10
#2580000
1$
1;
00
#2600000
1%
0!
0$
1A
07
0;
08
10
0N
1O
1/
#2620000
1$
1;
00
#2625000
1!
17
18
10
#2640000
1&
0%
0$
1F
0A
0;
00
1H
#2650000
0!
07
08
10
1I
0J
0.
#2660000
1$
1;
00
#2675000
1!
17
18
10
#2680000
1%
0$
1A
0;
00
#2700000
0!
1$
07
1;
08
10
#2720000
1'
0&
0%
0$
1L
0F
0A
0;
00
1M
#2725000
1!
17
18
10
#2740000
1$
1;
00
#2750000
0!
07
08
10
1N
0O
0M
0/
#2760000
1%
0$
1A
0;
00
#2775000
1!
17
18
10
#2780000
1$
1;
00
#2800000
1&
0%
0!
0$
1F
0A
07
0;
08
10
0N
1O
1M
1/
#2820000
1$
1;
00
#2825000
1!
17
18
10
#2840000
1%
0$
1A
0;
00
#2850000
0!
07
08
10
1N
0O
0M
0/
#2860000
1$
1;
00
#2875000
1!
17
18
10
#2880000
1(
0'
0&
0%
0$
1:
0L
0F
0A
0;
00
0<
#2900000
0!
1$
07
1;
08
10
0?
0N
1@
1<
1O
1,
1/
#2920000
1%
0$
1A
0;
00
0<
#2925000
1!
17
18
10
#2940000
1$
1;
00
1<
#2950000
0!
07
08
10
1?
0@
0<
0,
#2960000
1&
0%
0$
1F
0A
0;
00
#2975000
1!
17
18
10
#2980000
1$
1;
00
#3000000
1%
0!
0$
1A
07
0;
08
10
0?
1@
1,
#3020000
1$
1;
00
1<
#3025000
1!
17
18
10
#3040000
1'
0&
0%
0$
1L
0F
0A
0;
00
1M
0<
#3050000
0!
07
08
10
1N
0O
0M
0/
#3060000
1$
1;
00
1<
#3075000
1!
17
18
10
#3080000
1%
0$
1A
0;
00
0<
#3100000
0!
1$
07
1;
08
10
1<
0N
1O
1M
1/
#3120000
1&
0%
0$
1F
0A
0;
00
0<
#3125000
1!
17
18
10
#3140000
1$
1;
00
1<
#3150000
0!
07
08
10
1?
1N
0@
0<
0O
0M
0,
0/
#3160000
1%
0$
1A
0;
00
#3175000
1!
17
18
10
#3180000
1$
1;
00
#3200000
1)
0(
0'
0&
0%
0!
0$
1B
0:
0L
0F
0A
07
0;
08
10
0C
1<
0?
0N
1@
0<
1O
1,
1/
#3220000
1$
1;
00
1<
#3225000
1!
17
18
10
#3240000
1%
0$
1A
0;
00
0<
#3250000
0!
07
08
10
0D
1E
1C
1-
#3260000
1$
1;
00
1<
#3275000
1!
17
18
10
#3280000
1&
0%
0$
1F
0A
0;
00
0C
0<
#3300000
0!
1$
07
1;
08
10
1<
#3320000
1%
0$
1A
0;
00
1C
0<
#3325000
1!
17
18
10
#3340000
1$
1;
00
1<
#3350000
0!
07
08
10
1?
1D
0@
0E
0C
0,
0-
#3360000
1'
0&
0%
0$
1L
0F
0A
0;
00
1M
#3375000
1!
17
18
10
#3380000
1$
1;
00
#3400000
1%
0!
0$
1A
07
0;
08
10
0D
1N
1E
1C
0O
0M
1-
0/
#3420000
1$
1;
00
#3425000
1!
17
18
10
#3440000
1&
0%
0$
1F
0A
0;
00
0C
#3450000
0!
07
08
10
0N
1O
1M
1/
#3460000
1$
1;
00
#3475000
1!
17
18
10
#3480000
1%
0$
1A
0;
00
1C
#3500000
0!
1$
07
1;
08
10
1D
1N
0E
0C
0O
0M
0-
0/
#3520000
1(
0'
0&
0%
0$
1:
0L
0F
0A
0;
00
0<
#3525000
1!
17
18
10
#3540000
1$
1;
00
#3550000
0!
07
08
10
0?
0D
0N
1@
1<
1E
1O
1,
1-
1/
#3560000
1%
0$
1A
0;
00
1C
0<
#3575000
1!
17
18
10
#3580000
1$
1;
00
1<
#3600000
1&
0%
0!
0$
1F
0A
07
0;
08
10
0C
0<
1?
1D
0@
0E
0,
0-
#3620000
1$
1;
00
#3625000
1!
17
18
10
#3640000
1%
0$
1A
0;
00
#3650000
0!
07
08
10
0?
0D
1@
1E
1C
1,
1-
#3660000
1$
1;
00
1<
#3675000
1!
17
18
10
#3680000
1'
0&
0%
0$
1L
0F
0A
0;
00
1M
0C
0<
#3700000
0!
1$
07
1;
08
10
1<
1N
0O
0M
0/
#3720000
1%
0$
1A
0;
00
1C
0<
#3725000
1!
17
18
10
#3740000
1$
1;
00
1<
#3750000
0!
07
08
10
1?
1D
0N
0@
0<
0E
0C
1O
1M
0,
0-
1/
#3760000
1&
0%
0$
1F
0A
0;
00
#3775000
1!
17
18
10
#3780000
1$
1;
00
#3800000
1%
0!
0$
1A
07
0;
08
10
0?
0D
1N
1@
1E
1C
0O
0M
1,
1-
0/
#3820000
1$
1;
00
1<
#3825000
1!
17
18
10
#3840000
1*
0)
0(
0'
0&
0%
0$
1G
0B
0:
0L
0F
0A
0;
00
0H
0C
0<
#3850000
0!
07
08
10
0I
0N
1J
1O
1.
1/
#3860000
1$
1;
00
1<
#3875000
1!
17
18
10
#3880000
1%
0$
1A
0;
00
1C
0<
#3900000
0!
1$
07
1;
08
10
1<
1D
0E
0-
#3920000
1&
0%
0$
1F
0A
0;
00
1H
0<
#3925000
1!
17
18
10
#3940000
1$
1;
00
1<
#3950000
0!
07
08
10
1?
1I
0@
0J
0H
0,
0.
#3960000
1%
0$
1A
0;
00
#3975000
1!
17
18
10
#3980000
1$
1;
00
#4000000
1'
0&
0%
0!
0$
1L
0F
0A
07
0;
08
10
1M
0I
1J
1.
#4020000
1$
1;
00
#4025000
1!
17
18
10
#4040000
1%
0$
1A
0;
00
#4050000
0!
07
08
10
1N
0O
0M
0/
#4060000
1$
1;
00
#4075000
1!
17
18
10
#4080000
1&
0%
0$
1F
0A
0;
00
1H
#4100000
0!
1$
07
1;
08
10
1I
0N
0J
0H
1O
1M
0.
1/
#4120000
1%
0$
1A
0;
00
#4125000
1!
17
18
10
#4140000
1$
1;
00
#4150000
0!
07
08
10
0I
1N
1J
1H
0O
0M
1.
0/
#4160000
1(
0'
0&
0%
0$
1:
0L
0F
0A
0;
00
0<
0H
#4175000
1!
17
18
10
#4180000
1$
1;
00
#4200000
1%
0!
0$
1A
07
0;
08
10
0?
0N
1@
1O
1,
1/
#4220000
1$
1;
00
1<
#4225000
1!
17
18
10
#4240000
1&
0%
0$
1F
0A
0;
00
1H
0<
#4250000
0!
07
08
10
1I
0J
0H
0.
#4260000
1$
1;
00
1<
#4275000
1!
17
18
10
#4280000
1%
0$
1A
0;
00
0<
#4300000
0!
1$
07
1;
08
10
1<
0I
1J
1H
1.
#4320000
1'
0&
0%
0$
1L
0F
0A
0;
00
1M
0H
0<
#4325000
1!
17
18
10
#4340000
1$
1;
00
1<
#4350000
0!
07
08
10
1?
1N
0@
0<
0O
0M
0,
0/
#4360000
1%
0$
1A
0;
00
#4375000
1!
17
18
10
#4380000
1$
1;
00
#4400000
1&
0%
0!
0$
1F
0A
07
0;
08
10
1H
0?
0N
1@
1O
1M
1,
1/
#4420000
1$
1;
00
1<
#4425000
1!
17
18
10
#4440000
1%
0$
1A
0;
00
0<
#4450000
0!
07
08
10
1I
1N
0J
0H
0O
0M
0.
0/
#4460000
1$
1;
00
1<
#4475000
1!
17
18
10
#4480000
1)
0(
0'
0&
0%
0$
1B
0:
0L
0F
0A
0;
00
0C
0<
#4500000
0!
1$
07
1;
08
10
1<
0D
0I
0N
1E
1J
1O
1-
1.
1/
#4520000
1%
0$
1A
0;
00
1C
0<
#4525000
1!
17
18
10
#4540000
1$
1;
00
1<
#4550000
0!
07
08
10
1?
1D
0@
0E
0C
0,
0-
#4560000
1&
0%
0$
1F
0A
0;
00
1H
#4575000
1!
17
18
10
#4580000
1$
1;
00
#4600000
1%
0!
0$
1A
07
0;
08
10
0D
1I
1E
1C
0J
0H
1-
0.
#4620000
1$
1;
00
#4625000
1!
17
18
10
#4640000
1'
0&
0%
0$
1L
0F
0A
0;
00
1M
0C
#4650000
0!
07
08
10
0I
1N
1J
0O
0M
1.
0/
#4660000
1$
1;
00
#4675000
1!
17
18
10
#4680000
1%
0$
1A
0;
00
1C
#4700000
0!
1$
07
1;
08
10
1D
0N
0E
0C
1O
1M
0-
1/
#4720000
1&
0%
0$
1F
0A
0;
00
1H
#4725000
1!
17
18
10
#4740000
1$
1;
00
#4750000
0!
07
08
10
0D
1I
1N
1E
0J
0H
0O
0M
1-
0.
0/
#4760000
1%
0$
1A
0;
00
1C
#4775000
1!
17
18
10
#4780000
1$
1;
00
#4800000
1(
0'
0&
0%
0!
0$
1:
0L
0F
0A
07
0;
08
10
0<
0C
1D
0I
0N
0E
1J
1O
0-
1.
1/
#4820000
1$
1;
00
#4825000
1!
17
18
10
#4840000
1%
0$
1A
0;
00
#4850000
0!
07
08
10
0?
0D
1@
1E
1C
1,
1-
#4860000
1$
1;
00
1<
#4875000
1!
17
18
10
#4880000
1&
0%
0$
1F
0A
0;
00
1H
0C
0<
#4900000
0!
1$
07
1;
08
10
1<
1I
0J
0H
0.
#4920000
1%
0$
1A
0;
00
1C
0<
#4925000
1!
17
18
10
#4940000
1$
1;
00
1<
#4950000
0!
07
08
10
1?
1D
0I
0@
0<
0E
0C
1J
1H
0,
0-
1.
#4960000
1'
0&
0%
0$
1L
0F
0A
0;
00
1M
0H
#4975000
1!
17
18
10
#4980000
1$
1;
00
#5000000
1%
0!
0$
1A
07
0;
08
10
0?
0D
1N
1@
1E
1C
0O
0M
1,
1-
0/
#5020000
1$
1;
00
1<
#5025000
1!
17
18
10
#5040000
1&
0%
0$
1F
0A
0;
00
1H
0C
0<
#5050000
0!
07
08
10
1I
0N
0J
0H
1O
1M
0.
1/
#5060000
1$
1;
00
1<
#5075000
1!
17
18
10
#5080000
1%
0$
1A
0;
00
1C
0<
#5100000
0!
1$
07
1;
08
10
1<
1D
0I
1N
0E
0C
1J
1H
0O
0M
0-
1.
0/
#5120000
0+
0*
0)
0(
0'
0&
0%
0$
0K
0G
0B
0:
0L
0F
0A
0;
00
1M
0H
1C
0<
#5125000
1!
17
18
10
#5140000
1$
1;
00
1<
#5150000
0!
07
08
10
1?
0@
0,
#5160000
1%
0$
1A
0;
00
#5175000
1!
17
18
10
#5180000
1$
1;
00
#5200000
1&
0%
0!
0$
1F
0A
07
0;
08
10
1H
#5220000
1$
1;
00
#5225000
1!
17
18
10
#5240000
1%
0$
1A
0;
00
#5250000
0!
07
08
10
1I
0J
0.
#5260000
1$
1;
00
#5275000
1!
17
18
10
#5280000
1'
0&
0%
0$
1L
0F
0A
0;
00
#5300000
0!
1$
07
1;
08
10
#5320000
1%
0$
1A
0;
00
#5325000
1!
17
18
10
#5340000
1$
1;
00
#5350000
0!
07
08
10
#5360000
1&
0%
0$
1F
0A
0;
00
#5375000
1!
17
18
10
#5380000
1$
1;
00
#5400000
1%
0!
0$
1A
07
0;
08
10
#5420000
1$
1;
00
#5425000
1!
17
18
10
#5440000
1(
0'
0&
0%
0$
1:
0L
0F
0A
0;
00
0<
#5450000
0!
07
08
10
0?
1@
1,
#5460000
1$
1;
00
1<
#5475000
1!
17
18
10
#5480000
1%
0$
1A
0;
00
0<
#5500000
0!
1$
07
1;
08
10
1<
#5520000
1&
0%
0$
1F
0A
0;
00
0<
#5525000
1!
17
18
10
#5540000
1$
1;
00
1<
#5550000
0!
07
08
10
1?
0@
0<
0,
#5560000
1%
0$
1A
0;
00
#5575000
1!
17
18
10
#5580000
1$
1;
00
#5600000
1'
0&
0%
0!
0$
1L
0F
0A
07
0;
08
10
0?
1@
1,
#5620000
1$
1;
00
1<
#5625000
1!
17
18
10
#5640000
1%
0$
1A
0;
00
0<
#5650000
0!
07
08
10
#5660000
1$
1;
00
1<
#5675000
1!
17
18
10
#5680000
1&
0%
0$
1F
0A
0;
00
0<
#5700000
0!
1$
07
1;
08
10
1<
#5720000
1%
0$
1A
0;
00
0<
#5725000
1!
17
18
10
#5740000
1$
1;
00
1<
#5750000
0!
07
08
10
1?
0@
0<
0,
#5760000
1)
0(
0'
0&
0%
0$
1B
0:
0L
0F
0A
0;
00
0C
1<
#5775000
1!
17
18
10
#5780000
1$
1;
00
#5800000
1%
0!
0$
1A
07
0;
08
10
0D
1E
1C
1-
#5820000
1$
1;
00
#5825000
1!
17
18
10
#5840000
1&
0%
0$
1F
0A
0;
00
0C
#5850000
0!
07
08
10
#5860000
1$
1;
00
#5875000
1!
17
18
10
#5880000
1%
0$
1A
0;
00
1C
#5900000
0!
1$
07
1;
08
10
1D
0E
0C
0-
#5920000
1'
0&
0%
0$
1L
0F
0A
0;
00
#5925000
1!
17
18
10
#5940000
1$
1;
00
#5950000
0!
07
08
10
0D
1E
1-
#5960000
1%
0$
1A
0;
00
1C
#5975000
1!
17
18
10
#5980000
1$
1;
00
#6000000
1&
0%
0!
0$
1F
0A
07
0;
08
10
0C
1D
0E
0-
#6020000
1$
1;
00
#6025000
1!
17
18
10
#6040000
1%
0$
1A
0;
00
#6050000
0!
07
08
10
0D
1E
1C
1-
#6060000
1$
1;
00
#6075000
1!
17
18
10
#6080000
1(
0'
0&
0%
0$
1:
0L
0F
0A
0;
00
0<
0C
#6100000
0!
1$
07
1;
08
10
0?
1@
1<
1,
#6120000
1%
0$
1A
0;
00
1C
0<
#6125000
1!
17
18
10
#6140000
1$
1;
00
1<
#6150000
0!
07
08
10
1?
1D
0@
0<
0E
0C
0,
0-
#6160000
1&
0%
0$
1F
0A
0;
00
#6175000
1!
17
18
10
#6180000
1$
1;
00
#6200000
1%
0!
0$
1A
07
0;
08
10
0?
0D
1@
1E
1C
1,
1-
#6220000
1$
1;
00
1<
#6225000
1!
17
18
10
#6240000
1'
0&
0%
0$
1L
0F
0A
0;
00
0C
0<
#6250000
0!
07
08
10
#6260000
1$
1;
00
1<
#6275000
1!
17
18
10
#6280000
1%
0$
1A
0;
00
1C
0<
#6300000
0!
1$
07
1;
08
10
1<
1D
0E
0C
0-
#6320000
1&
0%
0$
1F
0A
0;
00
0<
#6325000
1!
17
18
10
#6340000
1$
1;
00
1<
#6350000
0!
07
08
10
1?
0D
0@
0<
1E
0,
1-
#6360000
1%
0$
1A
0;
00
1C
#6375000
1!
17
18
10
#6380000
1$
1;
00
#6400000
1*
0)
0(
0'
0&
0%
0!
0$
1G
0B
0:
0L
0F
0A
07
0;
08
10
0H
0C
1<
0?
1D
1@
0<
0E
1C
1,
0-
#6420000
1$
1;
00
1<
#6425000
1!
17
18
10
#6440000
1%
0$
1A
0;
00
0<
#6450000
0!
07
08
10
0I
1J
1.
#6460000
1$
1;
00
1<
#6475000
1!
17
18
10
#6480000
1&
0%
0$
1F
0A
0;
00
1H
0<
#6500000
0!
1$
07
1;
08
10
1<
1I
0J
0H
0.
#6520000
1%
0$
1A
0;
00
0<
#6525000
1!
17
18
10
#6540000
1$
1;
00
1<
#6550000
0!
07
08
10
1?
0I
0@
1J
1H
0,
1.
#6560000
1'
0&
0%
0$
1L
0F
0A
0;
00
0H
#6575000
1!
17
18
10
#6580000
1$
1;
00
#6600000
1%
0!
0$
1A
07
0;
08
10
#6620000
1$
1;
00
#6625000
1!
17
18
10
#6640000
1&
0%
0$
1F
0A
0;
00
1H
#6650000
0!
07
08
10
1I
0J
0H
0.
#6660000
1$
1;
00
#6675000
1!
17
18
10
#6680000
1%
0$
1A
0;
00
#6700000
0!
1$
07
1;
08
10
0I
1J
1H
1.
#6720000
1(
0'
0&
0%
0$
1:
0L
0F
0A
0;
00
0<
0H
#6725000
1!
17
18
10
#6740000
1$
1;
00
#6750000
0!
07
08
10
0?
1@
1<
1,
#6760000
1%
0$
1A
0;
00
0<
#6775000
1!
17
18
10
#6780000
1$
1;
00
1<
#6800000
1&
0%
0!
0$
1F
0A
07
0;
08
10
1H
0<
1?
0@
0,
#6820000
1$
1;
00
#6825000
1!
17
18
10
#6840000
1%
0$
1A
0;
00
#6850000
0!
07
08
10
0?
1I
1@
0J
0H
1,
0.
#6860000
1$
1;
00
1<
#6875000
1!
17
18
10
#6880000
1'
0&
0%
0$
1L
0F
0A
0;
00
0<
#6900000
0!
1$
07
1;
08
10
1<
0I
1J
1.
#6920000
1%
0$
1A
0;
00
0<
#6925000
1!
17
18
10
#6940000
1$
1;
00
1<
#6950000
0!
07
08
10
1?
0@
0<
0,
#6960000
1&
0%
0$
1F
0A
0;
00
1H
#6975000
1!
17
18
10
#6980000
1$
1;
00
#7000000
1%
0!
0$
1A
07
0;
08
10
0?
1I
1@
0J
0H
1,
0.
#7020000
1$
1;
00
1<
#7025000
1!
17
18
10
#7040000
1)
0(
0'
0&
0%
0$
1B
0:
0L
0F
0A
0;
00
0C
0<
#7050000
0!
07
08
10
0D
0I
1E
1J
1-
1.
#7060000
1$
1;
00
1<
#7075000
1!
17
18
10
#7080000
1%
0$
1A
0;
00
1C
0<
#7100000
0!
1$
07
1;
08
10
1<
1D
0E
0C
0-
#7120000
1&
0%
0$
1F
0A
0;
00
1H
0<
#7125000
1!
17
18
10
#7140000
1$
1;
00
1<
#7150000
0!
07
08
10
1?
0D
1I
0@
1E
0J
0H
0,
1-
0.
#7160000
1%
0$
1A
0;
00
1C
#7175000
1!
17
18
10
#7180000
1$
1;
00
#7200000
1'
0&
0%
0!
0$
1L
0F
0A
07
0;
08
10
0C
1D
0I
0E
1J
0-
1.
#7220000
1$
1;
00
#7225000
1!
17
18
10
#7240000
1%
0$
1A
0;
00
#7250000
0!
07
08
10
0D
1E
1C
1-
#7260000
1$
1;
00
#7275000
1!
17
18
10
#7280000
1&
0%
0$
1F
0A
0;
00
1H
0C
#7300000
0!
1$
07
1;
08
10
1I
0J
0H
0.
#7320000
1%
0$
1A
0;
00
1C
#7325000
1!
17
18
10
#7340000
1$
1;
00
#7350000
0!
07
08
10
1D
0I
0E
0C
1J
1H
0-
1.
#7360000
1(
0'
0&
0%
0$
1:
0L
0F
0A
0;
00
0<
0H
#7375000
1!
17
18
10
#7380000
1$
1;
00
#7400000
1%
0!
0$
1A
07
0;
08
10
0?
0D
1@
1E
1C
1,
1-
#7420000
1$
1;
00
1<
#7425000
1!
17
18
10
#7440000
1&
0%
0$
1F
0A
0;
00
1H
0C
0<
#7450000
0!
07
08
10
1I
0J
0H
0.
#7460000
1$
1;
00
1<
#7475000
1!
17
18
10
#7480000
1%
0$
1A
0;
00
1C
0<
#7500000
0!
1$
07
1;
08
10
1<
1D
0I
0E
0C
1J
1H
0-
1.
#7520000
1'
0&
0%
0$
1L
0F
0A
0;
00
0H
0<
#7525000
1!
17
18
10
#7540000
1$
1;
00
1<
#7550000
0!
07
08
10
1?
0D
0@
0<
1E
0,
1-
#7560000
1%
0$
1A
0;
00
1C
