Lab4/JK_trigger/simulation/qsim/JK_trigger.msim.vcd
$comment
	File created using the following command:
		vcd file JK_trigger.msim.vcd -direction
$end
$date
	Mon Feb 26 18:48:31 2024
$end
$version
	ModelSim Version 10.1d
$end
$timescale
	1ps
$end
$scope module JK_trigger_vlg_vec_tst $end
$var reg 1 ! Clk $end
$var reg 1 " PRM $end
$var wire 1 # C $end
$var wire 1 $ J $end
$var wire 1 % JK $end
$var wire 1 & K $end
$var wire 1 ' x [3] $end
$var wire 1 ( x [2] $end
$var wire 1 ) x [1] $end
$var wire 1 * x [0] $end
$var wire 1 + sampler $end
$scope module i1 $end
$var wire 1 , gnd $end
$var wire 1 - vcc $end
$var wire 1 . unknown $end
$var tri1 1 / devclrn $end
$var tri1 1 0 devpor $end
$var tri1 1 1 devoe $end
$var wire 1 2 Clk~combout $end
$var wire 1 3 Clk~clkctrl_outclk $end
$var wire 1 4 inst|LPM_COUNTER_component|auto_generated|counter_comb_bita0~combout $end
$var wire 1 5 inst|LPM_COUNTER_component|auto_generated|counter_comb_bita0~COUT $end
$var wire 1 6 inst|LPM_COUNTER_component|auto_generated|counter_comb_bita1~combout $end
$var wire 1 7 inst|LPM_COUNTER_component|auto_generated|counter_comb_bita1~COUT $end
$var wire 1 8 inst|LPM_COUNTER_component|auto_generated|counter_comb_bita2~combout $end
$var wire 1 9 inst|LPM_COUNTER_component|auto_generated|counter_comb_bita2~COUT $end
$var wire 1 : inst|LPM_COUNTER_component|auto_generated|counter_comb_bita3~combout $end
$var wire 1 ; inst7|LPM_MUX_component|auto_generated|result_node[0]~0_combout $end
$var wire 1 < inst6|LPM_MUX_component|auto_generated|result_node[0]~0_combout $end
$var wire 1 = inst3~0_combout $end
$var wire 1 > PRM~combout $end
$var wire 1 ? inst3~regout $end
$var wire 1 @ inst|LPM_COUNTER_component|auto_generated|safe_q [3] $end
$var wire 1 A inst|LPM_COUNTER_component|auto_generated|safe_q [2] $end
$var wire 1 B inst|LPM_COUNTER_component|auto_generated|safe_q [1] $end
$var wire 1 C inst|LPM_COUNTER_component|auto_generated|safe_q [0] $end
$upscope $end
$upscope $end
$enddefinitions $end
#0
$dumpvars
0!
1"
x#
x$
x%
x&
x*
x)
x(
x'
x+
0,
1-
x.
1/
10
11
02
x3
x4
x5
x6
x7
x8
x9
x:
x;
x<
x=
1>
x?
0C
0B
0A
0@
$end
#143
03
#267
0?
#957
0;
#1049
05
#1077
14
#1091
0<
#1104
09
#1348
17
#1555
06
#1610
0:
#1675
0=
#1854
08
#3831
0*
#4005
0'
#4214
0(
#4220
0)
#4250
0#
#4251
1%
#4852
0&
#5113
0$
#10000
1!
0+
#11140
12
#11283
13
#13086
1C
#14135
15
#14158
1<
#14163
04
#14169
1;
#14641
16
#14742
1=
#16917
1*
#17919
1&
#18325
1$
#20000
0!
1+
#21140
02
#21283
03
#30000
1!
0+
#31140
12
#31283
13
#33086
0C
1B
#34135
05
#34163
14
#34472
1?
#34865
0=
#36917
0*
#37306
1)
#37336
1#
#38456
0%
#40000
0!
1+
#41140
02
#41283
03
#50000
1!
0+
#51140
12
#51283
13
#53086
1C
#54135
15
#54158
0<
#54163
04
#54169
0;
#54221
07
#54641
06
#54727
18
#55112
1=
#56917
1*
#57919
0&
#58325
0$
#60000
0!
1+
#61140
02
#61283
03
#70000
1!
0+
#71140
12
#71283
13
#73086
0C
0B
1A
#74135
05
#74163
14
#74190
19
#74216
08
#74434
17
#74520
09
#74940
18
#76917
0*
#77300
1(
#77306
0)
#77336
0#
#80000
0!
1+
#81140
02
#81283
03
#90000
1!
0+
#91140
12
#91283
13
#93086
1C
#94135
15
#94163
04
#94169
1;
#94641
16
#95112
0=
#96917
1*
#98325
1$
#100000
0!
1+
#101140
02
#101283
03
#110000
1!
0+
#111140
12
#111283
13
#113086
0C
1B
#114135
05
#114163
14
#114472
0?
#116917
0*
#117306
1)
#117336
1#
#118456
1%
#120000
0!
1+
#121140
02
#121283
03
#130000
1!
0+
#131140
12
#131283
13
#133086
1C
#134135
15
#134163
04
#134221
07
#134307
19
#134641
06
#134727
08
#134813
1:
#136917
1*
#140000
0!
1+
#141140
02
#141283
03
#150000
1!
0+
#151140
12
#151283
13
#153086
0C
0B
0A
1@
#154042
0:
#154135
05
#154163
14
#154190
09
#154216
18
#154434
17
#154696
1:
#154940
08
#156917
0*
#157091
1'
#157300
0(
#157306
0)
#157336
0#
#160000
0!
1+
#161140
02
#161283
03
#170000
1!
0+
#171140
12
#171283
13
#173086
1C
#174135
15
#174158
1<
#174163
04
#174641
16
#174742
1=
#176917
1*
#177919
1&
#180000
0!
1+
#181140
02
#181283
03
#190000
1!
0+
#191140
12
#191283
13
#193086
0C
1B
#194135
05
#194163
14
#194472
1?
#194865
0=
#196917
0*
#197306
1)
#197336
1#
#198456
0%
#200000
0!
1+
#201140
02
#201283
03
#210000
1!
0+
#211140
12
#211283
13
#213086
1C
#214135
15
#214163
04
#214169
0;
#214221
07
#214641
06
#214727
18
#215112
1=
#216917
1*
#218325
0$
#220000
0!
1+
#221140
02
#221283
03
#230000
1!
0+
#231140
12
#231283
13
#233086
0C
0B
1A
#234135
05
#234163
14
#234190
19
#234216
08
#234434
17
#234520
09
#234940
18
#236917
0*
#237300
1(
#237306
0)
#237336
0#
#240000
0!
1+
#241140
02
#241283
03
#250000
1!
0+
#251140
12
#251283
13
#253086
1C
#254135
15
#254158
0<
#254163
04
#254169
1;
#254641
16
#255112
0=
#256917
1*
#257919
0&
#258325
1$
#260000
0!
1+
#261140
02
#261283
03
#270000
1!
0+
#271140
12
#271283
13
#273086
0C
1B
#274135
05
#274163
14
#274472
0?
#276917
0*
#277306
1)
#277336
1#
#278456
1%
#280000
0!
1+
#281140
02
#281283
03
#290000
1!
0+
#291140
12
#291283
13
#293086
1C
#294135
15
#294163
04
#294221
07
#294307
19
#294641
06
#294727
08
#294813
0:
#296917
1*
#300000
0!
1+
#301140
02
#301283
03
#310000
1!
0+
#311140
12
#311283
13
#313086
0C
0B
0A
0@
#314042
1:
#314043
0;
#314135
05
#314163
14
#314190
09
#314216
18
#314434
17
#314696
0:
#314940
08
#316917
0*
#317091
0'
#317300
0(
#317306
0)
#317336
0#
#318199
0$
#320000
0!
1+
#321140
02
#321283
03
#330000
1!
0+
#331140
12
#331283
13
#333086
1C
#334135
15
#334158
1<
#334163
04
#334169
1;
#334641
16
#334742
1=
#336917
1*
#337919
1&
#338325
1$
#340000
0!
1+
#341140
02
#341283
03
#350000
1!
0+
#351140
12
#351283
13
#353086
0C
1B
#354135
05
#354163
14
#354472
1?
#354865
0=
#356917
0*
#357306
1)
#357336
1#
#358456
0%
#360000
0!
1+
#361140
02
#361283
03
#370000
1!
0+
#371140
12
#371283
13
#373086
1C
#374135
15
#374158
0<
#374163
04
#374169
0;
#374221
07
#374641
06
#374727
18
#375112
1=
#376917
1*
#377919
0&
#378325
0$
#380000
0!
1+
#381140
02
#381283
03
#390000
1!
0+
#391140
12
#391283
13
#393086
0C
0B
1A
#394135
05
#394163
14
#394190
19
#394216
08
#394434
17
#394520
09
#394940
18
#396917
0*
#397300
1(
#397306
0)
#397336
0#
#400000
0!
1+
#401140
02
#401283
03
#410000
1!
0+
#411140
12
#411283
13
#413086
1C
#414135
15
#414163
04
#414169
1;
#414641
16
#415112
0=
#416917
1*
#418325
1$
#420000
0!
1+
#421140
02
#421283
03
#430000
1!
0+
#431140
12
#431283
13
#433086
0C
1B
#434135
05
#434163
14
#434472
0?
#436917
0*
#437306
1)
#437336
1#
#438456
1%
#440000
0!
1+
#441140
02
#441283
03
#450000
1!
0+
#451140
12
#451283
13
#453086
1C
#454135
15
#454163
04
#454221
07
#454307
19
#454641
06
#454727
08
#454813
1:
#456917
1*
#460000
0!
1+
#461140
02
#461283
03
#470000
1!
0+
#471140
12
#471283
13
#473086
0C
0B
0A
1@
#474042
0:
#474135
05
#474163
14
#474190
09
#474216
18
#474434
17
#474696
1:
#474940
08
#476917
0*
#477091
1'
#477300
0(
#477306
0)
#477336
0#
#480000
0!
1+
#481140
02
#481283
03
#490000
1!
0+
#491140
12
#491283
13
#493086
1C
#494135
15
#494158
1<
#494163
04
#494641
16
#494742
1=
#496917
1*
#497919
1&
#500000
0!
1+
#501140
02
#501283
03
#510000
1!
0+
#511140
12
#511283
13
#513086
0C
1B
#514135
05
#514163
14
#514472
1?
#514865
0=
#516917
0*
#517306
1)
#517336
1#
#518456
0%
#520000
0!
1+
#521140
02
#521283
03
#530000
1!
0+
#531140
12
#531283
13
#533086
1C
#534135
15
#534163
04
#534169
0;
#534221
07
#534641
06
#534727
18
#535112
1=
#536917
1*
#538325
0$
#540000
0!
1+
#541140
02
#541283
03
#550000
1!
0+
#551140
12
#551283
13
#553086
0C
0B
1A
#554135
05
#554163
14
#554190
19
#554216
08
#554434
17
#554520
09
#554940
18
#556917
0*
#557300
1(
#557306
0)
#557336
0#
#560000
0!
1+
#561140
02
#561283
03
#570000
1!
0+
#571140
12
#571283
13
#573086
1C
#574135
15
#574158
0<
#574163
04
#574169
1;
#574641
16
#575112
0=
#576917
1*
#577919
0&
#578325
1$
#580000
0!
1+
#581140
02
#581283
03
#590000
1!
0+
#591140
12
#591283
13
#593086
0C
1B
#594135
05
#594163
14
#594472
0?
#596917
0*
#597306
1)
#597336
1#
#598456
1%
#600000
0!
1+
#601140
02
#601283
03
#610000
1!
0+
#611140
12
#611283
13
#613086
1C
#614135
15
#614163
04
#614221
07
#614307
19
#614641
06
#614727
08
#614813
0:
#616917
1*
#620000
0!
1+
#621140
02
#621283
03
#630000
1!
0+
#631140
12
#631283
13
#633086
0C
0B
0A
0@
#634042
1:
#634043
0;
#634135
05
#634163
14
#634190
09
#634216
18
#634434
17
#634696
0:
#634940
08
#636917
0*
#637091
0'
#637300
0(
#637306
0)
#637336
0#
#638199
0$
