Lab2/Lab2_2/simulation/qsim/lab2_2.msim.vcd
$comment
	File created using the following command:
		vcd file lab2_2.msim.vcd -direction
$end
$date
	Wed Feb 14 19:16:17 2024
$end
$version
	ModelSim Version 10.1d
$end
$timescale
	1ps
$end
$scope module lab2_2_vlg_vec_tst $end
$var reg 4 ! x [3:0] $end
$var wire 1 " a $end
$var wire 1 # b $end
$var wire 1 $ c $end
$var wire 1 % d $end
$var wire 1 & e $end
$var wire 1 ' f $end
$var wire 1 ( g $end
$var wire 1 ) h $end
$var wire 1 * sampler $end
$scope module i1 $end
$var wire 1 + gnd $end
$var wire 1 , vcc $end
$var wire 1 - unknown $end
$var tri1 1 . devclrn $end
$var tri1 1 / devpor $end
$var tri1 1 0 devoe $end
$var wire 1 1 inst~0_combout $end
$var wire 1 2 inst36~0_combout $end
$var wire 1 3 inst5~0_combout $end
$var wire 1 4 inst2~0_combout $end
$var wire 1 5 inst3~0_combout $end
$var wire 1 6 inst4~0_combout $end
$var wire 1 7 inst35~0_combout $end
$var wire 1 8 x~combout [3] $end
$var wire 1 9 x~combout [2] $end
$var wire 1 : x~combout [1] $end
$var wire 1 ; x~combout [0] $end
$upscope $end
$upscope $end
$enddefinitions $end
#0
$dumpvars
b0 !
x"
x#
x$
x%
x&
x'
x(
0)
x*
0+
1,
x-
1.
1/
10
x1
x2
x3
x4
x5
x6
x7
0;
0:
09
08
$end
#7102
11
#7103
05
#7107
03
#7108
04
#7153
07
#7158
02
#7757
16
#11325
1%
#11350
1&
#11607
1#
#11711
1"
#12008
0(
#12126
1'
#12633
1$
#20000
b1000 !
0*
#20984
18
#28741
06
#32992
1(
#40000
b1100 !
b100 !
1*
#40974
19
#40984
08
#47929
17
#47931
16
#47934
12
#48699
14
#48740
02
#48741
06
#48745
13
#48748
07
#48749
01
#52941
0&
#52963
0%
#53358
0"
#60000
b1100 !
0*
#60984
18
#68699
04
#68740
12
#68741
16
#68745
03
#68748
17
#68749
11
#72941
1&
#72963
1%
#72992
0(
#73189
0#
#73358
1"
#74228
0$
#80000
b1110 !
b1010 !
b10 !
1*
#80974
09
#80984
08
#80985
1:
#87929
07
#87931
06
#87934
02
#88705
15
#88748
17
#92182
1(
#92383
1#
#93728
0'
#100000
b1010 !
0*
#100984
18
#108705
05
#108745
13
#108748
07
#112963
0%
#113728
1'
#114228
1$
#120000
b1110 !
b110 !
1*
#120974
19
#120984
08
#127924
03
#127929
17
#127934
12
#128748
07
#132142
1%
#132383
0#
#140000
b1110 !
0*
#140984
18
#148748
17
#154228
0$
#160000
b1111 !
b1101 !
b1001 !
b1 !
1*
#160974
09
#160984
08
1;
#160985
0:
#167929
07
#167934
02
#168087
15
#168092
14
#168741
16
#168745
13
#168749
01
#172334
0&
#172383
1#
#172963
0%
#172992
0(
#173110
0'
#173358
0"
#173409
1$
#180000
b1001 !
0*
#180984
18
#188741
06
#188745
03
#188749
11
#192963
1%
#192992
1(
#193358
1"
#200000
b1101 !
b101 !
1*
#200974
19
#200984
08
#207924
04
#207928
01
#208699
14
#208705
05
#208740
12
#208749
11
#213189
0#
#213728
1'
#220000
b1101 !
0*
#220984
18
#228699
04
#228705
15
#228740
02
#228749
01
#232941
1&
#233189
1#
#233358
0"
#233728
0'
#240000
b1111 !
b1011 !
b11 !
1*
#240974
09
#240984
08
#240985
1:
#248699
14
#248749
11
#252941
0&
#253358
1"
#260000
b1011 !
0*
#260984
18
#268699
04
#268705
05
#268740
12
#268749
01
#272941
1&
#273189
0#
#273358
0"
#273728
1'
#280000
b1111 !
b111 !
1*
#280974
19
#280984
08
#287924
13
#287928
11
#287929
17
#288699
14
#288705
15
#288740
02
#288741
16
#288748
07
#292142
0%
#292537
1"
#292941
0&
#292992
0(
#293189
1#
#293728
0'
#300000
b1111 !
0*
#300984
18
#308699
04
#308705
05
#308740
12
#308741
06
#308748
17
#312941
1&
#312992
1(
#313189
0#
#313728
1'
#314228
0$
#320000
b1110 !
b1100 !
b1000 !
b0 !
1*
#320974
09
#320984
08
0;
#320985
0:
#327924
03
#327929
07
#328143
02
#328741
16
#332142
1%
#332592
1#
#332992
0(
#333409
1$
#340000
b1000 !
0*
#340984
18
#348741
06
#352992
1(
#360000
b1100 !
b100 !
1*
#360974
19
#360984
08
#367929
17
#367931
16
#367934
12
#368699
14
#368740
02
#368741
06
#368745
13
#368748
07
#368749
01
#372941
0&
#372963
0%
#373358
0"
#380000
b1100 !
0*
#380984
18
#388699
04
#388740
12
#388741
16
#388745
03
#388748
17
#388749
11
#392941
1&
#392963
1%
#392992
0(
#393189
0#
#393358
1"
#394228
0$
#400000
b1110 !
b1010 !
b10 !
1*
#400974
09
#400984
08
#400985
1:
#407929
07
#407931
06
#407934
02
#408705
15
#408748
17
#412182
1(
#412383
1#
#413728
0'
#420000
b1010 !
0*
#420984
18
#428705
05
#428745
13
#428748
07
#432963
0%
#433728
1'
#434228
1$
#440000
b1110 !
b110 !
1*
#440974
19
#440984
08
#447924
03
#447929
17
#447934
12
#448748
07
#452142
1%
#452383
0#
#460000
b1110 !
0*
#460984
18
#468748
17
#474228
0$
#480000
b1111 !
b1101 !
b1001 !
b1 !
1*
#480974
09
#480984
08
1;
#480985
0:
#487929
07
#487934
02
#488087
15
#488092
14
#488741
16
#488745
13
#488749
01
#492334
0&
#492383
1#
#492963
0%
#492992
0(
#493110
0'
#493358
0"
#493409
1$
#500000
b1001 !
0*
#500984
18
#508741
06
#508745
03
#508749
11
#512963
1%
#512992
1(
#513358
1"
#520000
b1101 !
b101 !
1*
#520974
19
#520984
08
#527924
04
#527928
01
#528699
14
#528705
05
#528740
12
#528749
11
#533189
0#
#533728
1'
#540000
b1101 !
0*
#540984
18
#548699
04
#548705
15
#548740
02
#548749
01
#552941
1&
#553189
1#
#553358
0"
#553728
0'
#560000
b1111 !
b1011 !
b11 !
1*
#560974
09
#560984
08
#560985
1:
#568699
14
#568749
11
#572941
0&
#573358
1"
#580000
b1011 !
0*
#580984
18
#588699
04
#588705
05
#588740
12
#588749
01
#592941
1&
#593189
0#
#593358
0"
#593728
1'
#600000
b1111 !
b111 !
1*
#600974
19
#600984
08
#607924
13
#607928
11
#607929
17
#608699
14
#608705
15
#608740
02
#608741
16
#608748
07
#612142
0%
#612537
1"
#612941
0&
#612992
0(
#613189
1#
#613728
0'
#620000
b1111 !
0*
#620984
18
#628699
04
#628705
05
#628740
12
#628741
06
#628748
17
#632941
1&
#632992
1(
#633189
0#
#633728
1'
#634228
0$
#640000
b1110 !
b1100 !
b1000 !
b0 !
1*
#640974
09
#640984
08
0;
#640985
0:
#647924
03
#647929
07
#648143
02
#648741
16
#652142
1%
#652592
1#
#652992
0(
#653409
1$
#660000
b1000 !
0*
#660984
18
#668741
06
#672992
1(
#680000
b1100 !
b100 !
1*
#680974
19
#680984
08
#687929
17
#687931
16
#687934
12
#688699
14
#688740
02
#688741
06
#688745
13
#688748
07
#688749
01
#692941
0&
#692963
0%
#693358
0"
#700000
b1100 !
0*
#700984
18
#708699
04
#708740
12
#708741
16
#708745
03
#708748
17
#708749
11
#712941
1&
#712963
1%
#712992
0(
#713189
0#
#713358
1"
#714228
0$
#720000
b1110 !
b1010 !
b10 !
1*
#720974
09
#720984
08
#720985
1:
#727929
07
#727931
06
#727934
02
#728705
15
#728748
17
#732182
1(
#732383
1#
#733728
0'
#740000
b1010 !
0*
#740984
18
#748705
05
#748745
13
#748748
07
#752963
0%
#753728
1'
#754228
1$
#760000
b1110 !
b110 !
1*
#760974
19
#760984
08
#767924
03
#767929
17
#767934
12
#768748
07
#772142
1%
#772383
0#
#780000
b1110 !
0*
#780984
18
#788748
17
#794228
0$
#800000
b1111 !
b1101 !
b1001 !
b1 !
1*
#800974
09
#800984
08
1;
#800985
0:
#807929
07
#807934
02
#808087
15
#808092
14
#808741
16
#808745
13
#808749
01
#812334
0&
#812383
1#
#812963
0%
#812992
0(
#813110
0'
#813358
0"
#813409
1$
#820000
b1001 !
0*
#820984
18
#828741
06
#828745
03
#828749
11
#832963
1%
#832992
1(
#833358
1"
#840000
b1101 !
b101 !
1*
#840974
19
#840984
08
#847924
04
#847928
01
#848699
14
#848705
05
#848740
12
#848749
11
#853189
0#
#853728
1'
#860000
b1101 !
0*
#860984
18
#868699
04
#868705
15
#868740
02
#868749
01
#872941
1&
#873189
1#
#873358
0"
#873728
0'
#880000
b1111 !
b1011 !
b11 !
1*
#880974
09
#880984
08
#880985
1:
#888699
14
#888749
11
#892941
0&
#893358
1"
#900000
b1011 !
0*
#900984
18
#908699
04
#908705
05
#908740
12
#908749
01
#912941
1&
#913189
0#
#913358
0"
#913728
1'
#920000
b1111 !
b111 !
1*
#920974
19
#920984
08
#927924
13
#927928
11
#927929
17
#928699
14
#928705
15
#928740
02
#928741
16
#928748
07
#932142
0%
#932537
1"
#932941
0&
#932992
0(
#933189
1#
#933728
0'
#940000
b1111 !
0*
#940984
18
#948699
04
#948705
05
#948740
12
#948741
06
#948748
17
#952941
1&
#952992
1(
#953189
0#
#953728
1'
#954228
0$
#960000
b1110 !
b1100 !
b1000 !
b0 !
1*
#960974
09
#960984
08
0;
#960985
0:
#967924
03
#967929
07
#968143
02
#968741
16
#972142
1%
#972592
1#
#972992
0(
#973409
1$
#980000
b1000 !
0*
#980984
18
#988741
06
#992992
1(
