Lab1/simulation/qsim/lab1.msim.vcd
$comment
	File created using the following command:
		vcd file lab1.msim.vcd -direction
$end
$date
	Tue Feb 13 18:00:18 2024
$end
$version
	ModelSim Version 10.1d
$end
$timescale
	1ps
$end
$scope module lab1_vlg_vec_tst $end
$var reg 1 ! x1 $end
$var reg 1 " x2 $end
$var reg 1 # x3 $end
$var reg 1 $ x4 $end
$var wire 1 % y_and $end
$var wire 1 & y_or $end
$var wire 1 ' sampler $end
$scope module i1 $end
$var wire 1 ( gnd $end
$var wire 1 ) vcc $end
$var wire 1 * unknown $end
$var tri1 1 + devclrn $end
$var tri1 1 , devpor $end
$var tri1 1 - devoe $end
$var wire 1 . x3~combout $end
$var wire 1 / x2~combout $end
$var wire 1 0 x4~combout $end
$var wire 1 1 x1~combout $end
$var wire 1 2 inst7~0_combout $end
$var wire 1 3 inst12~0_combout $end
$upscope $end
$upscope $end
$enddefinitions $end
#0
$dumpvars
0!
0"
0#
0$
0%
0&
x'
0(
1)
x*
1+
1,
1-
0.
0/
00
01
12
03
$end
#10000
1!
11
0'
13
02
1&
1%
#30000
0!
01
1'
03
12
0&
0%
#40000
1"
1/
0'
13
02
1&
1%
#60000
0"
0/
1'
03
12
0&
0%
#70000
1!
1"
11
1/
0'
13
02
1&
1%
#90000
0!
0"
01
0/
1'
03
12
0&
0%
#100000
1#
1.
0'
#120000
0#
0.
1'
#130000
1!
1#
11
1.
0'
#150000
0!
0#
01
0.
1'
#160000
1"
1#
1/
1.
0'
#180000
0"
0#
0/
0.
1'
#190000
1!
1"
1#
11
1/
1.
0'
#210000
0!
0"
0#
01
0/
0.
1'
#220000
1$
10
0'
#240000
0$
00
1'
#250000
1!
1$
11
10
0'
#270000
0!
0$
01
00
1'
#280000
1"
1$
1/
10
0'
#300000
0"
0$
0/
00
1'
#310000
1!
1"
1$
11
1/
10
0'
#330000
0!
0"
0$
01
0/
00
1'
#340000
1#
1$
1.
10
0'
13
02
1&
1%
#360000
0#
0$
0.
00
1'
03
12
0&
0%
#370000
1!
1#
1$
11
1.
10
0'
13
02
1&
1%
#390000
0!
0#
0$
01
0.
00
1'
03
12
0&
0%
#400000
1"
1#
1$
1/
1.
10
0'
#420000
0"
0#
0$
0/
0.
00
1'
#430000
1!
1"
1#
1$
11
1/
1.
10
0'
#450000
0!
0"
0#
0$
01
0/
0.
00
1'
