Lab7/Lab7_2/simulation/qsim/Lab7_2.msim.vcd
$comment
	File created using the following command:
		vcd file Lab7_2.msim.vcd -direction
$end
$date
	Thu Apr 11 14:11:13 2024
$end
$version
	ModelSim Version 10.1d
$end
$timescale
	1ps
$end
$scope module Lab7_2_vlg_vec_tst $end
$var reg 1 ! C $end
$var wire 1 " BEEP $end
$var wire 1 # D0 $end
$var wire 1 $ D00 $end
$var wire 1 % D1 $end
$var wire 1 & D01 $end
$var wire 1 ' D2 $end
$var wire 1 ( D02 $end
$var wire 1 ) D3 $end
$var wire 1 * D03 $end
$var wire 1 + D4 $end
$var wire 1 , D04 $end
$var wire 1 - D5 $end
$var wire 1 . D05 $end
$var wire 1 / D6 $end
$var wire 1 0 D06 $end
$var wire 1 1 DP $end
$var wire 1 2 q [3] $end
$var wire 1 3 q [2] $end
$var wire 1 4 q [1] $end
$var wire 1 5 q [0] $end
$var wire 1 6 sampler $end
$scope module i1 $end
$var wire 1 7 gnd $end
$var wire 1 8 vcc $end
$var wire 1 9 unknown $end
$var tri1 1 : devclrn $end
$var tri1 1 ; devpor $end
$var tri1 1 < devoe $end
$var wire 1 = inst7|LPM_COUNTER_component|auto_generated|counter_comb_bita0~combout $end
$var wire 1 > ~GND~combout $end
$var wire 1 ? inst7|LPM_COUNTER_component|auto_generated|counter_comb_bita0~COUT $end
$var wire 1 @ inst7|LPM_COUNTER_component|auto_generated|counter_comb_bita1~combout $end
$var wire 1 A inst7|LPM_COUNTER_component|auto_generated|counter_comb_bita1~COUT $end
$var wire 1 B inst7|LPM_COUNTER_component|auto_generated|counter_comb_bita2~combout $end
$var wire 1 C inst12~combout $end
$var wire 1 D C~combout $end
$var wire 1 E C~clkctrl_outclk $end
$var wire 1 F inst7|LPM_COUNTER_component|auto_generated|counter_comb_bita2~COUT $end
$var wire 1 G inst7|LPM_COUNTER_component|auto_generated|counter_comb_bita3~combout $end
$var wire 1 H inst5~0_combout $end
$var wire 1 I inst1|inst11~0_combout $end
$var wire 1 J inst1|inst18~0_combout $end
$var wire 1 K inst1|inst~0_combout $end
$var wire 1 L inst1|inst1~0_combout $end
$var wire 1 M inst1|inst19~0_combout $end
$var wire 1 N inst1|inst2~0_combout $end
$var wire 1 O inst1|inst4~0_combout $end
$var wire 1 P inst1|inst20~0_combout $end
$var wire 1 Q inst1|inst9~0_combout $end
$var wire 1 R inst7|LPM_COUNTER_component|auto_generated|safe_q [3] $end
$var wire 1 S inst7|LPM_COUNTER_component|auto_generated|safe_q [2] $end
$var wire 1 T inst7|LPM_COUNTER_component|auto_generated|safe_q [1] $end
$var wire 1 U inst7|LPM_COUNTER_component|auto_generated|safe_q [0] $end
$upscope $end
$upscope $end
$enddefinitions $end
#0
$dumpvars
0!
x"
x#
x$
x%
1&
x'
1(
x)
x*
x+
x,
x-
x.
x/
00
x1
x5
x4
x3
x2
x6
07
18
x9
1:
1;
1<
x=
0>
x?
x@
xA
xB
xC
0D
xE
xF
xG
xH
xI
xJ
xK
xL
xM
xN
xO
xP
xQ
0U
0T
0S
0R
$end
#143
0E
#659
0H
#725
0I
#840
1C
#1049
0?
#1051
1A
#1061
0F
#1077
1=
#1208
0Q
#1209
0N
#1465
1P
#1466
0L
#1493
0K
#1496
0J
#1503
0O
0M
#1555
0@
#1557
0B
#1567
0G
#3823
04
#4223
03
#4225
05
#4388
02
#4902
1,
1.
1$
1*
#4954
01
#5154
1"
#5218
1#
0/
#5254
1'
#5618
1%
#5630
1)
#5638
1+
#5645
1-
#20000
1!
06
#21140
1D
#21283
1E
#23083
1T
#23740
0C
#24161
1@
#24288
0P
1M
#24292
1N
#26906
14
#28041
1/
#28054
0"
#28337
0'
#28430
0-
#40000
0!
16
#41140
0D
#41283
0E
#60000
1!
06
#61140
1D
#61283
1E
#63083
1U
#64132
1?
#64160
0=
#64218
0A
#64473
0N
#64579
1J
#64638
0@
#64724
1B
#67308
15
#68518
1'
#68721
0+
#80000
0!
16
#81140
0D
#81283
0E
#100000
1!
06
#101140
1D
#101283
1E
#103083
0U
0T
1S
#104132
0?
#104134
1A
#104160
1=
#104548
0M
#104576
1K
#104586
1O
#106906
04
#107306
13
#107308
05
#108301
0#
#108690
1-
#108713
0)
#120000
0!
16
#121140
0D
#121283
0E
#140000
1!
06
#141140
1D
#141283
1E
#143083
1U
#144132
1?
#144160
0=
#144576
0K
#144583
1L
#144586
0O
#144638
1@
#147308
15
#148301
1#
#148713
1)
#148735
0%
#160000
0!
16
#161140
0D
#161283
0E
#180000
1!
06
#181140
1D
#181283
1E
#183083
0U
1T
#184132
0?
#184160
1=
#184544
1Q
#184579
0J
#186906
14
#187308
05
#188290
11
#188721
1+
#200000
0!
16
#201140
0D
#201283
0E
#220000
1!
06
#221140
1D
#221283
1E
#223083
1U
#224131
1H
#224132
1?
#224160
0=
#224163
1C
#224218
0A
#224304
1F
#224544
0Q
#224579
1J
#224583
0L
#224584
1P
#224586
1O
1M
#224638
0@
#224724
0B
#224810
1G
#227308
15
#228290
01
#228337
0/
#228477
1"
#228713
0)
#228721
0+
#228728
0-
#228735
1%
#240000
0!
16
#241140
0D
#241283
0E
#260000
1!
06
#261140
1D
#261283
1E
#263083
0U
0S
1R
#263799
0G
#263808
1I
#263810
0P
0M
#263811
0O
#263812
1L
#264131
0H
#264132
0?
#264144
0F
#264160
1=
#264163
0C
#264171
1B
#264218
1A
#264548
1P
#264549
0L
#264579
0J
#264638
1@
#264650
1G
#264724
0B
#267306
03
#267308
05
#267471
12
#267938
1)
#267952
1-
#267985
0,
0.
0$
0*
#268477
0"
#268721
1+
#280000
0!
16
#281140
0D
#281283
0E
#300000
1!
06
#301140
1D
#301283
1E
#303083
1U
#304132
1?
#304160
0=
#304218
0A
#304576
1K
#304579
1J
#304586
1O
1M
#304638
0@
#304724
1B
#307308
15
#308301
0#
#308713
0)
#308721
0+
#308728
0-
#320000
0!
16
#321140
0D
#321283
0E
#340000
1!
06
#341140
1D
#341283
1E
#343083
0U
0T
1S
#344132
0?
#344134
1A
#344160
1=
#344283
0K
#344288
0P
#344290
0O
#344473
1N
#344579
0J
#346906
04
#347306
13
#347308
05
#348008
1#
#348041
1/
#348417
1)
#348518
0'
#348721
1+
#360000
0!
16
#361140
0D
#361283
0E
#380000
1!
06
#381140
1D
#381283
1E
#383083
1U
#384132
1?
#384160
0=
#384473
0N
#384579
1J
#384638
1@
#387308
15
#388518
1'
#388721
0+
#400000
0!
16
#401140
0D
#401283
0E
#420000
1!
06
#421140
1D
#421283
1E
#423083
0U
1T
#424132
0?
#424160
1=
#424288
0M
#424576
1K
#424586
1O
#426906
14
#427308
05
#428301
0#
#428430
1-
#428713
0)
#440000
0!
16
#441140
0D
#441283
0E
#460000
1!
06
#461140
1D
#461283
1E
#463083
1U
#464131
1H
#464132
1?
#464160
0=
#464163
1C
#464218
0A
#464304
1F
#464576
0K
#464583
1L
#464586
0O
#464638
0@
#464724
0B
#464810
0G
#467308
15
#468301
1#
#468477
1"
#468713
1)
#468735
0%
#480000
0!
16
#481140
0D
#481283
0E
#500000
1!
06
#501140
1D
#501283
1E
#503083
0U
0S
#504131
0H
#504132
0?
#504144
0F
#504160
1=
#504163
0C
#504171
1B
#504218
1A
#504548
1P
#504549
0L
#504579
0J
#504638
1@
#504650
1G
#504724
0B
#507306
03
#507308
05
#508301
0/
#508477
0"
#508701
1%
#508721
1+
#520000
0!
16
#521140
0D
#521283
0E
#540000
1!
06
#541140
1D
#541283
1E
#543083
1U
#544132
1?
#544160
0=
#544218
0A
#544576
1K
#544579
1J
#544586
1O
1M
#544638
0@
#544724
1B
#547308
15
#548301
0#
#548713
0)
#548721
0+
#548728
0-
#560000
0!
16
#561140
0D
#561283
0E
#580000
1!
06
#581140
1D
#581283
1E
#583083
0U
0T
1S
#584132
0?
#584134
1A
#584160
1=
#584283
0K
#584288
0P
#584290
0O
#584473
1N
#584579
0J
#586906
04
#587306
13
#587308
05
#588008
1#
#588041
1/
#588417
1)
#588518
0'
#588721
1+
#600000
0!
16
#601140
0D
#601283
0E
#620000
1!
06
#621140
1D
#621283
1E
#623083
1U
#624132
1?
#624160
0=
#624473
0N
#624579
1J
#624638
1@
#627308
15
#628518
1'
#628721
0+
#640000
0!
16
#641140
0D
#641283
0E
#660000
1!
06
#661140
1D
#661283
1E
#663083
0U
1T
#664132
0?
#664160
1=
#664288
0M
#664576
1K
#664586
1O
#666906
14
#667308
05
#668301
0#
#668430
1-
#668713
0)
#680000
0!
16
#681140
0D
#681283
0E
#700000
1!
06
#701140
1D
#701283
1E
#703083
1U
#704131
1H
#704132
1?
#704160
0=
#704163
1C
#704218
0A
#704304
1F
#704576
0K
#704583
1L
#704586
0O
#704638
0@
#704724
0B
#704810
0G
#707308
15
#708301
1#
#708477
1"
#708713
1)
#708735
0%
#720000
0!
16
#721140
0D
#721283
0E
#740000
1!
06
#741140
1D
#741283
1E
#743083
0U
0S
#744131
0H
#744132
0?
#744144
0F
#744160
1=
#744163
0C
#744171
1B
#744218
1A
#744548
1P
#744549
0L
#744579
0J
#744638
1@
#744650
1G
#744724
0B
#747306
03
#747308
05
#748301
0/
#748477
0"
#748701
1%
#748721
1+
#760000
0!
16
#761140
0D
#761283
0E
#780000
1!
06
#781140
1D
#781283
1E
#783083
1U
#784132
1?
#784160
0=
#784218
0A
#784576
1K
#784579
1J
#784586
1O
1M
#784638
0@
#784724
1B
#787308
15
#788301
0#
#788713
0)
#788721
0+
#788728
0-
#800000
0!
16
#801140
0D
#801283
0E
#820000
1!
06
#821140
1D
#821283
1E
#823083
0U
0T
1S
#824132
0?
#824134
1A
#824160
1=
#824283
0K
#824288
0P
#824290
0O
#824473
1N
#824579
0J
#826906
04
#827306
13
#827308
05
#828008
1#
#828041
1/
#828417
1)
#828518
0'
#828721
1+
#840000
0!
16
#841140
0D
#841283
0E
#860000
1!
06
#861140
1D
#861283
1E
#863083
1U
#864132
1?
#864160
0=
#864473
0N
#864579
1J
#864638
1@
#867308
15
#868518
1'
#868721
0+
#880000
0!
16
#881140
0D
#881283
0E
#900000
1!
06
#901140
1D
#901283
1E
#903083
0U
1T
#904132
0?
#904160
1=
#904288
0M
#904576
1K
#904586
1O
#906906
14
#907308
05
#908301
0#
#908430
1-
#908713
0)
#920000
0!
16
#921140
0D
#921283
0E
#940000
1!
06
#941140
1D
#941283
1E
#943083
1U
#944131
1H
#944132
1?
#944160
0=
#944163
1C
#944218
0A
#944304
1F
#944576
0K
#944583
1L
#944586
0O
#944638
0@
#944724
0B
#944810
0G
#947308
15
#948301
1#
#948477
1"
#948713
1)
#948735
0%
#960000
0!
16
#961140
0D
#961283
0E
#980000
1!
06
#981140
1D
#981283
1E
#983083
0U
0S
#984131
0H
#984132
0?
#984144
0F
#984160
1=
#984163
0C
#984171
1B
#984218
1A
#984548
1P
#984549
0L
#984579
0J
#984638
1@
#984650
1G
#984724
0B
#987306
03
#987308
05
#988301
0/
#988477
0"
#988701
1%
#988721
1+
