Lab7/tmp/simulation/qsim/tmp.msim.vcd
$comment
	File created using the following command:
		vcd file tmp.msim.vcd -direction
$end
$date
	Wed Apr 10 23:06:51 2024
$end
$version
	ModelSim Version 10.1d
$end
$timescale
	1ps
$end
$scope module tmp_vlg_vec_tst $end
$var reg 4 ! x [3:0] $end
$var wire 1 " D0 $end
$var wire 1 # D00 $end
$var wire 1 $ D1 $end
$var wire 1 % D01 $end
$var wire 1 & D2 $end
$var wire 1 ' D02 $end
$var wire 1 ( D3 $end
$var wire 1 ) D03 $end
$var wire 1 * D4 $end
$var wire 1 + D04 $end
$var wire 1 , D5 $end
$var wire 1 - D05 $end
$var wire 1 . D6 $end
$var wire 1 / D06 $end
$var wire 1 0 DP $end
$var wire 1 1 y0 $end
$var wire 1 2 y1 $end
$var wire 1 3 y2 $end
$var wire 1 4 y3 $end
$var wire 1 5 y4 $end
$var wire 1 6 y5 $end
$var wire 1 7 y6 $end
$var wire 1 8 y7 $end
$var wire 1 9 y8 $end
$var wire 1 : y9 $end
$var wire 1 ; y10 $end
$var wire 1 < y11 $end
$var wire 1 = y12 $end
$var wire 1 > y13 $end
$var wire 1 ? y14 $end
$var wire 1 @ y15 $end
$var wire 1 A sampler $end
$scope module i1 $end
$var wire 1 B gnd $end
$var wire 1 C vcc $end
$var wire 1 D unknown $end
$var tri1 1 E devclrn $end
$var tri1 1 F devpor $end
$var tri1 1 G devoe $end
$var wire 1 H inst~0_combout $end
$var wire 1 I inst1113|LPM_DECODE_component|auto_generated|w_anode21w[3]~0_combout $end
$var wire 1 J inst1113|LPM_DECODE_component|auto_generated|w_anode122w[3]~0_combout $end
$var wire 1 K inst1113|LPM_DECODE_component|auto_generated|w_anode51w[3]~0_combout $end
$var wire 1 L inst1113|LPM_DECODE_component|auto_generated|w_anode152w[3]~0_combout $end
$var wire 1 M inst1~0_combout $end
$var wire 1 N inst1113|LPM_DECODE_component|auto_generated|w_anode61w[3]~0_combout $end
$var wire 1 O inst1113|LPM_DECODE_component|auto_generated|w_anode71w[3]~0_combout $end
$var wire 1 P inst1113|LPM_DECODE_component|auto_generated|w_anode162w[3]~0_combout $end
$var wire 1 Q inst2~0_combout $end
$var wire 1 R inst1113|LPM_DECODE_component|auto_generated|w_anode132w[3]~0_combout $end
$var wire 1 S inst1113|LPM_DECODE_component|auto_generated|w_anode31w[3]~0_combout $end
$var wire 1 T inst4~0_combout $end
$var wire 1 U inst1113|LPM_DECODE_component|auto_generated|w_anode81w[3]~0_combout $end
$var wire 1 V inst18~0_combout $end
$var wire 1 W inst1113|LPM_DECODE_component|auto_generated|w_anode142w[3]~0_combout $end
$var wire 1 X inst1113|LPM_DECODE_component|auto_generated|w_anode41w[3]~0_combout $end
$var wire 1 Y inst1113|LPM_DECODE_component|auto_generated|w_anode102w[3]~0_combout $end
$var wire 1 Z inst19~0_combout $end
$var wire 1 [ inst20~0_combout $end
$var wire 1 \ inst1113|LPM_DECODE_component|auto_generated|w_anode112w[3]~0_combout $end
$var wire 1 ] inst9~0_combout $end
$var wire 1 ^ inst11~0_combout $end
$var wire 1 _ inst1113|LPM_DECODE_component|auto_generated|w_anode91w[3]~0_combout $end
$var wire 1 ` x~combout [3] $end
$var wire 1 a x~combout [2] $end
$var wire 1 b x~combout [1] $end
$var wire 1 c x~combout [0] $end
$var wire 1 d inst1113|LPM_DECODE_component|auto_generated|w_anode4w [3] $end
$var wire 1 e inst1113|LPM_DECODE_component|auto_generated|w_anode4w [2] $end
$var wire 1 f inst1113|LPM_DECODE_component|auto_generated|w_anode4w [1] $end
$var wire 1 g inst1113|LPM_DECODE_component|auto_generated|w_anode4w [0] $end
$upscope $end
$upscope $end
$enddefinitions $end
#0
$dumpvars
b0 !
1"
1#
1$
1%
1&
1'
1(
1)
1*
1+
1,
1-
0.
0/
00
11
02
03
04
05
06
07
08
09
0:
0;
0<
0=
0>
0?
0@
xA
0B
1C
xD
1E
1F
1G
0H
0I
0J
0K
0L
0M
0N
0O
0P
0Q
0R
0S
0T
0U
0V
0W
0X
0Y
0Z
1[
0\
0]
0^
0_
0c
0b
0a
0`
zg
zf
ze
0d
$end
#30000
b1 !
1c
0A
1d
1Z
1V
1T
1I
1H
12
01
0,
0*
0(
0"
#60000
b11 !
b10 !
0c
1b
1A
0[
0V
0T
1S
1Q
0I
0H
13
02
1.
1*
1(
0&
1"
#90000
b11 !
1c
0A
1X
1V
0S
0Q
14
03
0*
1&
#120000
b111 !
b101 !
b100 !
0c
0b
1a
1A
0Z
0X
1T
1K
1H
04
15
1,
0(
0"
#150000
b101 !
1c
0A
0T
1N
1M
0K
0H
16
05
1(
0$
1"
#180000
b111 !
b110 !
0c
1b
1A
1]
0V
1O
0N
10
17
06
1*
#210000
b111 !
1c
0A
0]
1[
1Z
1V
1U
1T
0O
0M
00
18
07
0.
0,
0*
0(
1$
#240000
b1111 !
b1011 !
b1001 !
b1000 !
0c
0b
0a
1`
1A
1_
0[
0Z
0V
0U
0T
19
08
1.
1,
1*
1(
#270000
b1001 !
1c
0A
0_
1]
1Y
1V
09
10
1:
0*
#300000
b1011 !
b1010 !
0c
1b
1A
0]
1\
1[
0Y
0V
1^
00
1;
0:
0.
1*
0#
0)
0+
0-
#330000
b1011 !
1c
0A
0\
1Z
1V
1T
1J
1H
0;
1<
0,
0*
0(
0"
#360000
b1111 !
b1101 !
b1100 !
0c
0b
1a
1A
0[
0V
0T
1R
1Q
0J
0H
1=
0<
1.
1*
1(
0&
1"
#390000
b1101 !
1c
0A
1W
1V
0R
0Q
1>
0=
0*
1&
#420000
b1111 !
b1110 !
0c
1b
1A
0Z
0W
1T
1L
1H
0>
1?
1,
0(
0"
#450000
b1111 !
1c
0A
0T
1P
1M
0L
0H
1@
0?
1(
0$
1"
#480000
b111 !
b11 !
b1 !
b0 !
0c
0b
0a
0`
1A
0d
1[
0V
0P
0M
0^
0@
11
0.
1*
1$
1#
1)
1+
1-
#510000
b1 !
1c
0A
1d
1Z
1V
1T
1I
1H
12
01
0,
0*
0(
0"
#540000
b11 !
b10 !
0c
1b
1A
0[
0V
0T
1S
1Q
0I
0H
13
02
1.
1*
1(
0&
1"
#570000
b11 !
1c
0A
1X
1V
0S
0Q
14
03
0*
1&
#600000
b111 !
b101 !
b100 !
0c
0b
1a
1A
0Z
0X
1T
1K
1H
04
15
1,
0(
0"
#630000
b101 !
1c
0A
0T
1N
1M
0K
0H
16
05
1(
0$
1"
#660000
b111 !
b110 !
0c
1b
1A
1]
0V
1O
0N
10
17
06
1*
#690000
b111 !
1c
0A
0]
1[
1Z
1V
1U
1T
0O
0M
00
18
07
0.
0,
0*
0(
1$
#720000
b1111 !
b1011 !
b1001 !
b1000 !
0c
0b
0a
1`
1A
1_
0[
0Z
0V
0U
0T
19
08
1.
1,
1*
1(
#750000
b1001 !
1c
0A
0_
1]
1Y
1V
09
10
1:
0*
#780000
b1011 !
b1010 !
0c
1b
1A
0]
1\
1[
0Y
0V
1^
00
1;
0:
0.
1*
0#
0)
0+
0-
#810000
b1011 !
1c
0A
0\
1Z
1V
1T
1J
1H
0;
1<
0,
0*
0(
0"
#840000
b1111 !
b1101 !
b1100 !
0c
0b
1a
1A
0[
0V
0T
1R
1Q
0J
0H
1=
0<
1.
1*
1(
0&
1"
#870000
b1101 !
1c
0A
1W
1V
0R
0Q
1>
0=
0*
1&
#900000
b1111 !
b1110 !
0c
1b
1A
0Z
0W
1T
1L
1H
0>
1?
1,
0(
0"
#930000
b1111 !
1c
0A
0T
1P
1M
0L
0H
1@
0?
1(
0$
1"
#960000
b111 !
b11 !
b1 !
b0 !
0c
0b
0a
0`
1A
0d
1[
0V
0P
0M
0^
0@
11
0.
1*
1$
1#
1)
1+
1-
#990000
b1 !
1c
0A
1d
1Z
1V
1T
1I
1H
12
01
0,
0*
0(
0"
