Lab7/Lab7_3/simulation/qsim/Lab7_3.msim.vcd
$comment
	File created using the following command:
		vcd file Lab7_3.msim.vcd -direction
$end
$date
	Thu Apr 11 15:33:37 2024
$end
$version
	ModelSim Version 10.1d
$end
$timescale
	1ps
$end
$scope module Lab7_3_vlg_vec_tst $end
$var reg 1 ! C $end
$var wire 1 " D [3] $end
$var wire 1 # D [2] $end
$var wire 1 $ D [1] $end
$var wire 1 % D [0] $end
$var wire 1 & sampler $end
$scope module i1 $end
$var wire 1 ' gnd $end
$var wire 1 ( vcc $end
$var wire 1 ) unknown $end
$var tri1 1 * devclrn $end
$var tri1 1 + devpor $end
$var tri1 1 , devoe $end
$var wire 1 - C~combout $end
$var wire 1 . C~clkctrl_outclk $end
$var wire 1 / inst31~0_combout $end
$var wire 1 0 instdff4~regout $end
$var wire 1 1 inst16~0_combout $end
$var wire 1 2 instdff2~regout $end
$var wire 1 3 inst15~0_combout $end
$var wire 1 4 instdff1~regout $end
$var wire 1 5 inst24~0_combout $end
$var wire 1 6 instdff3~regout $end
$upscope $end
$upscope $end
$enddefinitions $end
#0
$dumpvars
0!
x%
x$
x#
x"
x&
0'
1(
x)
1*
1+
1,
0-
x.
1/
00
x1
02
x3
04
x5
06
$end
#143
0.
#666
05
#1071
03
#1092
11
#3808
0"
#3845
0%
#4085
0#
#4127
0$
#20000
1!
0&
#21140
1-
#21283
1.
#23083
10
12
#24162
0/
#24410
15
#26928
1%
#27168
1#
#40000
0!
1&
#41140
0-
#41283
0.
#60000
1!
0&
#61140
1-
#61283
1.
#63083
00
16
#63476
05
1/
#64410
15
#66928
0%
#67210
1$
#80000
0!
1&
#81140
0-
#81283
0.
#100000
1!
0&
#101140
1-
#101283
1.
#103083
10
#103476
0/
#103746
13
#103747
01
#104410
05
#106928
1%
#120000
0!
1&
#121140
0-
#121283
0.
#140000
1!
0&
#141140
1-
#141283
1.
#143083
00
02
14
06
#143476
15
03
11
1/
#144154
13
#144175
01
#144410
05
#146891
1"
#146928
0%
#147168
0#
#147210
0$
#160000
0!
1&
#161140
0-
#161283
0.
#180000
1!
0&
#181140
1-
#181283
1.
#183083
10
#183476
0/
#184410
15
#186928
1%
#200000
0!
1&
#201140
0-
#201283
0.
#220000
1!
0&
#221140
1-
#221283
1.
#223083
00
16
#223476
05
1/
#224410
15
#226928
0%
#227210
1$
#240000
0!
1&
#241140
0-
#241283
0.
#260000
1!
0&
#261140
1-
#261283
1.
#263083
10
#263476
0/
#263747
11
#264410
05
#266928
1%
#280000
0!
1&
#281140
0-
#281283
0.
#300000
1!
0&
#301140
1-
#301283
1.
#303083
00
12
06
#303476
15
1/
#304160
05
#306928
0%
#307168
1#
#307210
0$
#320000
0!
1&
#321140
0-
#321283
0.
#340000
1!
0&
#341140
1-
#341283
1.
#343083
10
#343746
03
#346928
1%
#360000
0!
1&
#361140
0-
#361283
0.
#380000
1!
0&
#381140
1-
#381283
1.
#383083
04
#383749
0/
15
#386891
0"
#400000
0!
1&
#401140
0-
#401283
0.
#420000
1!
0&
#421140
1-
#421283
1.
#423083
00
16
#423476
05
1/
#424410
15
#426928
0%
#427210
1$
#440000
0!
1&
#441140
0-
#441283
0.
#460000
1!
0&
#461140
1-
#461283
1.
#463083
10
#463476
0/
#463746
13
#463747
01
#464410
05
#466928
1%
#480000
0!
1&
#481140
0-
#481283
0.
#500000
1!
0&
#501140
1-
#501283
1.
#503083
00
02
14
06
#503476
15
03
11
1/
#504154
13
#504175
01
#504410
05
#506891
1"
#506928
0%
#507168
0#
#507210
0$
#520000
0!
1&
#521140
0-
#521283
0.
#540000
1!
0&
#541140
1-
#541283
1.
#543083
10
#543476
0/
#544410
15
#546928
1%
#560000
0!
1&
#561140
0-
#561283
0.
#580000
1!
0&
#581140
1-
#581283
1.
#583083
00
16
#583476
05
1/
#584410
15
#586928
0%
#587210
1$
#600000
0!
1&
#601140
0-
#601283
0.
#620000
1!
0&
#621140
1-
#621283
1.
#623083
10
#623476
0/
#623747
11
#624410
05
#626928
1%
#640000
0!
1&
#641140
0-
#641283
0.
#660000
1!
0&
#661140
1-
#661283
1.
#663083
00
12
06
#663476
15
1/
#664160
05
#666928
0%
#667168
1#
#667210
0$
#680000
0!
1&
#681140
0-
#681283
0.
#700000
1!
0&
#701140
1-
#701283
1.
#703083
10
#703746
03
#706928
1%
#720000
0!
1&
#721140
0-
#721283
0.
#740000
1!
0&
#741140
1-
#741283
1.
#743083
04
#743749
0/
15
#746891
0"
#760000
0!
1&
#761140
0-
#761283
0.
#780000
1!
0&
#781140
1-
#781283
1.
#783083
00
16
#783476
05
1/
#784410
15
#786928
0%
#787210
1$
#800000
0!
1&
#801140
0-
#801283
0.
#820000
1!
0&
#821140
1-
#821283
1.
#823083
10
#823476
0/
#823746
13
#823747
01
#824410
05
#826928
1%
#840000
0!
1&
#841140
0-
#841283
0.
#860000
1!
0&
#861140
1-
#861283
1.
#863083
00
02
14
06
#863476
15
03
11
1/
#864154
13
#864175
01
#864410
05
#866891
1"
#866928
0%
#867168
0#
#867210
0$
#880000
0!
1&
#881140
0-
#881283
0.
#900000
1!
0&
#901140
1-
#901283
1.
#903083
10
#903476
0/
#904410
15
#906928
1%
#920000
0!
1&
#921140
0-
#921283
0.
#940000
1!
0&
#941140
1-
#941283
1.
#943083
00
16
#943476
05
1/
#944410
15
#946928
0%
#947210
1$
#960000
0!
1&
#961140
0-
#961283
0.
#980000
1!
0&
#981140
1-
#981283
1.
#983083
10
#983476
0/
#983747
11
#984410
05
#986928
1%
