Pract2Lebibop/simulation/qsim/Pract2.msim.vcd
$comment
	File created using the following command:
		vcd file Pract2.msim.vcd -direction
$end
$date
	Thu Apr 11 23:24:40 2024
$end
$version
	ModelSim Version 10.1d
$end
$timescale
	1ps
$end
$scope module Pract2_vlg_vec_tst $end
$var reg 4 ! x [3:0] $end
$var wire 1 " out $end
$var wire 1 # sampler $end
$scope module i1 $end
$var wire 1 $ gnd $end
$var wire 1 % vcc $end
$var wire 1 & unknown $end
$var tri1 1 ' devclrn $end
$var tri1 1 ( devpor $end
$var tri1 1 ) devoe $end
$var wire 1 * ins34567t~0_combout $end
$var wire 1 + x~combout [3] $end
$var wire 1 , x~combout [2] $end
$var wire 1 - x~combout [1] $end
$var wire 1 . x~combout [0] $end
$upscope $end
$upscope $end
$enddefinitions $end
#0
$dumpvars
b0 !
1"
x#
0$
1%
x&
1'
1(
1)
0*
0.
0-
0,
0+
$end
#10000
b1 !
1.
0#
1*
0"
#20000
b11 !
b10 !
0.
1-
1#
#30000
b11 !
1.
0#
0*
1"
#40000
b111 !
b101 !
b100 !
0.
0-
1,
1#
#50000
b101 !
1.
0#
#60000
b111 !
b110 !
0.
1-
1#
#70000
b111 !
1.
0#
#80000
b1111 !
b1011 !
b1001 !
b1000 !
0.
0-
0,
1+
1#
1*
0"
#90000
b1001 !
1.
0#
#100000
b1011 !
b1010 !
0.
1-
1#
0*
1"
#110000
b1011 !
1.
0#
1*
0"
#120000
b1111 !
b1101 !
b1100 !
0.
0-
1,
1#
#130000
b1101 !
1.
0#
#140000
b1111 !
b1110 !
0.
1-
1#
0*
1"
#150000
b1111 !
1.
0#
1*
0"
#160000
b111 !
b11 !
b1 !
b0 !
0.
0-
0,
0+
1#
0*
1"
#170000
b1 !
1.
0#
1*
0"
#180000
b11 !
b10 !
0.
1-
1#
#190000
b11 !
1.
0#
0*
1"
#200000
b111 !
b101 !
b100 !
0.
0-
1,
1#
#210000
b101 !
1.
0#
#220000
b111 !
b110 !
0.
1-
1#
#230000
b111 !
1.
0#
#240000
b1111 !
b1011 !
b1001 !
b1000 !
0.
0-
0,
1+
1#
1*
0"
#250000
b1001 !
1.
0#
#260000
b1011 !
b1010 !
0.
1-
1#
0*
1"
#270000
b1011 !
1.
0#
1*
0"
#280000
b1111 !
b1101 !
b1100 !
0.
0-
1,
1#
#290000
b1101 !
1.
0#
#300000
b1111 !
b1110 !
0.
1-
1#
0*
1"
#310000
b1111 !
1.
0#
1*
0"
#320000
b111 !
b11 !
b1 !
b0 !
0.
0-
0,
0+
1#
0*
1"
#330000
b1 !
1.
0#
1*
0"
#340000
b11 !
b10 !
0.
1-
1#
#350000
b11 !
1.
0#
0*
1"
#360000
b111 !
b101 !
b100 !
0.
0-
1,
1#
#370000
b101 !
1.
0#
#380000
b111 !
b110 !
0.
1-
1#
#390000
b111 !
1.
0#
#400000
b1111 !
b1011 !
b1001 !
b1000 !
0.
0-
0,
1+
1#
1*
0"
#410000
b1001 !
1.
0#
#420000
b1011 !
b1010 !
0.
1-
1#
0*
1"
#430000
b1011 !
1.
0#
1*
0"
#440000
b1111 !
b1101 !
b1100 !
0.
0-
1,
1#
#450000
b1101 !
1.
0#
#460000
b1111 !
b1110 !
0.
1-
1#
0*
1"
#470000
b1111 !
1.
0#
1*
0"
#480000
b111 !
b11 !
b1 !
b0 !
0.
0-
0,
0+
1#
0*
1"
#490000
b1 !
1.
0#
1*
0"
#500000
b11 !
b10 !
0.
1-
1#
#510000
b11 !
1.
0#
0*
1"
#520000
b111 !
b101 !
b100 !
0.
0-
1,
1#
#530000
b101 !
1.
0#
#540000
b111 !
b110 !
0.
1-
1#
#550000
b111 !
1.
0#
#560000
b1111 !
b1011 !
b1001 !
b1000 !
0.
0-
0,
1+
1#
1*
0"
#570000
b1001 !
1.
0#
#580000
b1011 !
b1010 !
0.
1-
1#
0*
1"
#590000
b1011 !
1.
0#
1*
0"
#600000
b1111 !
b1101 !
b1100 !
0.
0-
1,
1#
#610000
b1101 !
1.
0#
#620000
b1111 !
b1110 !
0.
1-
1#
0*
1"
#630000
b1111 !
1.
0#
1*
0"
#640000
b111 !
b11 !
b1 !
b0 !
0.
0-
0,
0+
1#
0*
1"
#650000
b1 !
1.
0#
1*
0"
#660000
b11 !
b10 !
0.
1-
1#
#670000
b11 !
1.
0#
0*
1"
#680000
b111 !
b101 !
b100 !
0.
0-
1,
1#
#690000
b101 !
1.
0#
#700000
b111 !
b110 !
0.
1-
1#
#710000
b111 !
1.
0#
#720000
b1111 !
b1011 !
b1001 !
b1000 !
0.
0-
0,
1+
1#
1*
0"
#730000
b1001 !
1.
0#
#740000
b1011 !
b1010 !
0.
1-
1#
0*
1"
#750000
b1011 !
1.
0#
1*
0"
#760000
b1111 !
b1101 !
b1100 !
0.
0-
1,
1#
#770000
b1101 !
1.
0#
#780000
b1111 !
b1110 !
0.
1-
1#
0*
1"
#790000
b1111 !
1.
0#
1*
0"
#800000
b111 !
b11 !
b1 !
b0 !
0.
0-
0,
0+
1#
0*
1"
#810000
b1 !
1.
0#
1*
0"
#820000
b11 !
b10 !
0.
1-
1#
#830000
b11 !
1.
0#
0*
1"
#840000
b111 !
b101 !
b100 !
0.
0-
1,
1#
#850000
b101 !
1.
0#
#860000
b111 !
b110 !
0.
1-
1#
#870000
b111 !
1.
0#
#880000
b1111 !
b1011 !
b1001 !
b1000 !
0.
0-
0,
1+
1#
1*
0"
#890000
b1001 !
1.
0#
#900000
b1011 !
b1010 !
0.
1-
1#
0*
1"
#910000
b1011 !
1.
0#
1*
0"
#920000
b1111 !
b1101 !
b1100 !
0.
0-
1,
1#
#930000
b1101 !
1.
0#
#940000
b1111 !
b1110 !
0.
1-
1#
0*
1"
#950000
b1111 !
1.
0#
1*
0"
#960000
b111 !
b11 !
b1 !
b0 !
0.
0-
0,
0+
1#
0*
1"
#970000
b1 !
1.
0#
1*
0"
#980000
b11 !
b10 !
0.
1-
1#
#990000
b11 !
1.
0#
0*
1"
