Lab6/Lab6_2/simulation/qsim/Lab6_2.msim.vcd
$comment
	File created using the following command:
		vcd file Lab6_2.msim.vcd -direction
$end
$date
	Thu Apr 18 13:29:46 2024
$end
$version
	ModelSim Version 10.1d
$end
$timescale
	1ps
$end
$scope module Lab6_2_vlg_vec_tst $end
$var reg 1 ! C $end
$var reg 1 " Reset $end
$var reg 1 # W_en $end
$var wire 1 $ Q_out [8] $end
$var wire 1 % Q_out [7] $end
$var wire 1 & Q_out [6] $end
$var wire 1 ' Q_out [5] $end
$var wire 1 ( Q_out [4] $end
$var wire 1 ) Q_out [3] $end
$var wire 1 * Q_out [2] $end
$var wire 1 + Q_out [1] $end
$var wire 1 , Q_out [0] $end
$var wire 1 - Q_tact [8] $end
$var wire 1 . Q_tact [7] $end
$var wire 1 / Q_tact [6] $end
$var wire 1 0 Q_tact [5] $end
$var wire 1 1 Q_tact [4] $end
$var wire 1 2 Q_tact [3] $end
$var wire 1 3 Q_tact [2] $end
$var wire 1 4 Q_tact [1] $end
$var wire 1 5 Q_tact [0] $end
$var wire 1 6 sampler $end
$scope module i1 $end
$var wire 1 7 gnd $end
$var wire 1 8 vcc $end
$var wire 1 9 unknown $end
$var tri1 1 : devclrn $end
$var tri1 1 ; devpor $end
$var tri1 1 < devoe $end
$var wire 1 = C~clkctrl_outclk $end
$var wire 1 > W_en~combout $end
$var wire 1 ? Reset~combout $end
$var wire 1 @ Reset~clkctrl_outclk $end
$var wire 1 A inst4~regout $end
$var wire 1 B inst36~0_combout $end
$var wire 1 C inst34~0_combout $end
$var wire 1 D inst~regout $end
$var wire 1 E inst1~0_combout $end
$var wire 1 F inst1~regout $end
$var wire 1 G inst2~feeder_combout $end
$var wire 1 H inst2~regout $end
$var wire 1 I inst3~feeder_combout $end
$var wire 1 J inst3~regout $end
$var wire 1 K inst33~combout $end
$var wire 1 L inst31~combout $end
$var wire 1 M inst29~combout $end
$var wire 1 N inst28~combout $end
$var wire 1 O inst25~combout $end
$var wire 1 P inst24~combout $end
$var wire 1 Q inst23~combout $end
$var wire 1 R inst35~combout $end
$var wire 1 S C~combout $end
$var wire 1 T inst53~combout $end
$var wire 1 U inst52~combout $end
$var wire 1 V inst51~combout $end
$var wire 1 W inst50~combout $end
$var wire 1 X inst49~combout $end
$var wire 1 Y inst48~combout $end
$var wire 1 Z inst47~combout $end
$var wire 1 [ inst46~combout $end
$var wire 1 \ inst45~combout $end
$upscope $end
$upscope $end
$enddefinitions $end
#0
$dumpvars
0!
0"
1#
0,
1+
1*
1)
1(
1'
1&
1%
1$
05
14
13
12
11
10
1/
1.
1-
x6
07
18
x9
1:
1;
1<
0=
1>
0?
0@
0A
1B
0C
0D
1E
0F
0G
0H
0I
0J
0K
0L
0M
0N
1O
0P
0Q
0R
0S
0T
0U
0V
0W
1X
0Y
0Z
0[
1\
$end
#10000
1"
1?
1@
06
#20000
1!
1S
1=
16
1[
1Z
1Y
0X
1W
1V
1U
1T
01
04
03
02
00
0/
0.
0-
#40000
0!
0S
0=
06
0[
0Z
0Y
1X
0W
0V
0U
0T
11
14
13
12
10
1/
1.
1-
#60000
1!
1S
1=
16
1[
1Z
1Y
0X
1W
1V
1U
1T
01
04
03
02
00
0/
0.
0-
#80000
0!
0S
0=
06
0[
0Z
0Y
1X
0W
0V
0U
0T
11
14
13
12
10
1/
1.
1-
#100000
1!
1S
1=
16
1[
1Z
1Y
0X
1W
1V
1U
1T
01
04
03
02
00
0/
0.
0-
#120000
0!
0S
0=
06
0[
0Z
0Y
1X
0W
0V
0U
0T
11
14
13
12
10
1/
1.
1-
#140000
1!
1S
1=
16
1[
1Z
1Y
0X
1W
1V
1U
1T
01
04
03
02
00
0/
0.
0-
#160000
0!
0S
0=
06
0[
0Z
0Y
1X
0W
0V
0U
0T
11
14
13
12
10
1/
1.
1-
#180000
1!
1S
1=
16
1[
1Z
1Y
0X
1W
1V
1U
1T
01
04
03
02
00
0/
0.
0-
#200000
0!
0S
0=
06
0[
0Z
0Y
1X
0W
0V
0U
0T
11
14
13
12
10
1/
1.
1-
#220000
1!
1S
1=
16
1[
1Z
1Y
0X
1W
1V
1U
1T
01
04
03
02
00
0/
0.
0-
#240000
0!
0S
0=
06
0[
0Z
0Y
1X
0W
0V
0U
0T
11
14
13
12
10
1/
1.
1-
#260000
1!
1S
1=
16
1[
1Z
1Y
0X
1W
1V
1U
1T
01
04
03
02
00
0/
0.
0-
#280000
0!
0S
0=
06
0[
0Z
0Y
1X
0W
0V
0U
0T
11
14
13
12
10
1/
1.
1-
#300000
1!
1S
1=
16
1[
1Z
1Y
0X
1W
1V
1U
1T
01
04
03
02
00
0/
0.
0-
#320000
0!
0S
0=
06
0[
0Z
0Y
1X
0W
0V
0U
0T
11
14
13
12
10
1/
1.
1-
#340000
1!
1S
1=
16
1[
1Z
1Y
0X
1W
1V
1U
1T
01
04
03
02
00
0/
0.
0-
#360000
0!
0S
0=
06
0[
0Z
0Y
1X
0W
0V
0U
0T
11
14
13
12
10
1/
1.
1-
#380000
1!
1S
1=
16
1[
1Z
1Y
0X
1W
1V
1U
1T
01
04
03
02
00
0/
0.
0-
#400000
0!
0S
0=
06
0[
0Z
0Y
1X
0W
0V
0U
0T
11
14
13
12
10
1/
1.
1-
#420000
1!
1S
1=
16
1[
1Z
1Y
0X
1W
1V
1U
1T
01
04
03
02
00
0/
0.
0-
#440000
0!
0S
0=
06
0[
0Z
0Y
1X
0W
0V
0U
0T
11
14
13
12
10
1/
1.
1-
#460000
1!
1S
1=
16
1[
1Z
1Y
0X
1W
1V
1U
1T
01
04
03
02
00
0/
0.
0-
#480000
0!
0S
0=
06
0[
0Z
0Y
1X
0W
0V
0U
0T
11
14
13
12
10
1/
1.
1-
#500000
1!
1S
1=
16
1[
1Z
1Y
0X
1W
1V
1U
1T
01
04
03
02
00
0/
0.
0-
#520000
0!
0S
0=
06
0[
0Z
0Y
1X
0W
0V
0U
0T
11
14
13
12
10
1/
1.
1-
#540000
1!
1S
1=
16
1[
1Z
1Y
0X
1W
1V
1U
1T
01
04
03
02
00
0/
0.
0-
#560000
0!
0S
0=
06
0[
0Z
0Y
1X
0W
0V
0U
0T
11
14
13
12
10
1/
1.
1-
#580000
1!
1S
1=
16
1[
1Z
1Y
0X
1W
1V
1U
1T
01
04
03
02
00
0/
0.
0-
#600000
0!
0S
0=
06
0[
0Z
0Y
1X
0W
0V
0U
0T
11
14
13
12
10
1/
1.
1-
#620000
1!
1S
1=
16
1[
1Z
1Y
0X
1W
1V
1U
1T
01
04
03
02
00
0/
0.
0-
#640000
0!
0S
0=
06
0[
0Z
0Y
1X
0W
0V
0U
0T
11
14
13
12
10
1/
1.
1-
#660000
1!
1S
1=
16
1[
1Z
1Y
0X
1W
1V
1U
1T
01
04
03
02
00
0/
0.
0-
#680000
0!
0S
0=
06
0[
0Z
0Y
1X
0W
0V
0U
0T
11
14
13
12
10
1/
1.
1-
#700000
1!
1S
1=
16
1[
1Z
1Y
0X
1W
1V
1U
1T
01
04
03
02
00
0/
0.
0-
#720000
0!
0S
0=
06
0[
0Z
0Y
1X
0W
0V
0U
0T
11
14
13
12
10
1/
1.
1-
#740000
1!
1S
1=
16
1[
1Z
1Y
0X
1W
1V
1U
1T
01
04
03
02
00
0/
0.
0-
#760000
0!
0S
0=
06
0[
0Z
0Y
1X
0W
0V
0U
0T
11
14
13
12
10
1/
1.
1-
#780000
1!
1S
1=
16
1[
1Z
1Y
0X
1W
1V
1U
1T
01
04
03
02
00
0/
0.
0-
#800000
0!
0S
0=
06
0[
0Z
0Y
1X
0W
0V
0U
0T
11
14
13
12
10
1/
1.
1-
#820000
1!
1S
1=
16
1[
1Z
1Y
0X
1W
1V
1U
1T
01
04
03
02
00
0/
0.
0-
#840000
0!
0S
0=
06
0[
0Z
0Y
1X
0W
0V
0U
0T
11
14
13
12
10
1/
1.
1-
#860000
1!
1S
1=
16
1[
1Z
1Y
0X
1W
1V
1U
1T
01
04
03
02
00
0/
0.
0-
#880000
0!
0S
0=
06
0[
0Z
0Y
1X
0W
0V
0U
0T
11
14
13
12
10
1/
1.
1-
#900000
1!
1S
1=
16
1[
1Z
1Y
0X
1W
1V
1U
1T
01
04
03
02
00
0/
0.
0-
#920000
0!
0S
0=
06
0[
0Z
0Y
1X
0W
0V
0U
0T
11
14
13
12
10
1/
1.
1-
#940000
1!
1S
1=
16
1[
1Z
1Y
0X
1W
1V
1U
1T
01
04
03
02
00
0/
0.
0-
#960000
0!
0S
0=
06
0[
0Z
0Y
1X
0W
0V
0U
0T
11
14
13
12
10
1/
1.
1-
#980000
1!
1S
1=
16
1[
1Z
1Y
0X
1W
1V
1U
1T
01
04
03
02
00
0/
0.
0-
