Lab5/Lab5_2/simulation/qsim/Lab5_2.msim.vcd
$comment
	File created using the following command:
		vcd file Lab5_2.msim.vcd -direction
$end
$date
	Wed Apr 03 21:52:33 2024
$end
$version
	ModelSim Version 10.1d
$end
$timescale
	1ps
$end
$scope module Lab5_2_vlg_vec_tst $end
$var reg 1 ! C $end
$var reg 4 " D [3:0] $end
$var reg 1 # Reset $end
$var reg 2 $ S [1:0] $end
$var wire 1 % Q [3] $end
$var wire 1 & Q [2] $end
$var wire 1 ' Q [1] $end
$var wire 1 ( Q [0] $end
$var wire 1 ) sampler $end
$scope module i1 $end
$var wire 1 * gnd $end
$var wire 1 + vcc $end
$var wire 1 , unknown $end
$var tri1 1 - devclrn $end
$var tri1 1 . devpor $end
$var tri1 1 / devoe $end
$var wire 1 0 C~combout $end
$var wire 1 1 C~clkctrl_outclk $end
$var wire 1 2 inst|LPM_MUX_component|auto_generated|result_node[0]~0_combout $end
$var wire 1 3 inst|LPM_MUX_component|auto_generated|result_node[0]~1_combout $end
$var wire 1 4 Reset~combout $end
$var wire 1 5 Reset~clkctrl_outclk $end
$var wire 1 6 D0~regout $end
$var wire 1 7 inst1|LPM_MUX_component|auto_generated|result_node[0]~0_combout $end
$var wire 1 8 inst1|LPM_MUX_component|auto_generated|result_node[0]~1_combout $end
$var wire 1 9 D1~regout $end
$var wire 1 : inst2|LPM_MUX_component|auto_generated|result_node[0]~0_combout $end
$var wire 1 ; inst2|LPM_MUX_component|auto_generated|result_node[0]~1_combout $end
$var wire 1 < D2~regout $end
$var wire 1 = inst3|LPM_MUX_component|auto_generated|result_node[0]~0_combout $end
$var wire 1 > inst3|LPM_MUX_component|auto_generated|result_node[0]~1_combout $end
$var wire 1 ? D3~regout $end
$var wire 1 @ S~combout [1] $end
$var wire 1 A S~combout [0] $end
$var wire 1 B D~combout [3] $end
$var wire 1 C D~combout [2] $end
$var wire 1 D D~combout [1] $end
$var wire 1 E D~combout [0] $end
$upscope $end
$upscope $end
$enddefinitions $end
#0
$dumpvars
0!
b0 "
1#
b0 $
x(
x'
x&
x%
x)
0*
1+
x,
1-
1.
1/
00
x1
x2
x3
14
x5
x6
x7
x8
x9
x:
x;
x<
x=
x>
x?
0A
0@
0E
0D
0C
0B
$end
#143
01
15
#267
06
09
0<
0?
#4085
0'
#4394
0&
#4544
0%
#4817
0(
#5000
1!
0)
#6037
0=
#6140
10
#6283
11
#6294
02
0:
#6330
07
#6600
0>
#6864
0;
03
#6901
08
#10000
b10 $
0!
1)
#10975
1@
#11140
00
#11283
01
#15000
1!
0)
#16140
10
#16283
11
#20000
b11 $
b1 $
0!
1)
#20975
0@
#21005
1A
#21140
00
#21283
01
#25000
1!
0)
#26140
10
#26283
11
#27323
1>
#27332
1;
#27335
17
13
#27906
18
#28094
16
1<
1?
x9
#28487
0>
0;
03
#28751
x7
#29322
x8
#30000
b11 $
0!
1)
#30975
1@
#31140
00
#31283
01
#31912
x'
#32221
1&
#32371
1%
#32644
1(
#35000
1!
0)
#36140
10
#36283
11
#37267
18
#37269
12
17
1:
#37839
1;
x3
#38094
19
0?
x<
x6
#39168
x8
#39212
0;
#39221
13
#40000
b1000 "
b10 $
b0 $
0!
1)
#40975
0@
#40985
1B
#41005
0A
#41140
00
#41283
01
#41912
1'
#42221
x&
#42371
0%
#42644
x(
#45000
1!
0)
#46140
10
#46283
11
#47244
1=
#47267
18
#47269
02
07
0:
#47332
1;
#47807
1>
#47839
0;
03
#47840
08
#48094
x?
x9
#50000
b10 $
0!
1)
#50975
1@
#51140
00
#51283
01
#51912
x'
#52371
x%
#55000
1!
0)
#56140
10
#56283
11
#57232
x=
#57267
x8
#57269
x2
x:
#57795
x>
#57839
x;
x3
#60000
b11 $
b1 $
0!
1)
#60975
0@
#61005
1A
#61140
00
#61283
01
#65000
1!
0)
#66140
10
#66283
11
#67244
0=
#67267
08
#67269
02
0:
#67335
x7
#67906
x8
#70000
b11 $
0!
1)
#70975
1@
#71140
00
#71283
01
#75000
1!
0)
#76140
10
#76283
11
#77234
0>
#77269
12
17
1:
#78094
0?
#79212
0;
#80000
b1100 "
b100 "
b10 $
b0 $
0!
1)
#80975
0@
#80985
0B
#80995
1C
#81005
0A
#81140
00
#81283
01
#82371
0%
#85000
1!
0)
#86140
10
#86283
11
#87267
18
#87269
02
#87332
1;
#87335
07
13
#87839
03
#87906
08
#88094
1<
#90000
b10 $
0!
1)
#90975
1@
#91140
00
#91283
01
#92221
1&
#95000
1!
0)
#96140
10
#96283
11
#97232
1=
#97267
x8
#97269
x:
#97795
1>
#97839
x;
#98094
06
x?
x<
#98744
x=
#98904
08
#98916
x2
#99307
x>
#99486
x3
#100000
b11 $
b1 $
0!
1)
#100975
0@
#101005
1A
#101140
00
#101283
01
#102221
x&
#102371
x%
#102644
0(
#105000
1!
0)
#106140
10
#106283
11
#107232
0=
#107269
02
#107334
0:
#107335
x7
#107839
13
#107906
x8
#108094
x6
#108487
x3
#110000
b11 $
0!
1)
#110975
1@
#111140
00
#111283
01
#112644
x(
#115000
1!
0)
#116140
10
#116283
11
#117234
0>
#117269
12
17
1:
#118094
0?
#119212
0;
#120000
b1100 "
b10 $
b0 $
0!
1)
#120975
0@
#120985
1B
#121005
0A
#121140
00
#121283
01
#122371
0%
#125000
1!
0)
#126140
10
#126283
11
#127244
1=
#127267
18
#127269
02
#127332
1;
#127335
07
13
#127807
1>
#127839
03
#127906
08
#128094
1<
x?
#130000
b10 $
0!
1)
#130975
1@
#131140
00
#131283
01
#132221
1&
#132371
x%
#135000
1!
0)
#136140
10
#136283
11
#137267
x8
#137269
x2
x:
#137839
x;
x3
#138094
1?
x<
#138744
x=
#138916
12
#139307
x>
#139486
13
#140000
b11 $
b1 $
0!
1)
#140975
0@
#141005
1A
#141140
00
#141283
01
#142221
x&
#142371
1%
#145000
1!
0)
#146140
10
#146283
11
#147244
0=
#147267
08
#147269
02
#147334
0:
#147335
x7
x3
#147807
0>
#147906
x8
#148094
x?
#148487
x>
#150000
b11 $
0!
1)
#150975
1@
#151140
00
#151283
01
#152371
x%
#155000
1!
0)
#156140
10
#156283
11
#157234
0>
#157269
12
17
1:
#158094
0?
#159212
0;
#160000
b1110 "
b1010 "
b10 "
b10 $
b0 $
0!
1)
#160975
0@
#160985
0B
1D
#160995
0C
#161005
0A
#161140
00
#161283
01
#162371
0%
#165000
1!
0)
#166140
10
#166283
11
#167267
18
#167269
02
0:
#167332
1;
#167335
13
#167839
0;
03
#168094
19
#170000
b10 $
0!
1)
#170975
1@
#171140
00
#171283
01
#171912
1'
#175000
1!
0)
#176140
10
#176283
11
#177232
x=
#177267
x8
#177269
07
1:
#177795
x>
#177839
1;
#178094
06
x9
x?
#178751
x:
#178904
08
#178916
x2
#179321
x;
#179486
x3
#180000
b11 $
b1 $
0!
1)
#180975
0@
#181005
1A
#181140
00
#181283
01
#181912
x'
#182371
x%
#182644
0(
#185000
1!
0)
#186140
10
#186283
11
#187232
0=
#187269
02
0:
#187335
x7
#187839
13
#187906
x8
#188094
x6
#188487
x3
#190000
b11 $
0!
1)
#190975
1@
#191140
00
#191283
01
#192644
x(
#195000
1!
0)
#196140
10
#196283
11
#197234
0>
#197269
12
17
1:
#198094
0?
#199212
0;
#200000
b1010 "
b10 $
b0 $
0!
1)
#200975
0@
#200985
1B
#201005
0A
#201140
00
#201283
01
#202371
0%
#205000
1!
0)
#206140
10
#206283
11
#207244
1=
#207267
18
#207269
02
0:
#207332
1;
#207335
13
#207807
1>
#207839
0;
03
#208094
19
x?
#210000
b10 $
0!
1)
#210975
1@
#211140
00
#211283
01
#211912
1'
#212371
x%
#215000
1!
0)
#216140
10
#216283
11
#217232
x=
#217267
x8
#217269
x2
07
1:
#217795
x>
#217839
1;
x3
#218094
x9
#218751
x:
#219321
x;
#220000
b11 $
b1 $
0!
1)
#220975
0@
#221005
1A
#221140
00
#221283
01
#221912
x'
#225000
1!
0)
#226140
10
#226283
11
#227244
0=
#227267
08
#227269
02
0:
#227335
x7
#227906
x8
#230000
b11 $
0!
1)
#230975
1@
#231140
00
#231283
01
#235000
1!
0)
#236140
10
#236283
11
#237234
0>
#237269
12
17
1:
#238094
0?
#239212
0;
#240000
b1110 "
b110 "
b10 $
b0 $
0!
1)
#240975
0@
#240985
0B
#240995
1C
#241005
0A
#241140
00
#241283
01
#242371
0%
#245000
1!
0)
#246140
10
#246283
11
#247267
18
#247269
02
#247332
1;
#247335
13
#247839
03
#248094
19
1<
#250000
b10 $
0!
1)
#250975
1@
#251140
00
#251283
01
#251912
1'
#252221
1&
#255000
1!
0)
#256140
10
#256283
11
#257232
1=
#257269
07
#257795
1>
#257840
x8
#258094
06
x?
x9
#258751
x:
#258904
08
#258916
x2
#259321
x;
#259486
x3
#260000
b11 $
b1 $
0!
1)
#260975
0@
#261005
1A
#261140
00
#261283
01
#261912
x'
#262371
x%
#262644
0(
#265000
1!
0)
#266140
10
#266283
11
#267232
0=
#267269
02
#267334
0:
#267335
x7
#267795
x>
#267839
13
#267904
0;
#267906
x8
#268094
x6
x<
#268487
x;
x3
#270000
b11 $
0!
1)
#270975
1@
#271140
00
#271283
01
#272221
x&
#272644
x(
#275000
1!
0)
#276140
10
#276283
11
#277234
0>
#277269
12
17
1:
#278094
0?
#279212
0;
#280000
b1110 "
b10 $
b0 $
0!
1)
#280975
0@
#280985
1B
#281005
0A
#281140
00
#281283
01
#282371
0%
#285000
1!
0)
#286140
10
#286283
11
#287244
1=
#287267
18
#287269
02
#287332
1;
#287335
13
#287807
1>
#287839
03
#288094
19
1<
x?
#290000
b10 $
0!
1)
#290975
1@
#291140
00
#291283
01
#291912
1'
#292221
1&
#292371
x%
#295000
1!
0)
#296140
10
#296283
11
#297269
x2
07
#297839
x3
#297840
x8
#298094
1?
x9
#298751
x:
#298916
12
#299321
x;
#299486
13
#300000
b11 $
b1 $
0!
1)
#300975
0@
#301005
1A
#301140
00
#301283
01
#301912
x'
#302371
1%
#305000
1!
0)
#306140
10
#306283
11
#307244
0=
#307267
08
#307269
02
#307334
0:
#307335
x7
x3
#307807
0>
#307904
0;
#307906
x8
#308094
x<
x?
#308487
x>
x;
#310000
b11 $
0!
1)
#310975
1@
#311140
00
#311283
01
#312221
x&
#312371
x%
#315000
1!
0)
#316140
10
#316283
11
#317234
0>
#317269
12
17
1:
#318094
0?
#319212
0;
#320000
b1111 "
b1101 "
b1001 "
b1 "
b10 $
b0 $
0!
1)
#320975
0@
#320985
0B
0D
#320995
0C
1E
#321005
0A
#321140
00
#321283
01
#322371
0%
#325000
1!
0)
#326140
10
#326283
11
#327267
18
#327269
0:
#327332
1;
#327335
07
13
#327839
0;
#327906
08
#328094
16
#330000
b10 $
0!
1)
#330975
1@
#331140
00
#331283
01
#332644
1(
#335000
1!
0)
#336140
10
#336283
11
#337232
x=
#337267
18
#337269
02
x:
#337795
x>
#337839
x;
03
#338094
19
x?
x6
#338751
1:
#338904
x8
#338916
x2
#339321
1;
#339486
x3
#340000
b11 $
b1 $
0!
1)
#340975
0@
#341005
1A
#341140
00
#341283
01
#341912
1'
#342371
x%
#342644
x(
#345000
1!
0)
#346140
10
#346283
11
#347232
0=
#347267
08
#347269
0:
#347332
x;
#347336
02
#348094
09
#348751
17
#349322
18
#350000
b11 $
0!
1)
#350975
1@
#351140
00
#351283
01
#351912
0'
#355000
1!
0)
#356140
10
#356283
11
#357234
0>
#357267
x8
#357269
12
1:
#357839
03
#358094
x9
0?
#359212
0;
#359221
x3
#360000
b1001 "
b10 $
b0 $
0!
1)
#360975
0@
#360985
1B
#361005
0A
#361140
00
#361283
01
#361912
x'
#362371
0%
#365000
1!
0)
#366140
10
#366283
11
#367244
1=
#367267
18
#367269
0:
#367332
1;
#367335
07
13
#367807
1>
#367839
0;
#367906
08
#368094
16
x?
#370000
b10 $
0!
1)
#370975
1@
#371140
00
#371283
01
#372371
x%
#372644
1(
#375000
1!
0)
#376140
10
#376283
11
#377232
x=
#377267
18
#377269
x2
x:
#377795
x>
#377839
x;
x3
#378094
19
x6
#378751
1:
#378904
x8
#379321
1;
#380000
b11 $
b1 $
0!
1)
#380975
0@
#381005
1A
#381140
00
#381283
01
#381912
1'
#382644
x(
#385000
1!
0)
#386140
10
#386283
11
#387244
0=
#387267
08
#387269
0:
#387332
x;
#387336
02
#388094
09
#388751
17
#389322
18
#390000
b11 $
0!
1)
#390975
1@
#391140
00
#391283
01
#391912
0'
#395000
1!
0)
#396140
10
#396283
11
#397234
0>
#397267
x8
#397269
12
1:
#397839
03
#398094
x9
0?
#399212
0;
#399221
x3
#400000
b1101 "
b101 "
b10 $
b0 $
0!
1)
#400975
0@
#400985
0B
#400995
1C
#401005
0A
#401140
00
#401283
01
#401912
x'
#402371
0%
#405000
1!
0)
#406140
10
#406283
11
#407267
18
#407332
1;
#407335
07
13
#407906
08
#408094
16
1<
#410000
b10 $
0!
1)
#410975
1@
#411140
00
#411283
01
#412221
1&
#412644
1(
#415000
1!
0)
#416140
10
#416283
11
#417232
1=
#417267
18
#417269
02
x:
#417795
1>
#417839
x;
03
#418094
19
x?
x<
x6
#418744
x=
#418751
1:
#418904
x8
#418916
x2
#419307
x>
#419321
1;
#419486
x3
#420000
b11 $
b1 $
0!
1)
#420975
0@
#421005
1A
#421140
00
#421283
01
#421912
1'
#422221
x&
#422371
x%
#422644
x(
#425000
1!
0)
#426140
10
#426283
11
#427232
0=
#427267
08
#427332
x;
#427334
0:
#427336
02
#428094
09
#428751
17
#429322
18
#430000
b11 $
0!
1)
#430975
1@
#431140
00
#431283
01
#431912
0'
#435000
1!
0)
#436140
10
#436283
11
#437234
0>
#437267
x8
#437269
12
1:
#437839
03
#438094
x9
0?
#439212
0;
#439221
x3
#440000
b1101 "
b10 $
b0 $
0!
1)
#440975
0@
#440985
1B
#441005
0A
#441140
00
#441283
01
#441912
x'
#442371
0%
#445000
1!
0)
#446140
10
#446283
11
#447244
1=
#447267
18
#447332
1;
#447335
07
13
#447807
1>
#447906
08
#448094
16
1<
x?
#450000
b10 $
0!
1)
#450975
1@
#451140
00
#451283
01
#452221
1&
#452371
x%
#452644
1(
#455000
1!
0)
#456140
10
#456283
11
#457267
18
#457269
x2
x:
#457839
x;
x3
#458094
19
1?
x<
x6
#458744
x=
#458751
1:
#458904
x8
#458916
12
#459307
x>
#459321
1;
#459486
13
#460000
b11 $
b1 $
0!
1)
#460975
0@
#461005
1A
#461140
00
#461283
01
#461912
1'
#462221
x&
#462371
1%
#462644
x(
#465000
1!
0)
#466140
10
#466283
11
#467244
0=
#467267
08
#467334
0:
#467336
02
#467807
0>
#467904
x;
#467906
x3
#468094
09
x?
#468487
x>
#468751
17
#469322
18
#470000
b11 $
0!
1)
#470975
1@
#471140
00
#471283
01
#471912
0'
#472371
x%
#475000
1!
0)
#476140
10
#476283
11
#477234
0>
#477267
x8
#477269
12
1:
#477839
03
#478094
x9
0?
#479212
0;
#479221
x3
#480000
b1111 "
b1011 "
b11 "
b10 $
b0 $
0!
1)
#480975
0@
#480985
0B
1D
#480995
0C
#481005
0A
#481140
00
#481283
01
#481912
x'
#482371
0%
#485000
1!
0)
#486140
10
#486283
11
#487267
18
#487269
0:
#487332
1;
#487335
13
#487839
0;
#488094
16
19
#490000
b10 $
0!
1)
#490975
1@
#491140
00
#491283
01
#491912
1'
#492644
1(
#495000
1!
0)
#496140
10
#496283
11
#497232
x=
#497267
x8
#497269
02
07
1:
#497795
x>
#497839
1;
03
#497840
18
#498094
x9
x?
x6
#498751
x:
#498904
x8
#498916
x2
#499321
x;
#499486
x3
#500000
b11 $
b1 $
0!
1)
#500975
0@
#501005
1A
#501140
00
#501283
01
#501912
x'
#502371
x%
#502644
x(
#505000
1!
0)
#506140
10
#506283
11
#507232
0=
#507267
08
#507269
0:
#507335
x7
#507336
02
#507906
x8
#510000
b11 $
0!
1)
#510975
1@
#511140
00
#511283
01
#515000
1!
0)
#516140
10
#516283
11
#517234
0>
#517269
12
17
1:
#518094
0?
#519212
0;
#520000
b1011 "
b10 $
b0 $
0!
1)
#520975
0@
#520985
1B
#521005
0A
#521140
00
#521283
01
#522371
0%
#525000
1!
0)
#526140
10
#526283
11
#527244
1=
#527267
18
#527269
0:
#527332
1;
#527335
13
#527807
1>
#527839
0;
#528094
16
19
x?
#530000
b10 $
0!
1)
#530975
1@
#531140
00
#531283
01
#531912
1'
#532371
x%
#532644
1(
#535000
1!
0)
#536140
10
#536283
11
#537232
x=
#537267
x8
#537269
x2
07
1:
#537795
x>
#537839
1;
x3
#537840
18
#538094
x9
x6
#538751
x:
#538904
x8
#539321
x;
#540000
b11 $
b1 $
0!
1)
#540975
0@
#541005
1A
#541140
00
#541283
01
#541912
x'
#542644
x(
#545000
1!
0)
#546140
10
#546283
11
#547244
0=
#547267
08
#547269
0:
#547335
x7
#547336
02
#547906
x8
#550000
b11 $
0!
1)
#550975
1@
#551140
00
#551283
01
#555000
1!
0)
#556140
10
#556283
11
#557234
0>
#557269
12
17
1:
#558094
0?
#559212
0;
#560000
b1111 "
b111 "
b10 $
b0 $
0!
1)
#560975
0@
#560985
0B
#560995
1C
#561005
0A
#561140
00
#561283
01
#562371
0%
#565000
1!
0)
#566140
10
#566283
11
#567267
18
#567332
1;
#567335
13
#568094
16
19
1<
#570000
b10 $
0!
1)
#570975
1@
#571140
00
#571283
01
#571912
1'
#572221
1&
#572644
1(
#575000
1!
0)
#576140
10
#576283
11
#577232
1=
#577269
02
07
#577795
1>
#577839
03
#578094
x?
x6
#578904
x8
#578916
x2
#579486
x3
#580000
b11 $
b1 $
0!
1)
#580975
0@
#581005
1A
#581140
00
#581283
01
#582371
x%
#582644
x(
#585000
1!
0)
#586140
10
#586283
11
#587232
0=
#587267
08
#587332
x;
#587334
0:
#587336
02
#587795
x>
#587904
0;
#588094
09
x<
#588487
x;
#588751
17
#589322
18
#590000
b11 $
0!
1)
#590975
1@
#591140
00
#591283
01
#591912
0'
#592221
x&
#595000
1!
0)
#596140
10
#596283
11
#597234
0>
#597267
x8
#597269
12
1:
#597839
03
#598094
x9
0?
#599212
0;
#599221
x3
#600000
b1111 "
b10 $
b0 $
0!
1)
#600975
0@
#600985
1B
#601005
0A
#601140
00
#601283
01
#601912
x'
#602371
0%
#605000
1!
0)
#606140
10
#606283
11
#607244
1=
#607267
18
#607332
1;
#607335
13
#607807
1>
#608094
16
19
1<
x?
#610000
b10 $
0!
1)
#610975
1@
#611140
00
#611283
01
#611912
1'
#612221
1&
#612371
x%
#612644
1(
#615000
1!
0)
#616140
10
#616283
11
#617269
x2
07
#617839
x3
#618094
1?
x6
#618904
x8
#618916
12
#619486
13
#620000
b11 $
b1 $
0!
1)
#620975
0@
#621005
1A
#621140
00
#621283
01
#622371
1%
#622644
x(
#625000
1!
0)
#626140
10
#626283
11
#627244
0=
#627267
08
#627334
0:
#627336
02
#627807
0>
#627904
0;
#627906
x3
#628094
09
x?
x<
#628487
x;
x>
#628751
17
#629322
18
#630000
b11 $
0!
1)
#630975
1@
#631140
00
#631283
01
#631912
0'
#632221
x&
#632371
x%
#635000
1!
0)
#636140
10
#636283
11
#637234
0>
#637267
x8
#637269
12
1:
#637839
03
#638094
x9
0?
#639212
0;
#639221
x3
#640000
b1110 "
b1100 "
b1000 "
b0 "
b10 $
b0 $
0!
1)
#640975
0@
#640985
0B
0D
#640995
0C
0E
#641005
0A
#641140
00
#641283
01
#641912
x'
#642371
0%
#645000
1!
0)
#646140
10
#646283
11
#647267
18
#647269
02
0:
#647332
1;
#647335
07
13
#647839
0;
03
#647906
08
#650000
b10 $
0!
1)
#650975
1@
#651140
00
#651283
01
#655000
1!
0)
#656140
10
#656283
11
#657232
x=
#657267
x8
#657269
x:
#657795
x>
#657839
x;
#658094
06
x?
#658904
08
#658916
x2
#659486
x3
#660000
b11 $
b1 $
0!
1)
#660975
0@
#661005
1A
#661140
00
#661283
01
#662371
x%
#662644
0(
#665000
1!
0)
#666140
10
#666283
11
#667232
0=
#667269
02
0:
#667335
x7
#667839
13
#667906
x8
#668094
x6
#668487
x3
#670000
b11 $
0!
1)
#670975
1@
#671140
00
#671283
01
#672644
x(
#675000
1!
0)
#676140
10
#676283
11
#677234
0>
#677269
12
17
1:
#678094
0?
#679212
0;
#680000
b1000 "
b10 $
b0 $
0!
1)
#680975
0@
#680985
1B
#681005
0A
#681140
00
#681283
01
#682371
0%
#685000
1!
0)
#686140
10
#686283
11
#687244
1=
#687267
18
#687269
02
0:
#687332
1;
#687335
07
13
#687807
1>
#687839
0;
03
#687906
08
#688094
x?
#690000
b10 $
0!
1)
#690975
1@
#691140
00
#691283
01
#692371
x%
#695000
1!
0)
#696140
10
#696283
11
#697232
x=
#697267
x8
#697269
x2
x:
#697795
x>
#697839
x;
x3
#700000
b11 $
b1 $
0!
1)
#700975
0@
#701005
1A
#701140
00
#701283
01
#705000
1!
0)
#706140
10
#706283
11
#707244
0=
#707267
08
#707269
02
0:
#707335
x7
#707906
x8
#710000
b11 $
0!
1)
#710975
1@
#711140
00
#711283
01
#715000
1!
0)
#716140
10
#716283
11
#717234
0>
#717269
12
17
1:
#718094
0?
#719212
0;
#720000
b1100 "
b100 "
b10 $
b0 $
0!
1)
#720975
0@
#720985
0B
#720995
1C
#721005
0A
#721140
00
#721283
01
#722371
0%
#725000
1!
0)
#726140
10
#726283
11
#727267
18
#727269
02
#727332
1;
#727335
07
13
#727839
03
#727906
08
#728094
1<
#730000
b10 $
0!
1)
#730975
1@
#731140
00
#731283
01
#732221
1&
#735000
1!
0)
#736140
10
#736283
11
#737232
1=
#737267
x8
#737269
x:
#737795
1>
#737839
x;
#738094
06
x?
x<
#738744
x=
#738904
08
#738916
x2
#739307
x>
#739486
x3
#740000
b11 $
b1 $
0!
1)
#740975
0@
#741005
1A
#741140
00
#741283
01
#742221
x&
#742371
x%
#742644
0(
#745000
1!
0)
#746140
10
#746283
11
#747232
0=
#747269
02
#747334
0:
#747335
x7
#747839
13
#747906
x8
#748094
x6
#748487
x3
#750000
b11 $
0!
1)
#750975
1@
#751140
00
#751283
01
#752644
x(
#755000
1!
0)
#756140
10
#756283
11
#757234
0>
#757269
12
17
1:
#758094
0?
#759212
0;
#760000
b1100 "
b10 $
b0 $
0!
1)
#760975
0@
#760985
1B
#761005
0A
#761140
00
#761283
01
#762371
0%
#765000
1!
0)
#766140
10
#766283
11
#767244
1=
#767267
18
#767269
02
#767332
1;
#767335
07
13
#767807
1>
#767839
03
#767906
08
#768094
1<
x?
#770000
b10 $
0!
1)
#770975
1@
#771140
00
#771283
01
#772221
1&
#772371
x%
#775000
1!
0)
#776140
10
#776283
11
#777267
x8
#777269
x2
x:
#777839
x;
x3
#778094
1?
x<
#778744
x=
#778916
12
#779307
x>
#779486
13
#780000
b11 $
b1 $
0!
1)
#780975
0@
#781005
1A
#781140
00
#781283
01
#782221
x&
#782371
1%
#785000
1!
0)
#786140
10
#786283
11
#787244
0=
#787267
08
#787269
02
#787334
0:
#787335
x7
x3
#787807
0>
#787906
x8
#788094
x?
#788487
x>
#790000
b11 $
0!
1)
#790975
1@
#791140
00
#791283
01
#792371
x%
#795000
1!
0)
#796140
10
#796283
11
#797234
0>
#797269
12
17
1:
#798094
0?
#799212
0;
#800000
b1110 "
b1010 "
b10 "
b10 $
b0 $
0!
1)
#800975
0@
#800985
0B
1D
#800995
0C
#801005
0A
#801140
00
#801283
01
#802371
0%
#805000
1!
0)
#806140
10
#806283
11
#807267
18
#807269
02
0:
#807332
1;
#807335
13
#807839
0;
03
#808094
19
#810000
b10 $
0!
1)
#810975
1@
#811140
00
#811283
01
#811912
1'
#815000
1!
0)
#816140
10
#816283
11
#817232
x=
#817267
x8
#817269
07
1:
#817795
x>
#817839
1;
#818094
06
x9
x?
#818751
x:
#818904
08
#818916
x2
#819321
x;
#819486
x3
#820000
b11 $
b1 $
0!
1)
#820975
0@
#821005
1A
#821140
00
#821283
01
#821912
x'
#822371
x%
#822644
0(
#825000
1!
0)
#826140
10
#826283
11
#827232
0=
#827269
02
0:
#827335
x7
#827839
13
#827906
x8
#828094
x6
#828487
x3
#830000
b11 $
0!
1)
#830975
1@
#831140
00
#831283
01
#832644
x(
#835000
1!
0)
#836140
10
#836283
11
#837234
0>
#837269
12
17
1:
#838094
0?
#839212
0;
#840000
b1010 "
b10 $
b0 $
0!
1)
#840975
0@
#840985
1B
#841005
0A
#841140
00
#841283
01
#842371
0%
#845000
1!
0)
#846140
10
#846283
11
#847244
1=
#847267
18
#847269
02
0:
#847332
1;
#847335
13
#847807
1>
#847839
0;
03
#848094
19
x?
#850000
b10 $
0!
1)
#850975
1@
#851140
00
#851283
01
#851912
1'
#852371
x%
#855000
1!
0)
#856140
10
#856283
11
#857232
x=
#857267
x8
#857269
x2
07
1:
#857795
x>
#857839
1;
x3
#858094
x9
#858751
x:
#859321
x;
#860000
b11 $
b1 $
0!
1)
#860975
0@
#861005
1A
#861140
00
#861283
01
#861912
x'
#865000
1!
0)
#866140
10
#866283
11
#867244
0=
#867267
08
#867269
02
0:
#867335
x7
#867906
x8
#870000
b11 $
0!
1)
#870975
1@
#871140
00
#871283
01
#875000
1!
0)
#876140
10
#876283
11
#877234
0>
#877269
12
17
1:
#878094
0?
#879212
0;
#880000
b1110 "
b110 "
b10 $
b0 $
0!
1)
#880975
0@
#880985
0B
#880995
1C
#881005
0A
#881140
00
#881283
01
#882371
0%
#885000
1!
0)
#886140
10
#886283
11
#887267
18
#887269
02
#887332
1;
#887335
13
#887839
03
#888094
19
1<
#890000
b10 $
0!
1)
#890975
1@
#891140
00
#891283
01
#891912
1'
#892221
1&
#895000
1!
0)
#896140
10
#896283
11
#897232
1=
#897269
07
#897795
1>
#897840
x8
#898094
06
x?
x9
#898751
x:
#898904
08
#898916
x2
#899321
x;
#899486
x3
#900000
b11 $
b1 $
0!
1)
#900975
0@
#901005
1A
#901140
00
#901283
01
#901912
x'
#902371
x%
#902644
0(
#905000
1!
0)
#906140
10
#906283
11
#907232
0=
#907269
02
#907334
0:
#907335
x7
#907795
x>
#907839
13
#907904
0;
#907906
x8
#908094
x6
x<
#908487
x;
x3
#910000
b11 $
0!
1)
#910975
1@
#911140
00
#911283
01
#912221
x&
#912644
x(
#915000
1!
0)
#916140
10
#916283
11
#917234
0>
#917269
12
17
1:
#918094
0?
#919212
0;
#920000
b1110 "
b10 $
b0 $
0!
1)
#920975
0@
#920985
1B
#921005
0A
#921140
00
#921283
01
#922371
0%
#925000
1!
0)
#926140
10
#926283
11
#927244
1=
#927267
18
#927269
02
#927332
1;
#927335
13
#927807
1>
#927839
03
#928094
19
1<
x?
#930000
b10 $
0!
1)
#930975
1@
#931140
00
#931283
01
#931912
1'
#932221
1&
#932371
x%
#935000
1!
0)
#936140
10
#936283
11
#937269
x2
07
#937839
x3
#937840
x8
#938094
1?
x9
#938751
x:
#938916
12
#939321
x;
#939486
13
#940000
b11 $
b1 $
0!
1)
#940975
0@
#941005
1A
#941140
00
#941283
01
#941912
x'
#942371
1%
#945000
1!
0)
#946140
10
#946283
11
#947244
0=
#947267
08
#947269
02
#947334
0:
#947335
x7
x3
#947807
0>
#947904
0;
#947906
x8
#948094
x<
x?
#948487
x>
x;
#950000
b11 $
0!
1)
#950975
1@
#951140
00
#951283
01
#952221
x&
#952371
x%
#955000
1!
0)
#956140
10
#956283
11
#957234
0>
#957269
12
17
1:
#958094
0?
#959212
0;
#960000
b1111 "
b1101 "
b1001 "
b1 "
b10 $
b0 $
0!
1)
#960975
0@
#960985
0B
0D
#960995
0C
1E
#961005
0A
#961140
00
#961283
01
#962371
0%
#965000
1!
0)
#966140
10
#966283
11
#967267
18
#967269
0:
#967332
1;
#967335
07
13
#967839
0;
#967906
08
#968094
16
#970000
b10 $
0!
1)
#970975
1@
#971140
00
#971283
01
#972644
1(
#975000
1!
0)
#976140
10
#976283
11
#977232
x=
#977267
18
#977269
02
x:
#977795
x>
#977839
x;
03
#978094
19
x?
x6
#978751
1:
#978904
x8
#978916
x2
#979321
1;
#979486
x3
#980000
b11 $
b1 $
0!
1)
#980975
0@
#981005
1A
#981140
00
#981283
01
#981912
1'
#982371
x%
#982644
x(
#985000
1!
0)
#986140
10
#986283
11
#987232
0=
#987267
08
#987269
0:
#987332
x;
#987336
02
#988094
09
#988751
17
#989322
18
#990000
b11 $
0!
1)
#990975
1@
#991140
00
#991283
01
#991912
0'
#995000
1!
0)
#996140
10
#996283
11
#997234
0>
#997267
x8
#997269
12
1:
#997839
03
#998094
x9
0?
#999212
0;
#999221
x3
