CourseWorkLebibop/Coursework/simulation/qsim/Coursework.msim.vcd
$comment
	File created using the following command:
		vcd file Coursework.msim.vcd -direction
$end
$date
	Sat May 04 15:52:45 2024
$end
$version
	ModelSim Version 10.1d
$end
$timescale
	1ps
$end
$scope module Coursework_vlg_vec_tst $end
$var reg 1 ! c $end
$var reg 1 " load $end
$var reg 1 # reset $end
$var reg 1 $ speed $end
$var reg 1 % start $end
$var reg 1 & stop $end
$var reg 12 ' x [11:0] $end
$var wire 1 ( c_M $end
$var wire 1 ) d_s [2] $end
$var wire 1 * d_s [1] $end
$var wire 1 + d_s [0] $end
$var wire 1 , data [14] $end
$var wire 1 - data [13] $end
$var wire 1 . data [12] $end
$var wire 1 / data [11] $end
$var wire 1 0 data [10] $end
$var wire 1 1 data [9] $end
$var wire 1 2 data [8] $end
$var wire 1 3 data [7] $end
$var wire 1 4 data [6] $end
$var wire 1 5 data [5] $end
$var wire 1 6 data [4] $end
$var wire 1 7 data [3] $end
$var wire 1 8 data [2] $end
$var wire 1 9 data [1] $end
$var wire 1 : data [0] $end
$var wire 1 ; ready $end
$var wire 1 < serial_code $end
$var wire 1 = sampler $end
$scope module i1 $end
$var wire 1 > gnd $end
$var wire 1 ? vcc $end
$var wire 1 @ unknown $end
$var tri1 1 A devclrn $end
$var tri1 1 B devpor $end
$var tri1 1 C devoe $end
$var wire 1 D inst16|inst1|LPM_COUNTER_component|auto_generated|counter_comb_bita3~combout $end
$var wire 1 E inst|inst10~1_combout $end
$var wire 1 F inst12|inst|LPM_MUX_component|auto_generated|result_node[0]~clkctrl_outclk $end
$var wire 1 G inst12|inst3~0_combout $end
$var wire 1 H inst12|inst3~regout $end
$var wire 1 I inst12|inst5~0_combout $end
$var wire 1 J inst12|inst5~regout $end
$var wire 1 K inst12|inst4~0_combout $end
$var wire 1 L inst12|inst4~regout $end
$var wire 1 M inst19|LPM_SHIFTREG_component|dffs[0]~feeder_combout $end
$var wire 1 N inst16|inst1|LPM_COUNTER_component|auto_generated|counter_comb_bita0~combout $end
$var wire 1 O stop~combout $end
$var wire 1 P inst16|inst1|LPM_COUNTER_component|auto_generated|counter_comb_bita0~COUT $end
$var wire 1 Q inst16|inst1|LPM_COUNTER_component|auto_generated|counter_comb_bita1~COUT $end
$var wire 1 R inst16|inst1|LPM_COUNTER_component|auto_generated|counter_comb_bita2~combout $end
$var wire 1 S inst16|inst1|LPM_COUNTER_component|auto_generated|counter_comb_bita2~COUT $end
$var wire 1 T inst16|inst1|LPM_COUNTER_component|auto_generated|counter_comb_bita3~COUT $end
$var wire 1 U inst16|inst1|LPM_COUNTER_component|auto_generated|counter_comb_bita4~combout $end
$var wire 1 V reset~combout $end
$var wire 1 W inst16|inst1|LPM_COUNTER_component|auto_generated|counter_comb_bita1~combout $end
$var wire 1 X inst16|inst2|LPM_DECODE_component|auto_generated|w_anode208w[3]~0_combout $end
$var wire 1 Y inst4~combout $end
$var wire 1 Z speed~combout $end
$var wire 1 [ inst12|inst|LPM_MUX_component|auto_generated|_~0_combout $end
$var wire 1 \ c~combout $end
$var wire 1 ] start~combout $end
$var wire 1 ^ inst3~combout $end
$var wire 1 _ inst17|LPM_SHIFTREG_component|dffs[14]~34_combout $end
$var wire 1 ` inst17|LPM_SHIFTREG_component|dffs[0]~1_combout $end
$var wire 1 a inst20|LPM_SHIFTREG_component|dffs[3]~feeder_combout $end
$var wire 1 b reset~clkctrl_outclk $end
$var wire 1 c load~combout $end
$var wire 1 d inst20|LPM_SHIFTREG_component|dffs[6]~feeder_combout $end
$var wire 1 e inst20|LPM_SHIFTREG_component|dffs[10]~feeder_combout $end
$var wire 1 f inst20|LPM_SHIFTREG_component|dffs[1]~feeder_combout $end
$var wire 1 g inst20|LPM_SHIFTREG_component|dffs[2]~feeder_combout $end
$var wire 1 h inst|inst10~2_combout $end
$var wire 1 i inst20|LPM_SHIFTREG_component|dffs[11]~feeder_combout $end
$var wire 1 j inst|inst10~0_combout $end
$var wire 1 k inst|inst10~3_combout $end
$var wire 1 l inst17|LPM_SHIFTREG_component|dffs[14]~48_combout $end
$var wire 1 m inst17|LPM_SHIFTREG_component|dffs[0]~0_combout $end
$var wire 1 n inst17|LPM_SHIFTREG_component|dffs[14]~_emulated_regout $end
$var wire 1 o inst17|LPM_SHIFTREG_component|dffs[14]~30_combout $end
$var wire 1 p inst17|LPM_SHIFTREG_component|dffs[13]~29_combout $end
$var wire 1 q inst17|LPM_SHIFTREG_component|dffs[13]~_emulated_regout $end
$var wire 1 r inst17|LPM_SHIFTREG_component|dffs[13]~28_combout $end
$var wire 1 s inst17|LPM_SHIFTREG_component|dffs[12]~27_combout $end
$var wire 1 t inst17|LPM_SHIFTREG_component|dffs[12]~_emulated_regout $end
$var wire 1 u inst17|LPM_SHIFTREG_component|dffs[12]~26_combout $end
$var wire 1 v inst17|LPM_SHIFTREG_component|dffs[11]~25_combout $end
$var wire 1 w inst17|LPM_SHIFTREG_component|dffs[11]~_emulated_regout $end
$var wire 1 x inst17|LPM_SHIFTREG_component|dffs[11]~24_combout $end
$var wire 1 y inst17|LPM_SHIFTREG_component|dffs[10]~23_combout $end
$var wire 1 z inst17|LPM_SHIFTREG_component|dffs[10]~_emulated_regout $end
$var wire 1 { inst17|LPM_SHIFTREG_component|dffs[10]~22_combout $end
$var wire 1 | inst17|LPM_SHIFTREG_component|dffs[9]~21_combout $end
$var wire 1 } inst17|LPM_SHIFTREG_component|dffs[9]~_emulated_regout $end
$var wire 1 ~ inst17|LPM_SHIFTREG_component|dffs[9]~20_combout $end
$var wire 1 !! inst17|LPM_SHIFTREG_component|dffs[8]~19_combout $end
$var wire 1 "! inst17|LPM_SHIFTREG_component|dffs[8]~_emulated_regout $end
$var wire 1 #! inst17|LPM_SHIFTREG_component|dffs[8]~18_combout $end
$var wire 1 $! inst17|LPM_SHIFTREG_component|dffs[7]~17_combout $end
$var wire 1 %! inst17|LPM_SHIFTREG_component|dffs[7]~_emulated_regout $end
$var wire 1 &! inst17|LPM_SHIFTREG_component|dffs[7]~16_combout $end
$var wire 1 '! inst20|LPM_SHIFTREG_component|dffs[5]~feeder_combout $end
$var wire 1 (! inst17|LPM_SHIFTREG_component|dffs[6]~15_combout $end
$var wire 1 )! inst17|LPM_SHIFTREG_component|dffs[6]~_emulated_regout $end
$var wire 1 *! inst17|LPM_SHIFTREG_component|dffs[6]~14_combout $end
$var wire 1 +! inst17|LPM_SHIFTREG_component|dffs[5]~13_combout $end
$var wire 1 ,! inst17|LPM_SHIFTREG_component|dffs[5]~_emulated_regout $end
$var wire 1 -! inst17|LPM_SHIFTREG_component|dffs[5]~12_combout $end
$var wire 1 .! inst17|LPM_SHIFTREG_component|dffs[4]~11_combout $end
$var wire 1 /! inst17|LPM_SHIFTREG_component|dffs[4]~_emulated_regout $end
$var wire 1 0! inst17|LPM_SHIFTREG_component|dffs[4]~10_combout $end
$var wire 1 1! inst17|LPM_SHIFTREG_component|dffs[3]~9_combout $end
$var wire 1 2! inst17|LPM_SHIFTREG_component|dffs[3]~_emulated_regout $end
$var wire 1 3! inst17|LPM_SHIFTREG_component|dffs[3]~8_combout $end
$var wire 1 4! inst17|LPM_SHIFTREG_component|dffs[2]~7_combout $end
$var wire 1 5! inst17|LPM_SHIFTREG_component|dffs[2]~_emulated_regout $end
$var wire 1 6! inst17|LPM_SHIFTREG_component|dffs[2]~6_combout $end
$var wire 1 7! inst17|LPM_SHIFTREG_component|dffs[1]~5_combout $end
$var wire 1 8! inst17|LPM_SHIFTREG_component|dffs[1]~_emulated_regout $end
$var wire 1 9! inst17|LPM_SHIFTREG_component|dffs[1]~4_combout $end
$var wire 1 :! inst17|LPM_SHIFTREG_component|dffs[0]~3_combout $end
$var wire 1 ;! inst17|LPM_SHIFTREG_component|dffs[0]~_emulated_regout $end
$var wire 1 <! inst17|LPM_SHIFTREG_component|dffs[0]~2_combout $end
$var wire 1 =! c~clkctrl_outclk $end
$var wire 1 >! inst20|LPM_SHIFTREG_component|dffs[0]~feeder_combout $end
$var wire 1 ?! inst16|inst2|LPM_DECODE_component|auto_generated|w_anode17w [3] $end
$var wire 1 @! inst16|inst2|LPM_DECODE_component|auto_generated|w_anode17w [2] $end
$var wire 1 A! inst16|inst2|LPM_DECODE_component|auto_generated|w_anode17w [1] $end
$var wire 1 B! inst16|inst2|LPM_DECODE_component|auto_generated|w_anode17w [0] $end
$var wire 1 C! inst12|inst|LPM_MUX_component|auto_generated|result_node [0] $end
$var wire 1 D! inst19|LPM_SHIFTREG_component|dffs [2] $end
$var wire 1 E! inst19|LPM_SHIFTREG_component|dffs [1] $end
$var wire 1 F! inst19|LPM_SHIFTREG_component|dffs [0] $end
$var wire 1 G! x~combout [11] $end
$var wire 1 H! x~combout [10] $end
$var wire 1 I! x~combout [9] $end
$var wire 1 J! x~combout [8] $end
$var wire 1 K! x~combout [7] $end
$var wire 1 L! x~combout [6] $end
$var wire 1 M! x~combout [5] $end
$var wire 1 N! x~combout [4] $end
$var wire 1 O! x~combout [3] $end
$var wire 1 P! x~combout [2] $end
$var wire 1 Q! x~combout [1] $end
$var wire 1 R! x~combout [0] $end
$var wire 1 S! inst20|LPM_SHIFTREG_component|dffs [11] $end
$var wire 1 T! inst20|LPM_SHIFTREG_component|dffs [10] $end
$var wire 1 U! inst20|LPM_SHIFTREG_component|dffs [9] $end
$var wire 1 V! inst20|LPM_SHIFTREG_component|dffs [8] $end
$var wire 1 W! inst20|LPM_SHIFTREG_component|dffs [7] $end
$var wire 1 X! inst20|LPM_SHIFTREG_component|dffs [6] $end
$var wire 1 Y! inst20|LPM_SHIFTREG_component|dffs [5] $end
$var wire 1 Z! inst20|LPM_SHIFTREG_component|dffs [4] $end
$var wire 1 [! inst20|LPM_SHIFTREG_component|dffs [3] $end
$var wire 1 \! inst20|LPM_SHIFTREG_component|dffs [2] $end
$var wire 1 ]! inst20|LPM_SHIFTREG_component|dffs [1] $end
$var wire 1 ^! inst20|LPM_SHIFTREG_component|dffs [0] $end
$var wire 1 _! inst16|inst1|LPM_COUNTER_component|auto_generated|safe_q [4] $end
$var wire 1 `! inst16|inst1|LPM_COUNTER_component|auto_generated|safe_q [3] $end
$var wire 1 a! inst16|inst1|LPM_COUNTER_component|auto_generated|safe_q [2] $end
$var wire 1 b! inst16|inst1|LPM_COUNTER_component|auto_generated|safe_q [1] $end
$var wire 1 c! inst16|inst1|LPM_COUNTER_component|auto_generated|safe_q [0] $end
$upscope $end
$upscope $end
$enddefinitions $end
#0
$dumpvars
0!
0"
0#
0$
0%
0&
b0 '
x(
x+
x*
x)
0:
x9
x8
x7
x6
x5
x4
x3
x2
x1
x0
x/
x.
x-
1,
x;
x<
x=
0>
1?
x@
1A
1B
1C
xD
xE
xF
1G
0H
xI
0J
1K
0L
xM
xN
0O
xP
xQ
xR
xS
xT
xU
0V
xW
xX
xY
0Z
x[
0\
0]
x^
x_
x`
xa
xb
0c
xd
xe
xf
xg
xh
xi
xj
xk
xl
xm
xn
xo
xp
xq
xr
xs
xt
xu
xv
xw
xx
xy
xz
x{
x|
x}
x~
x!!
x"!
x#!
x$!
x%!
x&!
x'!
x(!
x)!
x*!
x+!
x,!
x-!
x.!
x/!
x0!
x1!
x2!
x3!
x4!
x5!
x6!
x7!
x8!
x9!
x:!
x;!
x<!
x=!
x>!
zB!
zA!
z@!
x?!
xC!
xF!
xE!
xD!
0R!
0Q!
0P!
0O!
0N!
0M!
0L!
0K!
0J!
0I!
0H!
0G!
x^!
x]!
x\!
x[!
xZ!
xY!
xX!
xW!
xV!
xU!
xT!
xS!
xc!
xb!
xa!
x`!
x_!
$end
#143
0b
0=!
#267
0n
0`!
0c!
0a!
0_!
0b!
0F!
0E!
0D!
0[!
0X!
0W!
0V!
0T!
0]!
0\!
0S!
0U!
0q
0t
0w
0z
0}
0"!
0%!
0Y!
0)!
0Z!
0,!
0/!
02!
05!
08!
0;!
0^!
#632
0I
#920
0^
#1277
1X
#1316
0P
0S
#1344
1N
#1360
1T
1Q
#1600
0E
#1606
0h
#1648
1[
#1684
0j
#1822
0D
0W
#1866
0R
0U
0?!
#2250
0k
#2622
0C!
#2850
0Y
#3150
0_
#4052
0F
#4105
1m
#4389
0*
#4444
07
1o
#4459
06
#4489
09
#4528
0/
#4555
1&!
#4571
16!
#4572
1<!
10!
#4573
1*!
#4576
19!
#4577
13!
#4579
1-!
#4758
1`
#4771
0+
#4778
03
#4851
0)
#4899
00
#4917
1{
#4918
0.
1~
#4919
1r
1x
#4921
1u
1#!
#4969
05
#5255
08
#5265
04
#5303
1;
#5472
0g
#5474
0a
#5479
0i
#5618
02
#5670
01
#5912
0l
#5941
0f
#5946
0d
#5956
0e
#6034
11!
#6218
0'!
#6330
0>!
#6418
0-
#6504
1:!
#6507
1.!
#6509
1(!
#6511
1+!
#6563
1y
#6565
1v
1!!
#6567
1s
#6568
1p
1|
1$!
#6680
0M
#7305
17!
#7306
14!
#7475
0(
#8273
1<
#40000
1!
1"
b10000000000 '
b10010000000 '
b10011000000 '
b10011100000 '
b10011101000 '
b10011101001 '
0=
#40975
1R!
#40994
1K!
#40995
1M!
1O!
#41004
1L!
1c
#41014
1H!
#41140
1\
#41283
1=!
#46469
1a
#46950
1d
#46970
1e
#47213
1'!
#47305
1>!
#47655
1M
#80000
0!
1=
#81140
0\
#81283
0=!
#83096
1^!
1Y!
1T!
1W!
1X!
1[!
#83741
1j
#84307
1k
#84429
1E
#84842
0(!
#84876
0.!
#85001
07!
#85204
0!!
#85467
0k
#85685
0v
#85944
0$!
#87288
16
#87318
19
#87357
1/
#87607
13
#88094
14
#88447
12
#120000
1%
1$
b10011101011 '
0"
b11101011 '
b11001011 '
b11000011 '
b11000010 '
1!
0=
#120975
0R!
#120984
1Q!
#120985
1Z
#120995
0M!
0O!
#121004
0c
#121014
0H!
#121025
1]
#121140
1\
#121283
1=!
#126469
0a
#126925
1f
#126970
0e
#127213
0'!
#127305
0>!
#127655
0M
#160000
0!
1=
#161140
0\
#161283
0=!
#164142
1D!
1E!
#164535
1_
#164795
1^
#165382
1C!
#165490
0m
#166453
1L
#166759
1H
#166812
1F
#166846
0K
#167152
0G
#167391
1I
#168264
1*
#168625
1c!
1q
1t
1z
1}
1,!
12!
15!
1;!
#168726
1)
#169261
0<!
#169264
03!
#169265
0r
#169266
0-!
0~
0{
#169267
06!
#169269
0u
#169278
0X
#169674
1P
#169702
0N
#169867
1?!
#170180
1W
#170235
1(
#170482
0:!
#170732
1v
#170733
0y
1!!
#170734
0p
#170886
0+!
#170887
1.!
#170888
01!
17!
#172962
0<
#173304
0;
#200000
b1000010 '
b10 '
0%
0$
b0 '
b100000 '
1!
0=
#200984
0Q!
#200985
0Z
#200994
0K!
#200995
1M!
#201004
0L!
#201025
0]
#201140
1\
#201283
1=!
#203825
0^
#204412
0C!
#205842
0F
#206925
0f
#206950
0d
#207213
1'!
#209265
0(
#240000
0!
1=
#241140
0\
#241283
0=!
#243825
1^
#244412
1C!
#245483
0L
#245789
0H
1J
#245842
1F
#245876
1K
#246182
0I
1G
#246421
1I
#247437
0[
#247655
0c!
1b!
0q
1w
0z
1"!
0,!
1/!
02!
18!
0;!
#248290
00!
#248291
1<!
#248294
13!
0#!
#248295
0x
1r
#248296
1-!
1{
#248299
09!
#248704
0P
#248732
1N
#249034
1:!
#249040
0|
1$!
#249154
04!
#249168
0.!
#249265
1(
#249277
11!
#249278
1y
#249287
0s
#251992
1<
#280000
b0 '
1!
0=
#280995
0M!
#281140
1\
#281283
1=!
#283825
0^
#284412
0C!
#285842
0F
#287213
0'!
#289265
0(
#320000
0!
1=
#321140
0\
#321283
0=!
#323825
1^
#324412
1C!
#325483
1L
#325789
1H
#325842
1F
#325876
0K
#326182
0G
#326421
0I
#327655
1c!
0t
1z
0}
1%!
0/!
12!
05!
1;!
#328290
10!
#328291
0<!
#328294
03!
#328296
1~
0{
#328297
16!
#328299
1u
#328595
0&!
#328704
1P
#328732
0N
#328790
0Q
#329040
1|
#329043
0v
0!!
#329154
14!
#329175
07!
#329210
0W
#329265
1(
#329277
01!
#329296
1R
#329953
1(!
#331992
0<
#360000
1!
0=
#361140
1\
#361283
1=!
#363825
0^
#364412
0C!
#365842
0F
#369265
0(
#400000
0!
1=
#401140
0\
#401283
0=!
#403825
1^
#404412
1C!
#405483
0L
#405789
0H
0J
#405842
1F
#405876
1K
#406182
1I
1G
#406421
0I
#407437
1[
#407655
0c!
1a!
0b!
0w
1}
0"!
1)!
02!
15!
08!
#408294
13!
1#!
#408295
1x
#408296
0~
#408297
06!
0*!
#408299
19!
#408704
0P
1S
#408731
0R
#408732
1N
#408748
1Q
#408834
0S
#409034
0:!
#409040
0$!
#409043
1!!
#409154
04!
#409175
17!
#409254
1R
#409265
1(
#409278
0y
#409283
1+!
#440000
1!
0=
#441140
1\
#441283
1=!
#443825
0^
#444412
0C!
#445842
0F
#449265
0(
#480000
0!
1=
#481140
0\
#481283
0=!
#483825
1^
#484412
1C!
#485483
1L
#485789
1H
#485842
1F
#485876
0K
#486182
0G
#486421
1I
#487655
1c!
0z
1"!
0%!
1,!
05!
18!
0;!
#488291
1<!
#488294
0#!
#488296
0-!
1{
#488297
16!
#488299
09!
#488595
1&!
#488704
1P
#488732
0N
#489034
1:!
#489040
0|
1$!
#489168
1.!
#489175
07!
#489210
1W
#489265
1(
#489953
0(!
#491992
1<
#520000
1!
0=
#521140
1\
#521283
1=!
#523825
0^
#524412
0C!
#525842
0F
#529265
0(
#560000
0!
1=
#561140
0\
#561283
0=!
#563825
1^
#564412
1C!
#565483
0L
#565789
0H
1J
#565842
1F
#565876
1K
#566182
0I
1G
#566421
1I
#567437
0[
#567655
0c!
1b!
0}
1%!
0)!
1/!
08!
1;!
#568290
00!
#568291
0<!
#568296
1~
#568297
1*!
#568299
19!
#568595
0&!
#568704
0P
#568732
1N
#569034
0:!
#569043
0!!
#569265
1(
#569277
11!
#569283
0+!
#569953
1(!
#571992
0<
#600000
1!
0=
#601140
1\
#601283
1=!
#603825
0^
#604412
0C!
#605842
0F
#609265
0(
#640000
0!
1=
#641140
0\
#641283
0=!
#643825
1^
#644412
1C!
#645483
1L
#645789
1H
#645842
1F
#645876
0K
#646182
0G
#646421
0I
#647655
1c!
0"!
1)!
0,!
12!
0;!
#648291
1<!
#648294
03!
1#!
#648296
1-!
#648297
0*!
#648704
1P
#648732
0N
#648790
0Q
#648876
1S
#649040
0$!
#649154
14!
#649168
0.!
#649210
0W
#649265
1(
#649283
1+!
#649296
0R
#649382
1D
#651992
1<
#680000
1!
0=
#681140
1\
#681283
1=!
#683825
0^
#684412
0C!
#685842
0F
#689265
0(
#720000
0!
1=
#721140
0\
#721283
0=!
#723825
1^
#724412
1C!
#725483
0L
#725789
0H
0J
#725842
1F
#725876
1K
#726182
1I
1G
#726421
0I
#727437
1[
#727655
1`!
0c!
0a!
0b!
0%!
1,!
0/!
15!
#728290
10!
#728296
0-!
#728297
06!
#728595
1&!
#728704
0P
0S
#728731
1R
#728732
1N
#728748
1Q
#729168
1.!
#729175
17!
#729254
0R
#729265
1(
#729277
01!
#729953
0(!
#760000
1!
0=
#761140
1\
#761283
1=!
#763825
0^
#764412
0C!
#765842
0F
#769265
0(
#800000
0!
1=
#801140
0\
#801283
0=!
#803825
1^
#804412
1C!
#805483
1L
#805789
1H
#805842
1F
#805876
0K
#806182
0G
#806421
1I
#807655
1c!
0)!
1/!
02!
18!
#808290
00!
#808294
13!
#808297
1*!
#808299
09!
#808704
1P
#808732
0N
#809034
1:!
#809154
04!
#809210
1W
#809265
1(
#809277
11!
#809283
0+!
#840000
1!
0=
#841140
1\
#841283
1=!
#843825
0^
#844412
0C!
#845842
0F
#849265
0(
#880000
0!
1=
#881140
0\
#881283
0=!
#883825
1^
#884412
1C!
#885483
0L
#885789
0H
1J
#885842
1F
#885876
1K
#886182
0I
1G
#886421
1I
#887437
0[
#887655
0c!
1b!
0,!
12!
05!
1;!
#888291
0<!
#888294
03!
#888296
1-!
#888297
16!
#888704
0P
#888732
1N
#889154
14!
#889168
0.!
#889175
07!
#889265
1(
#891992
0<
#920000
1!
0=
#921140
1\
#921283
1=!
#923825
0^
#924412
0C!
#925842
0F
#929265
0(
#960000
0!
1=
#961140
0\
#961283
0=!
#963825
1^
#964412
1C!
#965483
1L
#965789
1H
#965842
1F
#965876
0K
#966182
0G
#966421
0I
#967655
1c!
0/!
15!
08!
#968290
10!
#968297
06!
#968299
19!
#968704
1P
#968732
0N
#968790
0Q
#969034
0:!
#969175
17!
#969210
0W
#969265
1(
#969277
01!
#969296
1R
#1000000
1!
0=
#1001140
1\
#1001283
1=!
#1003825
0^
#1004412
0C!
#1005842
0F
#1009265
0(
#1040000
0!
1=
#1041140
0\
#1041283
0=!
#1043825
1^
#1044412
1C!
#1045483
0L
#1045789
0H
0J
#1045842
1F
#1045876
1K
#1046182
1I
1G
#1046421
0I
#1047437
1[
#1047655
0c!
1a!
0b!
02!
18!
0;!
#1048291
1<!
#1048294
13!
#1048299
09!
#1048704
0P
1S
#1048731
0R
#1048732
1N
#1048748
1Q
#1048790
0T
#1048834
0S
#1048920
1T
#1049034
1:!
#1049154
04!
#1049254
1R
#1049265
1(
#1051992
1<
#1080000
1!
0=
#1081140
1\
#1081283
1=!
#1083825
0^
#1084412
0C!
#1085842
0F
#1089265
0(
#1120000
0!
1=
#1121140
0\
#1121283
0=!
#1123825
1^
#1124412
1C!
#1125483
1L
#1125789
1H
#1125842
1F
#1125876
0K
#1126182
0G
#1126421
1I
#1127655
1c!
05!
1;!
#1128291
0<!
#1128297
16!
#1128704
1P
#1128732
0N
#1129175
07!
#1129210
1W
#1129265
1(
#1131992
0<
#1160000
1!
0=
#1161140
1\
#1161283
1=!
#1163825
0^
#1164412
0C!
#1165842
0F
#1169265
0(
#1200000
0!
1=
#1201140
0\
#1201283
0=!
#1203825
1^
#1204412
1C!
#1205483
0L
#1205789
0H
1J
#1205842
1F
#1205876
1K
#1206182
0I
1G
#1206421
1I
#1207437
0[
#1207655
0c!
1b!
08!
#1208299
19!
#1208704
0P
#1208732
1N
#1209034
0:!
#1209265
1(
#1240000
1!
0=
#1241140
1\
#1241283
1=!
#1243825
0^
#1244412
0C!
#1245842
0F
#1249265
0(
#1280000
0!
1=
#1281140
0\
#1281283
0=!
#1283825
1^
#1284412
1C!
#1285483
1L
#1285789
1H
#1285842
1F
#1285876
0K
#1286182
0G
#1286421
0I
#1287655
1c!
0;!
#1288291
1<!
#1288704
1P
#1288732
0N
#1288790
0Q
#1288876
1S
#1288962
0T
#1289210
0W
#1289265
1(
#1289296
0R
#1289382
0D
#1289468
1U
#1291992
1<
#1320000
1!
0=
#1321140
1\
#1321283
1=!
#1323825
0^
#1324412
0C!
#1325842
0F
#1329265
0(
#1360000
0!
1=
#1361140
0\
#1361283
0=!
#1363825
1^
#1364412
1C!
#1365483
0L
#1365789
0H
0J
#1365842
1F
#1365876
1K
#1366182
1I
1G
#1366421
0I
#1367437
1[
#1367655
0`!
0c!
0a!
1_!
0b!
#1368315
0U
#1368665
1X
#1368704
0P
0S
#1368731
1R
#1368732
1N
#1368748
1T
1Q
#1369254
0R
1U
#1369255
1Y
#1369265
1(
#1370526
0_!
0E!
0D!
#1370919
0_
#1371179
0^
#1371186
0U
#1371335
0C!
#1371612
0Y
#1371613
0?!
#1371874
1m
#1371896
1:!
#1372478
1|
#1372479
1y
#1372480
1p
1s
#1372632
1+!
#1372633
14!
#1372634
11!
#1372691
1;
#1372765
0F
#1374648
0*
#1375110
0)
#1376188
0(
#1400000
1!
0=
#1401140
1\
#1401283
1=!
#1440000
0!
1=
#1441140
0\
#1441283
0=!
#1480000
1!
0=
#1481140
1\
#1481283
1=!
#1520000
0!
1=
#1521140
0\
#1521283
0=!
#1560000
1!
0=
#1561140
1\
#1561283
1=!
#1600000
0!
1=
#1601140
0\
#1601283
0=!
#1640000
1!
0=
#1641140
1\
#1641283
1=!
#1680000
0!
1=
#1681140
0\
#1681283
0=!
#1720000
1!
0=
#1721140
1\
#1721283
1=!
#1760000
0!
1=
#1761140
0\
#1761283
0=!
#1800000
1!
0=
#1801140
1\
#1801283
1=!
#1840000
0!
1=
#1841140
0\
#1841283
0=!
#1880000
1!
0=
#1881140
1\
#1881283
1=!
#1920000
0!
1=
#1921140
0\
#1921283
0=!
#1960000
1!
0=
#1961140
1\
#1961283
1=!
#2000000
0!
1=
#2001140
0\
#2001283
0=!
#2040000
1!
0=
#2041140
1\
#2041283
1=!
#2080000
0!
1=
#2081140
0\
#2081283
0=!
#2120000
1!
0=
#2121140
1\
#2121283
1=!
#2160000
0!
1=
#2161140
0\
#2161283
0=!
#2200000
1!
0=
#2201140
1\
#2201283
1=!
#2240000
0!
1=
#2241140
0\
#2241283
0=!
#2280000
1!
0=
#2281140
1\
#2281283
1=!
#2320000
0!
1=
#2321140
0\
#2321283
0=!
#2360000
1!
0=
#2361140
1\
#2361283
1=!
#2400000
0!
1=
#2401140
0\
#2401283
0=!
#2440000
1!
0=
#2441140
1\
#2441283
1=!
#2480000
0!
1=
#2481140
0\
#2481283
0=!
#2520000
1!
0=
#2521140
1\
#2521283
1=!
#2560000
0!
1=
#2561140
0\
#2561283
0=!
#2600000
1!
0=
#2601140
1\
#2601283
1=!
#2640000
0!
1=
#2641140
0\
#2641283
0=!
#2680000
1!
0=
#2681140
1\
#2681283
1=!
#2720000
0!
1=
#2721140
0\
#2721283
0=!
#2760000
1!
0=
#2761140
1\
#2761283
1=!
#2800000
0!
1=
#2801140
0\
#2801283
0=!
#2840000
1!
0=
#2841140
1\
#2841283
1=!
#2880000
0!
1=
#2881140
0\
#2881283
0=!
#2920000
1!
0=
#2921140
1\
#2921283
1=!
#2960000
0!
1=
#2961140
0\
#2961283
0=!
#3000000
1!
0=
#3001140
1\
#3001283
1=!
#3040000
0!
1=
#3041140
0\
#3041283
0=!
#3080000
1!
0=
#3081140
1\
#3081283
1=!
#3120000
0!
1=
#3121140
0\
#3121283
0=!
#3160000
1!
0=
#3161140
1\
#3161283
1=!
#3200000
0!
1=
#3201140
0\
#3201283
0=!
#3240000
1!
0=
#3241140
1\
#3241283
1=!
#3280000
0!
1=
#3281140
0\
#3281283
0=!
#3320000
1!
0=
#3321140
1\
#3321283
1=!
#3360000
0!
1=
#3361140
0\
#3361283
0=!
#3400000
1!
0=
#3401140
1\
#3401283
1=!
#3440000
0!
1=
#3441140
0\
#3441283
0=!
#3480000
1!
0=
#3481140
1\
#3481283
1=!
#3520000
0!
1=
#3521140
0\
#3521283
0=!
#3560000
1!
0=
#3561140
1\
#3561283
1=!
#3600000
0!
1=
#3601140
0\
#3601283
0=!
#3640000
1!
0=
#3641140
1\
#3641283
1=!
#3680000
0!
1=
#3681140
0\
#3681283
0=!
#3720000
1!
0=
#3721140
1\
#3721283
1=!
#3760000
b100 '
1"
0!
1=
#3760995
1P!
#3761004
1c
#3761140
0\
#3761283
0=!
#3766467
1g
#3800000
1!
0=
#3801140
1\
#3801283
1=!
#3840000
1%
1$
b0 '
0"
0!
1=
#3840985
1Z
#3840995
0P!
#3841004
0c
#3841025
1]
#3841140
0\
#3841283
0=!
#3843096
0^!
0Y!
1\!
0T!
0W!
0X!
0[!
#3843741
0j
#3844307
1k
#3844429
0E
#3844435
1h
#3844842
1(!
#3844876
1.!
#3844959
01!
#3845001
17!
#3845204
1!!
#3845685
1v
#3845944
1$!
#3846340
0p
#3846467
0g
#3847273
17
#3847288
06
#3847318
09
#3847357
0/
#3847607
03
#3848094
04
#3848447
02
#3848475
1-
#3880000
1!
0=
#3881140
1\
#3881283
1=!
#3920000
b1 '
b11 '
0%
0$
b111 '
0!
1=
#3920975
1R!
#3920984
1Q!
#3920985
0Z
#3920995
1P!
#3921025
0]
#3921140
0\
#3921283
0=!
#3924142
1D!
#3924535
1_
#3924795
1^
#3925490
0m
#3926453
1L
#3926467
1g
#3926759
1H
#3926846
0K
#3926925
1f
#3927152
0G
#3927305
1>!
#3927391
1I
#3927655
1M
#3928726
1)
#3960000
1!
0=
#3961140
1\
#3961283
1=!
#3963825
0^
#4000000
0!
1=
#4001140
0\
#4001283
0=!
#4003825
1^
#4005483
0L
#4005789
0H
1J
#4005876
1K
#4006182
0I
1G
#4006421
1I
#4007437
0[
#4008411
1C!
#4009841
1F
#4011654
1c!
1t
1w
1z
1}
1"!
1%!
1)!
1,!
1/!
15!
18!
1;!
#4012289
00!
#4012290
0<!
#4012293
0#!
#4012294
0x
#4012295
0-!
0~
0{
#4012296
06!
0*!
#4012298
09!
0u
#4012307
0X
#4012594
0&!
#4012703
1P
#4012731
0N
#4012896
1?!
#4013209
1W
#4013264
1(
#4013763
0s
#4013916
04!
#4013917
11!
#4015991
0<
#4016333
0;
#4040000
1!
0=
#4041140
1\
#4041283
1=!
#4043825
0^
#4080000
b110 '
b100 '
b0 '
0!
1=
#4080975
0R!
#4080984
0Q!
#4080995
0P!
#4081140
0\
#4081283
0=!
#4083825
1^
#4085483
1L
#4085789
1H
#4085876
0K
#4086182
0G
#4086421
0I
#4086467
0g
#4086925
0f
#4087305
0>!
#4087655
0M
#4120000
1!
0=
#4121140
1\
#4121283
1=!
#4123825
0^
#4160000
0!
1=
#4161140
0\
#4161283
0=!
#4163825
1^
#4165483
0L
#4165789
0H
0J
#4165876
1K
#4166182
1I
1G
#4166421
0I
#4167437
1[
#4168411
0C!
#4169841
0F
#4173264
0(
