Lab4/RS_trigger/simulation/qsim/RS_trigger.msim.vcd
$comment
	File created using the following command:
		vcd file RS_trigger.msim.vcd -direction
$end
$date
	Thu Apr 04 20:09:39 2024
$end
$version
	ModelSim Version 10.1d
$end
$timescale
	1ps
$end
$scope module RS_trigger_vlg_vec_tst $end
$var reg 1 ! Clk $end
$var reg 1 " CLR $end
$var reg 1 # PRM $end
$var reg 4 $ x [3:0] $end
$var wire 1 % R $end
$var wire 1 & RS $end
$var wire 1 ' S $end
$var wire 1 ( sampler $end
$scope module i1 $end
$var wire 1 ) gnd $end
$var wire 1 * vcc $end
$var wire 1 + unknown $end
$var tri1 1 , devclrn $end
$var tri1 1 - devpor $end
$var tri1 1 . devoe $end
$var wire 1 / Clk~combout $end
$var wire 1 0 PRM~combout $end
$var wire 1 1 CLR~combout $end
$var wire 1 2 inst2~1_combout $end
$var wire 1 3 inst5~0_combout $end
$var wire 1 4 inst2~3_combout $end
$var wire 1 5 inst2~0_combout $end
$var wire 1 6 inst2~_emulated_regout $end
$var wire 1 7 inst2~2_combout $end
$var wire 1 8 inst6~0_combout $end
$var wire 1 9 x~combout [3] $end
$var wire 1 : x~combout [2] $end
$var wire 1 ; x~combout [1] $end
$var wire 1 < x~combout [0] $end
$upscope $end
$upscope $end
$enddefinitions $end
#0
$dumpvars
0!
1"
1#
b0 $
x%
x&
x'
x(
0)
1*
x+
1,
1-
1.
0/
10
11
x2
x3
x4
x5
x6
x7
x8
0<
0;
0:
09
$end
#267
06
#5876
08
#6277
03
#6291
05
#9936
0'
#10042
0%
#20000
1!
0(
#20975
1/
#22870
x6
#40000
0"
b1 $
0!
1(
#40975
0/
#40985
1<
01
#46660
02
#46662
15
#46666
07
#47654
04
#47917
06
#50840
0&
#60000
1!
0(
#60975
1/
#80000
0#
b11 $
1"
b10 $
0!
1(
#80975
0/
#80985
11
0<
#80995
1;
#81025
00
#86662
05
#87283
12
#87316
15
#87319
17
#91493
1&
#100000
1!
0(
#100975
1/
#120000
1#
b11 $
0!
1(
#120975
0/
#120985
1<
#121025
10
#126847
18
#127316
05
#130907
1'
#140000
1!
0(
#140975
1/
#160000
b111 $
b101 $
b100 $
0!
1(
#160975
0/
#160985
0<
#160995
0;
#161025
1:
#180000
1!
0(
#180975
1/
#200000
b101 $
0!
1(
#200975
0/
#200985
1<
#206847
08
#210907
0'
#220000
1!
0(
#220975
1/
#240000
b111 $
b110 $
0!
1(
#240975
0/
#240985
0<
#240995
1;
#247272
13
#248332
14
#251037
1%
#260000
1!
0(
#260975
1/
#262870
16
#263506
07
#267680
0&
#280000
b111 $
0!
1(
#280975
0/
#280985
1<
#300000
1!
0(
#300975
1/
#320000
b1111 $
b1011 $
b1001 $
b1000 $
0!
1(
#320975
0/
#320985
0<
#320995
19
0;
#321025
0:
#327272
03
#327283
18
#328628
04
#331037
0%
#331343
1'
#340000
1!
0(
#340975
1/
#342870
06
#343506
17
#347680
1&
#360000
b1001 $
0!
1(
#360975
0/
#360985
1<
#366847
08
#366848
13
#367908
14
#370613
1%
#370907
0'
#380000
1!
0(
#380975
1/
#382870
16
#383506
07
#387680
0&
#400000
b1011 $
b1010 $
0!
1(
#400975
0/
#400985
0<
#400995
1;
#420000
1!
0(
#420975
1/
#440000
b1011 $
0!
1(
#440975
0/
#440985
1<
#446847
18
#446848
03
#448192
04
#450613
0%
#450907
1'
#460000
1!
0(
#460975
1/
#462870
06
#463506
17
#467680
1&
#480000
b1111 $
b1101 $
b1100 $
0!
1(
#480975
0/
#480985
0<
#480995
0;
#481025
1:
#500000
1!
0(
#500975
1/
#520000
b1101 $
0!
1(
#520975
0/
#520985
1<
#540000
1!
0(
#540975
1/
#560000
b1111 $
b1110 $
0!
1(
#560975
0/
#560985
0<
#560995
1;
#567272
13
#567283
08
#568332
14
#571037
1%
#571343
0'
#580000
1!
0(
#580975
1/
#582870
16
#583506
07
#587680
0&
#600000
b1111 $
0!
1(
#600975
0/
#600985
1<
#620000
1!
0(
#620975
1/
#640000
b111 $
b11 $
b1 $
b0 $
0!
1(
#640975
0/
#640985
0<
#640995
09
0;
#641025
0:
#647272
03
#651037
0%
#660000
1!
0(
#660975
1/
#680000
b1 $
0!
1(
#680975
0/
#680985
1<
#700000
1!
0(
#700975
1/
#720000
b11 $
b10 $
0!
1(
#720975
0/
#720985
0<
#720995
1;
#740000
1!
0(
#740975
1/
#760000
b11 $
0!
1(
#760975
0/
#760985
1<
#766847
18
#768192
04
#770907
1'
#780000
1!
0(
#780975
1/
#782870
06
#783506
17
#787680
1&
#800000
b111 $
b101 $
b100 $
0!
1(
#800975
0/
#800985
0<
#800995
0;
#801025
1:
#820000
1!
0(
#820975
1/
#840000
b101 $
0!
1(
#840975
0/
#840985
1<
#846847
08
#850907
0'
#860000
1!
0(
#860975
1/
#880000
b111 $
b110 $
0!
1(
#880975
0/
#880985
0<
#880995
1;
#887272
13
#888332
14
#891037
1%
#900000
1!
0(
#900975
1/
#902870
16
#903506
07
#907680
0&
#920000
0"
b111 $
0!
1(
#920975
0/
#920985
1<
01
#926660
02
#926662
15
#927654
04
#927917
06
#940000
1!
0(
#940975
1/
#960000
b1111 $
b1011 $
b1001 $
1"
b1000 $
0!
1(
#960975
0/
#960985
11
0<
#960995
19
0;
#961025
0:
#966662
05
#967272
03
#967283
18
#968628
14
#971037
0%
#971343
1'
#980000
1!
0(
#980975
1/
#982870
16
#983506
17
#987680
1&
