Lab2/Lab2_1/simulation/qsim/lab2_1.msim.vcd
$comment
	File created using the following command:
		vcd file lab2_1.msim.vcd -direction
$end
$date
	Wed Feb 14 18:15:58 2024
$end
$version
	ModelSim Version 10.1d
$end
$timescale
	1ps
$end
$scope module lab2_1_vlg_vec_tst $end
$var reg 4 ! x [4:1] $end
$var wire 1 " dec_out $end
$var wire 1 # lab1_out $end
$var wire 1 $ mux_out $end
$var wire 1 % sampler $end
$scope module i1 $end
$var wire 1 & gnd $end
$var wire 1 ' vcc $end
$var wire 1 ( unknown $end
$var tri1 1 ) devclrn $end
$var tri1 1 * devpor $end
$var tri1 1 + devoe $end
$var wire 1 , inst|inst11~0_combout $end
$var wire 1 - inst4~0_combout $end
$var wire 1 . x~combout [4] $end
$var wire 1 / x~combout [3] $end
$var wire 1 0 x~combout [2] $end
$var wire 1 1 x~combout [1] $end
$upscope $end
$upscope $end
$enddefinitions $end
#0
$dumpvars
b0 !
x"
x#
x$
x%
0&
1'
x(
1)
1*
1+
x,
x-
01
00
0/
0.
$end
#5923
0-
#5924
1,
#9967
0#
#10000
b1 !
0%
#10086
0"
#10091
0$
#10995
11
#16999
0,
#17000
1-
#21042
1#
#21163
1"
#21168
1$
#30000
b0 !
1%
#30995
01
#36999
1,
#37000
0-
#40000
b10 !
0%
#40984
10
#41042
0#
#41163
0"
#41168
0$
#46907
1-
#46908
0,
#50951
1#
#51070
1"
#51075
1$
#60000
b0 !
1%
#60984
00
#66907
0-
#66908
1,
#70000
b1 !
b11 !
0%
#70951
0#
#70984
10
#70995
11
#71070
0"
#71075
0$
#76999
0,
#77000
1-
#81042
1#
#81163
1"
#81168
1$
#90000
b10 !
b0 !
1%
#90984
00
#90995
01
#96907
0-
#96908
1,
#100000
b100 !
0%
#100951
0#
#100985
1/
#101070
0"
#101075
0$
#120000
b0 !
1%
#120985
0/
#130000
b1 !
b101 !
0%
#130985
1/
#130995
11
#150000
b100 !
b0 !
1%
#150985
0/
#150995
01
#160000
b10 !
b110 !
0%
#160984
10
#160985
1/
#180000
b100 !
b0 !
1%
#180984
00
#180985
0/
#190000
b1 !
b11 !
b111 !
0%
#190984
10
#190985
1/
#190995
11
#210000
b110 !
b100 !
b0 !
1%
#210984
00
#210985
0/
#210995
01
#220000
b1000 !
0%
#220975
1.
#240000
b0 !
1%
#240975
0.
#250000
b1 !
b1001 !
0%
#250975
1.
#250995
11
#270000
b1000 !
b0 !
1%
#270975
0.
#270995
01
#280000
b10 !
b1010 !
0%
#280975
1.
#280984
10
#300000
b1000 !
b0 !
1%
#300975
0.
#300984
00
#310000
b1 !
b11 !
b1011 !
0%
#310975
1.
#310984
10
#310995
11
#330000
b1010 !
b1000 !
b0 !
1%
#330975
0.
#330984
00
#330995
01
#340000
b100 !
b1100 !
0%
#340975
1.
#340985
1/
#347252
0,
#347258
1-
#351295
1#
#351421
1"
#351426
1$
#360000
b1000 !
b0 !
1%
#360975
0.
#360985
0/
#367262
0-
1,
#370000
b1 !
b101 !
b1101 !
0%
#370975
1.
#370985
1/
#370995
11
#371305
0#
#371425
0"
#371430
0$
#377252
0,
#377258
1-
#381295
1#
#381421
1"
#381426
1$
#390000
b1100 !
b1000 !
b0 !
1%
#390975
0.
#390985
0/
#390995
01
#397262
0-
1,
#400000
b10 !
b110 !
b1110 !
0%
#400975
1.
#400984
10
#400985
1/
#401305
0#
#401425
0"
#401430
0$
#420000
b1100 !
b1000 !
b0 !
1%
#420975
0.
#420984
00
#420985
0/
#430000
b1 !
b11 !
b111 !
b1111 !
0%
#430975
1.
#430984
10
#430985
1/
#430995
11
#450000
b1110 !
b1100 !
b1000 !
b0 !
1%
#450975
0.
#450984
00
#450985
0/
#450995
01
