Lab4/D_trigger/simulation/qsim/D_trigger.msim.vcd
$comment
	File created using the following command:
		vcd file D_trigger.msim.vcd -direction
$end
$date
	Thu Apr 04 20:20:06 2024
$end
$version
	ModelSim Version 10.1d
$end
$timescale
	1ps
$end
$scope module D_trigger_vlg_vec_tst $end
$var reg 1 ! Clk $end
$var reg 1 " CLRN $end
$var wire 1 # C $end
$var wire 1 $ D $end
$var wire 1 % DFF $end
$var wire 1 & DLATCH $end
$var wire 1 ' x [3] $end
$var wire 1 ( x [2] $end
$var wire 1 ) x [1] $end
$var wire 1 * x [0] $end
$var wire 1 + sampler $end
$scope module i1 $end
$var wire 1 , gnd $end
$var wire 1 - vcc $end
$var wire 1 . unknown $end
$var tri1 1 / devclrn $end
$var tri1 1 0 devpor $end
$var tri1 1 1 devoe $end
$var wire 1 2 Clk~combout $end
$var wire 1 3 Clk~clkctrl_outclk $end
$var wire 1 4 inst2|LPM_COUNTER_component|auto_generated|counter_comb_bita0~COUT $end
$var wire 1 5 inst2|LPM_COUNTER_component|auto_generated|counter_comb_bita1~combout $end
$var wire 1 6 inst2|LPM_COUNTER_component|auto_generated|counter_comb_bita1~COUT $end
$var wire 1 7 inst2|LPM_COUNTER_component|auto_generated|counter_comb_bita2~combout $end
$var wire 1 8 inst2|LPM_COUNTER_component|auto_generated|counter_comb_bita2~COUT $end
$var wire 1 9 inst2|LPM_COUNTER_component|auto_generated|counter_comb_bita3~combout $end
$var wire 1 : inst2|LPM_COUNTER_component|auto_generated|counter_comb_bita0~combout $end
$var wire 1 ; inst6|LPM_MUX_component|auto_generated|result_node[0]~0_combout $end
$var wire 1 < CLRN~combout $end
$var wire 1 = inst2|LPM_COUNTER_component|auto_generated|safe_q[1]~clkctrl_outclk $end
$var wire 1 > inst6|LPM_MUX_component|auto_generated|result_node[0]~1_combout $end
$var wire 1 ? inst~combout $end
$var wire 1 @ inst5~regout $end
$var wire 1 A inst2|LPM_COUNTER_component|auto_generated|safe_q [3] $end
$var wire 1 B inst2|LPM_COUNTER_component|auto_generated|safe_q [2] $end
$var wire 1 C inst2|LPM_COUNTER_component|auto_generated|safe_q [1] $end
$var wire 1 D inst2|LPM_COUNTER_component|auto_generated|safe_q [0] $end
$upscope $end
$upscope $end
$enddefinitions $end
#0
$dumpvars
0!
1"
0#
1$
0%
x&
0*
0)
0(
0'
x+
0,
1-
x.
1/
10
11
02
03
04
05
16
07
08
09
1:
1;
1<
0=
0>
x?
0@
0D
0C
0B
0A
$end
#10000
1!
12
13
0+
1D
0;
14
0:
1*
15
0$
#20000
0!
02
03
1+
#30000
1!
12
13
0+
0D
1C
1=
04
1:
06
05
0?
0*
1)
1#
16
15
17
0&
07
#40000
0!
02
03
1+
#50000
1!
12
13
0+
1D
14
0:
1*
06
05
17
#60000
0!
02
03
1+
#70000
1!
12
13
0+
0D
1B
0C
0=
1>
04
1:
18
07
16
15
0*
1(
0)
0#
05
19
08
17
09
#80000
0!
02
03
1+
#90000
1!
12
13
0+
1D
0>
1;
14
0:
1*
15
1$
#100000
0!
02
03
1+
#110000
1!
12
13
0+
0D
1C
1=
1>
04
1:
06
05
0*
1)
1#
1?
16
15
18
07
08
17
19
1&
09
1@
1%
#120000
0!
02
03
1+
#130000
1!
12
13
0+
1D
0>
0;
14
0:
1*
0?
06
05
0$
18
07
0&
19
#140000
0!
02
03
1+
#150000
1!
12
13
0+
0D
1A
0B
0C
0=
1>
04
1:
09
08
17
16
15
0*
1'
0(
0)
0#
05
19
07
#160000
0!
02
03
1+
#170000
1!
12
13
0+
1D
1;
14
0:
1*
15
1$
#180000
0!
02
03
1+
#190000
1!
12
13
0+
0D
1C
1=
04
1:
06
05
1?
0*
1)
1#
16
15
17
1&
07
#200000
0!
02
03
1+
#210000
1!
12
13
0+
1D
14
0:
1*
06
05
17
#220000
0!
02
03
1+
#230000
1!
12
13
0+
0D
1B
0C
0=
0>
04
1:
18
07
16
15
0*
1(
0)
0#
05
09
08
17
19
#240000
0!
02
03
1+
#250000
1!
12
13
0+
1D
1>
0;
14
0:
1*
15
0$
#260000
0!
02
03
1+
#270000
1!
12
13
0+
0D
1C
1=
0>
04
1:
06
05
0*
1)
1#
0?
16
15
18
07
08
17
09
0&
19
0@
0%
#280000
0!
02
03
1+
#290000
1!
12
13
0+
1D
1>
1;
14
0:
1*
1?
06
05
1$
18
07
1&
09
#300000
0!
02
03
1+
#310000
1!
12
13
0+
0D
0A
0B
0C
0=
0>
04
1:
19
08
17
16
15
0*
0'
0(
0)
0#
05
09
07
#320000
0!
02
03
1+
#330000
1!
12
13
0+
1D
0;
14
0:
1*
15
0$
#340000
0!
02
03
1+
#350000
1!
12
13
0+
0D
1C
1=
04
1:
06
05
0?
0*
1)
1#
16
15
17
0&
07
#360000
0!
02
03
1+
#370000
1!
12
13
0+
1D
14
0:
1*
06
05
17
#380000
0!
02
03
1+
#390000
1!
12
13
0+
0D
1B
0C
0=
1>
04
1:
18
07
16
15
0*
1(
0)
0#
05
19
08
17
09
#400000
0!
02
03
1+
#410000
1!
12
13
0+
1D
0>
1;
14
0:
1*
15
1$
#420000
0!
02
03
1+
#430000
1!
12
13
0+
0D
1C
1=
1>
04
1:
06
05
0*
1)
1#
1?
16
15
18
07
08
17
19
1&
09
1@
1%
#440000
0!
02
03
1+
#450000
1!
12
13
0+
1D
0>
0;
14
0:
1*
0?
06
05
0$
18
07
0&
19
#460000
0!
02
03
1+
#470000
1!
12
13
0+
0D
1A
0B
0C
0=
1>
04
1:
09
08
17
16
15
0*
1'
0(
0)
0#
05
19
07
#480000
0!
02
03
1+
#490000
1!
12
13
0+
1D
1;
14
0:
1*
15
1$
#500000
0!
02
03
1+
#510000
1!
12
13
0+
0D
1C
1=
04
1:
06
05
1?
0*
1)
1#
16
15
17
1&
07
#520000
0!
02
03
1+
#530000
1!
12
13
0+
1D
14
0:
1*
06
05
17
#540000
0!
02
03
1+
#550000
1!
12
13
0+
0D
1B
0C
0=
0>
04
1:
18
07
16
15
0*
1(
0)
0#
05
09
08
17
19
#560000
0!
02
03
1+
#570000
1!
12
13
0+
1D
1>
0;
14
0:
1*
15
0$
#580000
0!
02
03
1+
#590000
1!
12
13
0+
0D
1C
1=
0>
04
1:
06
05
0*
1)
1#
0?
16
15
18
07
08
17
09
0&
19
0@
0%
#600000
0!
02
03
1+
#610000
1!
12
13
0+
1D
1>
1;
14
0:
1*
1?
06
05
1$
18
07
1&
09
#620000
0!
02
03
1+
#630000
1!
12
13
0+
0D
0A
0B
0C
0=
0>
04
1:
19
08
17
16
15
0*
0'
0(
0)
0#
05
09
07
